storm-bootrom.vcd
$comment
Copyright (C) 1991-2013 Altera Corporation
Your use of Altera Corporation's design tools, logic functions 
and other software and tools, and its AMPP partner logic 
functions, and any output files from any of the foregoing 
(including device programming or simulation files), and any 
associated documentation or information are expressly subject 
to the terms and conditions of the Altera Program License 
Subscription Agreement, Altera MegaCore Function License 
Agreement, or other applicable license agreement, including, 
without limitation, that your use is for the sole purpose of 
programming logic devices manufactured by Altera and sold by 
Altera or its authorized distributors.  Please refer to the 
applicable agreement for further details.
$end

$date 
  10/04/2015 22:47:40 
$end
$version 
 QUARTUS_VCD_EXPORT 1.0 
$end
$timescale
  1 ps
$end
$scope module STORM_TOP_INST $end
$var reg 1 ! WB_WE_O $end
$var reg 1 " WB_CYC_O $end
$scope module BUS_UNIT_INST $end
$var reg 1 # WB_ADR_O[31] $end
$var reg 1 $ WB_ADR_O[30] $end
$var reg 1 % WB_ADR_O[29] $end
$var reg 1 & WB_ADR_O[28] $end
$var reg 1 ' WB_ADR_O[27] $end
$var reg 1 ( WB_ADR_O[26] $end
$var reg 1 ) WB_ADR_O[25] $end
$var reg 1 * WB_ADR_O[24] $end
$var reg 1 + WB_ADR_O[23] $end
$var reg 1 , WB_ADR_O[22] $end
$var reg 1 - WB_ADR_O[21] $end
$var reg 1 . WB_ADR_O[20] $end
$var reg 1 / WB_ADR_O[19] $end
$var reg 1 0 WB_ADR_O[18] $end
$var reg 1 1 WB_ADR_O[17] $end
$var reg 1 2 WB_ADR_O[16] $end
$var reg 1 3 WB_ADR_O[15] $end
$var reg 1 4 WB_ADR_O[14] $end
$var reg 1 5 WB_ADR_O[13] $end
$var reg 1 6 WB_ADR_O[12] $end
$var reg 1 7 WB_ADR_O[11] $end
$var reg 1 8 WB_ADR_O[10] $end
$var reg 1 9 WB_ADR_O[9] $end
$var reg 1 : WB_ADR_O[8] $end
$var reg 1 ; WB_ADR_O[7] $end
$var reg 1 < WB_ADR_O[6] $end
$var reg 1 = WB_ADR_O[5] $end
$var reg 1 > WB_ADR_O[4] $end
$var reg 1 ? WB_ADR_O[3] $end
$var reg 1 @ WB_ADR_O[2] $end
$var reg 1 A WB_ADR_O[1] $end
$var reg 1 B WB_ADR_O[0] $end
$var reg 1 C WB_DATA_O[31] $end
$var reg 1 D WB_DATA_O[30] $end
$var reg 1 E WB_DATA_O[29] $end
$var reg 1 F WB_DATA_O[28] $end
$var reg 1 G WB_DATA_O[27] $end
$var reg 1 H WB_DATA_O[26] $end
$var reg 1 I WB_DATA_O[25] $end
$var reg 1 J WB_DATA_O[24] $end
$var reg 1 K WB_DATA_O[23] $end
$var reg 1 L WB_DATA_O[22] $end
$var reg 1 M WB_DATA_O[21] $end
$var reg 1 N WB_DATA_O[20] $end
$var reg 1 O WB_DATA_O[19] $end
$var reg 1 P WB_DATA_O[18] $end
$var reg 1 Q WB_DATA_O[17] $end
$var reg 1 R WB_DATA_O[16] $end
$var reg 1 S WB_DATA_O[15] $end
$var reg 1 T WB_DATA_O[14] $end
$var reg 1 U WB_DATA_O[13] $end
$var reg 1 V WB_DATA_O[12] $end
$var reg 1 W WB_DATA_O[11] $end
$var reg 1 X WB_DATA_O[10] $end
$var reg 1 Y WB_DATA_O[9] $end
$var reg 1 Z WB_DATA_O[8] $end
$var reg 1 [ WB_DATA_O[7] $end
$var reg 1 \ WB_DATA_O[6] $end
$var reg 1 ] WB_DATA_O[5] $end
$var reg 1 ^ WB_DATA_O[4] $end
$var reg 1 _ WB_DATA_O[3] $end
$var reg 1 ` WB_DATA_O[2] $end
$var reg 1 a WB_DATA_O[1] $end
$var reg 1 b WB_DATA_O[0] $end
$upscope $end
$upscope $end
$scope module SYSCON_CLK $end
$var reg 1 c c0 $end
$upscope $end
$var reg 1 d CORE_WB_DATA_I[31] $end
$var reg 1 e CORE_WB_DATA_I[30] $end
$var reg 1 f CORE_WB_DATA_I[29] $end
$var reg 1 g CORE_WB_DATA_I[28] $end
$var reg 1 h CORE_WB_DATA_I[27] $end
$var reg 1 i CORE_WB_DATA_I[26] $end
$var reg 1 j CORE_WB_DATA_I[25] $end
$var reg 1 k CORE_WB_DATA_I[24] $end
$var reg 1 l CORE_WB_DATA_I[23] $end
$var reg 1 m CORE_WB_DATA_I[22] $end
$var reg 1 n CORE_WB_DATA_I[21] $end
$var reg 1 o CORE_WB_DATA_I[20] $end
$var reg 1 p CORE_WB_DATA_I[19] $end
$var reg 1 q CORE_WB_DATA_I[18] $end
$var reg 1 r CORE_WB_DATA_I[17] $end
$var reg 1 s CORE_WB_DATA_I[16] $end
$var reg 1 t CORE_WB_DATA_I[15] $end
$var reg 1 u CORE_WB_DATA_I[14] $end
$var reg 1 v CORE_WB_DATA_I[13] $end
$var reg 1 w CORE_WB_DATA_I[12] $end
$var reg 1 x CORE_WB_DATA_I[11] $end
$var reg 1 y CORE_WB_DATA_I[10] $end
$var reg 1 z CORE_WB_DATA_I[9] $end
$var reg 1 { CORE_WB_DATA_I[8] $end
$var reg 1 | CORE_WB_DATA_I[7] $end
$var reg 1 } CORE_WB_DATA_I[6] $end
$var reg 1 ~ CORE_WB_DATA_I[5] $end
$var reg 1 !! CORE_WB_DATA_I[4] $end
$var reg 1 !" CORE_WB_DATA_I[3] $end
$var reg 1 !# CORE_WB_DATA_I[2] $end
$var reg 1 !$ CORE_WB_DATA_I[1] $end
$var reg 1 !% CORE_WB_DATA_I[0] $end
$var reg 1 !& BOOT_ROM_STB_I $end
$var reg 1 !' INT_MEM_STB_I $end
$var reg 1 !( SDRAM_MEM_STB_I $end
$var reg 1 !) UART1_STB_I $end
$enddefinitions $end
#0
$dumpvars
X!
X"
X#
X$
X%
X&
X'
X(
X)
X*
X+
X,
X-
X.
X/
X0
X1
X2
X3
X4
X5
X6
X7
X8
X9
X:
X;
X<
X=
X>
X?
X@
XA
XB
XC
XD
XE
XF
XG
XH
XI
XJ
XK
XL
XM
XN
XO
XP
XQ
XR
XS
XT
XU
XV
XW
XX
XY
XZ
X[
X\
X]
X^
X_
X`
Xa
Xb
0c
Xd
Xe
Xf
Xg
Xh
Xi
Xj
Xk
Xl
Xm
Xn
Xo
Xp
Xq
Xr
Xs
Xt
Xu
Xv
Xw
Xx
Xy
Xz
X{
X|
X}
X~
X!!
X!"
X!#
X!$
X!%
X!&
X!'
X!(
X!)
$end
#10000
$comment Sample 0 (Start/Trigger) $end
0!
1"
0#
0$
0%
0&
0'
0(
0)
0*
0+
0,
0-
0.
0/
00
01
12
03
04
05
06
07
08
09
0:
0;
0<
0=
0>
0?
0@
0A
0B
0C
1D
1E
1F
1G
0H
0I
0J
0K
0L
1M
0N
0O
1P
0Q
1R
0S
1T
1U
1V
1W
0X
0Y
0Z
0[
0\
1]
0^
0_
0`
0a
0b
1c
1d
1e
1f
0g
0h
0i
1j
0k
1l
0m
0n
0o
0p
1q
0r
0s
0t
1u
0v
0w
0x
0y
0z
0{
0|
0}
0~
0!!
0!"
0!#
0!$
1!%
1!&
0!'
0!(
0!)
#20000
0c
#30000
1@
1c
1h
0l
0q
0u
1!#
1!$
0!%
#40000
0c
#50000
1?
0@
1c
1y
1}
1~
1!!
1!"
0!#
1!%
#60000
0c
#70000
1@
1c
0!%
#80000
0c
#90000
1>
0?
0@
1c
0!$
1!%
#100000
0c
#110000
1@
1c
0!%
#120000
0c
#130000
1?
0@
1c
0!"
1!#
1!$
1!%
#140000
0c
#150000
1@
1c
0!%
#160000
0c
#170000
1=
0>
0?
0@
1c
0!$
1!%
#180000
0c
#190000
1@
1c
0h
1i
0j
1k
1l
1o
1p
1q
1r
1s
0y
1{
0!!
1!"
0!#
0!%
#200000
0c
#210000
1?
0@
1c
0i
0l
0o
1w
0{
0}
0~
0!"
#220000
0c
#230000
1@
1c
1j
1l
1m
0p
0q
0r
1}
1~
1!!
1!"
1!#
1!$
1!%
#240000
0c
#250000
1>
0?
0@
1c
0m
1|
0~
#260000
0c
#270000
1@
1c
0j
0l
1n
1p
1t
1u
1v
0|
0}
0!!
0!"
0!#
0!$
#280000
0c
#290000
1?
0@
1c
1l
0p
0s
0v
0!%
#300000
0c
#310000
1@
1c
1j
0t
0u
0w
#320000
0c
#330000
1<
0=
0>
0?
0@
1c
0j
1w
#340000
0c
#350000
1@
1c
1v
0w
#360000
0c
#370000
1?
0@
1c
1t
1w
#380000
0c
#390000
1@
1c
0t
1u
#400000
0c
#410000
1>
0?
0@
1c
1i
0n
1o
1p
1q
1r
1s
1t
0u
0w
1{
1}
#420000
0c
#430000
1@
1c
0i
1n
0o
0p
0q
0r
0s
1u
0{
0}
1!"
1!#
1!$
1!%
#440000
0c
#450000
1?
0@
1c
1w
0!#
0!%
#460000
0c
#470000
1@
1c
1j
0t
0u
0v
0w
0!"
1!%
#480000
0c
#490000
1=
0>
0?
0@
1c
0j
0l
1o
1p
1q
1r
1s
1t
1u
1v
1w
0!$
0!%
#500000
0c
#510000
1@
1c
1i
1l
0n
0v
1|
1!!
1!"
#520000
0c
#530000
1?
0@
1c
1h
0i
1j
0l
0o
0p
0q
0r
0s
0t
0u
0w
1{
1}
0!"
1!#
1!$
#540000
0c
#550000
1@
1c
0h
1i
0j
1l
1o
1p
1q
1r
1s
1w
0|
0}
1!"
0!#
0!$
#560000
0c
#570000
1>
0?
0@
1c
1v
0w
0{
1|
1~
#580000
0c
#590000
1@
1c
1w
#600000
0c
#610000
1?
0@
1c
0i
0l
1m
0p
0q
0s
0v
0w
0|
0~
0!!
0!"
1!$
1!%
#620000
0c
#630000
1@
1c
0d
0e
0f
1h
1j
0k
0m
0o
0r
0!%
#640000
0c
#650000
1c
1d
1e
1f
0h
1i
0j
1l
1o
1r
1u
1!#
0!$
#660000
0c
#670000
1c
#680000
0c
#690000
0"
1c
0d
0e
0f
0i
0l
0o
0r
0u
0!#
0!&
#700000
0c
#710000
1"
1:
1;
0<
0=
0>
0?
0@
1c
1d
1e
1f
1i
1l
1o
1r
1u
1!#
1!&
#720000
0c
#730000
1@
1c
0d
0e
0f
0i
0l
0o
0r
0u
0!#
#740000
0c
#750000
1?
0@
1c
#760000
0c
#770000
1@
1c
1q
1r
1s
1t
1u
#780000
0c
#790000
1>
0?
0@
1c
1j
1k
1l
1m
1n
1o
0q
0r
0s
0t
0u
1w
#800000
0c
#810000
1@
0D
0E
0F
1I
0M
0P
0R
0T
0U
0V
0W
0]
1c
0j
0k
0l
0m
0n
0o
1v
0w
1{
#820000
0c
#830000
1?
0@
1L
1M
1P
1R
1T
1U
1W
1X
1\
1]
1`
1a
1c
1s
0v
1y
1z
1|
1}
1!#
#840000
0c
#850000
1@
1E
0G
0I
1N
0P
1Q
1V
0W
0X
1_
0a
1c
0y
0z
0|
0}
1!"
0!#
#860000
0c
#870000
1=
0>
0?
0@
1D
1G
1J
1P
0Q
0R
0T
0U
0V
1W
1Y
0\
0]
0_
0`
1c
1!!
0!"
1!#
#880000
0c
#890000
1@
1I
0J
0L
0N
0P
1U
1V
0W
0Y
1\
1]
1^
1_
1c
1!"
1!$
1!%
#900000
0c
#910000
1?
0@
0D
0G
1H
0I
1J
1N
1W
1c
1d
1e
1f
1k
1l
1n
0s
1t
1u
0{
0!!
0!"
0!#
0!%
#920000
0c
#930000
1@
0E
1G
0H
1I
0J
0M
0N
0U
0V
0W
0\
0]
0^
0_
1c
1j
0t
0u
1v
0!$
#940000
0c
#950000
1>
0?
0@
1D
0I
1J
1L
1M
1O
1P
1Q
1T
1U
1V
1X
1Y
1\
1]
1b
1c
1i
0j
0n
1p
1q
#960000
0c
#970000
1@
1E
1H
0J
0P
0Q
1R
0V
0Y
0\
0b
1c
1h
0i
0l
1n
1s
1u
0v
1|
1}
1~
1!!
#980000
0c
#990000
1?
0@
0G
0H
1I
1J
1P
1Q
1W
1Z
1\
1_
1`
1b
1c
0h
0k
1l
0n
0p
0q
0s
0u
0|
0}
0~
0!!
1!%
#1000000
0c
#1010000
1@
0I
0R
0W
0Z
0\
0]
0_
0`
0b
1c
1k
1n
1u
1v
1!$
#1020000
0c
#1030000
1<
0=
0>
0?
0@
0D
1H
0O
0P
1R
0U
0X
1Z
1\
1]
1_
1`
1b
1c
0v
0!%
#1040000
0c
#1050000
1@
1D
0H
1I
0J
1P
0Q
1U
1V
1Y
0Z
0\
0_
0`
0b
1c
1w
0!$
1!%
#1060000
0c
#1070000
1?
0@
0E
1O
1Q
0V
1W
1X
1Z
1\
1^
1`
1c
1i
1m
0n
1o
0u
1v
0w
0!%
#1080000
0c
#1090000
1@
0D
1E
0I
0M
0Q
0R
0^
0`
1b
1c
0i
1j
0k
0l
0o
1r
1w
1~
1!!
#1100000
0c
#1110000
1>
0?
0@
1D
1H
1M
0O
1R
1V
0W
0X
0Z
0\
0b
1c
1k
1o
1s
0v
0w
0~
0!!
1!"
1!%
#1120000
0c
#1130000
1@
1F
1I
1J
1O
0P
1X
0Y
1\
1_
1c
0k
0o
0s
1t
1u
1v
1}
0!"
#1140000
0c
#1150000
1?
0@
0D
0F
0H
0I
0J
0M
0O
1P
0R
0U
0V
1Z
0\
1^
0_
1c
1k
1l
0m
1n
0r
0t
1w
0}
0!%
#1160000
0c
#1170000
1@
1G
1H
1J
1O
1Q
0X
1\
0]
0^
1_
1`
1a
1c
0e
0f
1h
0k
0l
0n
0u
0v
0w
1!#
1!$
#1180000
0c
#1190000
1=
0>
0?
0@
1D
0E
1I
0L
1M
0O
0P
0Q
0T
1U
1V
1Y
0\
1]
1^
0_
0`
1c
1e
1f
0h
1i
0j
1k
1l
1o
1p
1q
1v
1w
0!#
0!$
#1200000
0c
#1210000
1@
0I
1L
0M
1Q
0V
0Y
0Z
1\
1b
1c
0i
1n
0o
0p
0q
1z
1!$
1!%
#1220000
0c
#1230000
1?
0@
1E
1F
0G
1M
1N
0Q
1T
1V
0^
1_
1`
1c
1i
0n
1p
1q
0z
0!$
0!%
#1240000
0c
#1250000
1@
0H
1I
0J
1P
1X
1Y
0\
0_
0a
1c
1m
1o
0p
0q
0w
#1260000
0c
#1270000
1>
0?
0@
1J
0L
0M
0N
1O
0P
1Q
0T
0U
0V
0X
0Y
0]
0`
0b
1c
0i
0k
0m
0o
1r
1s
1w
1!$
#1280000
0c
#1290000
1@
0D
0J
1M
1N
0O
0Q
1U
1V
1Z
1]
1^
1`
1b
1c
1j
0l
1m
1~
1!!
0!$
#1300000
0c
#1310000
1?
0@
0F
1G
1H
0I
1J
1R
0Z
0^
1_
1c
1h
0m
0r
0s
0v
0w
0~
0!!
1!"
1!%
#1320000
0c
#1330000
1@
1F
0G
0H
0J
1Q
0U
0V
0]
0_
0`
0b
1c
0h
1k
1m
1o
1p
1q
1r
0!"
1!#
#1340000
0c
#1350000
1D
0E
1I
1L
0N
1P
0Q
1T
1U
1Z
1\
1]
1`
1c
0k
0o
0p
0q
1v
1w
1}
1~
0!#
#1360000
0c
#1370000
1E
1G
0I
1J
0L
0M
1O
0P
1Q
0R
0T
1V
1W
1X
1Y
0Z
0\
0`
1c
#1380000
0c
#1390000
0"
0D
0E
0F
0G
0J
0O
0Q
0U
0V
0W
0X
0Y
0]
1c
0d
0e
0f
0j
0m
0r
0v
0w
0}
0~
0!%
0!&
#1400000
0c
#1410000
1"
18
19
0<
0=
0>
0?
0@
1c
1d
1e
1f
1j
1m
1r
1v
1w
1}
1~
1!%
1!&
#1420000
0c
#1430000
1@
1c
1h
1k
1l
1n
1o
1p
1q
1s
1t
1u
1x
1y
1z
1|
0~
1!$
0!%
#1440000
0c
#1450000
1?
0@
1c
0h
0l
0n
0p
0q
0r
0s
0t
0u
0v
0w
0x
0y
0z
0|
0}
0!$
#1460000
0c
#1470000
1@
1c
0d
0e
0f
1h
0k
0m
0o
1!"
#1480000
0c
#1490000
1>
0?
0@
1c
1d
1e
1f
0h
1i
0j
1k
1l
1o
1p
1q
1s
1v
1!!
1!#
#1500000
0c
#1510000
1@
1c
1w
0!"
0!#
#1520000
0c
#1530000
1?
0@
1c
0o
0p
0q
1r
0w
0!!
#1540000
0c
#1550000
1@
1c
1o
1p
1q
0r
0v
1!!
#1560000
0c
#1570000
1=
0>
0?
0@
1c
1h
0i
1j
1m
1n
1r
1t
1u
1v
1w
1x
1y
1z
1{
1~
0!!
1!%
#1580000
0c
#1590000
1@
1c
0k
0l
0m
0n
0o
0p
0q
0r
0s
0t
0u
0v
0w
0x
0y
0z
0{
0~
1!$
0!%
#1600000
0c
#1610000
1?
0@
1c
0h
1i
0j
1k
1l
1o
1p
1q
1r
1s
1!!
1!#
0!$
#1620000
0c
#1630000
1@
1c
0i
1n
0o
0p
0q
0r
0s
1w
0!!
1!"
1!%
#1640000
0c
#1650000
1>
0?
0@
1c
1h
1j
0l
0n
0w
1z
1}
1~
1!!
0!"
1!$
0!%
#1660000
0c
#1670000
1@
1c
0h
0k
1l
1p
1q
1s
1t
1u
1w
0z
0}
0!!
0!#
0!$
#1680000
0c
#1690000
1?
0@
1c
1h
0j
1n
1o
0u
0w
0~
1!!
#1700000
0c
#1710000
1@
1c
0d
0e
0f
0h
0l
0n
0o
0p
0q
0t
1w
1x
1y
1z
1{
1|
1~
0!!
#1720000
0c
#1730000
1<
0=
0>
0?
0@
1c
0~
1!#
#1740000
0c
#1750000
1@
1c
0|
1~
#1760000
0c
#1770000
1?
0@
1c
1d
1e
1f
1h
1k
1n
1p
1q
1u
0w
0x
0y
0z
1|
1}
1!!
0!#
#1780000
0c
#1790000
1@
1c
0h
1j
1l
0p
0q
0s
0u
1w
0{
0|
0}
0~
0!!
1!"
1!#
#1800000
0c
#1810000
1>
0?
0@
1c
0k
0l
1m
0n
1p
1q
1s
1t
1u
1~
0!#
#1820000
0c
#1830000
1@
1c
1i
0j
1k
1l
0m
1o
1r
0t
0u
1v
0w
1{
1}
1!!
0!"
#1840000
0c
#1850000
1?
0@
1c
0v
#1860000
0c
#1870000
1@
1c
1h
0i
1j
0l
0o
0p
0q
0r
0s
1z
0{
0!!
1!"
1!$
1!%
#1880000
0c
#1890000
1=
0>
0?
0@
1c
1l
1m
1n
1o
1p
1q
1r
1s
1t
1u
1v
1w
1x
1y
1|
0~
0!$
#1900000
0c
#1910000
1@
1c
0h
1i
0j
0m
0n
0t
0u
0v
0w
0x
0y
0z
1{
0|
1~
0!%
#1920000
0c
#1930000
1?
0@
1c
1h
0i
1j
0l
0o
0p
0q
0r
0s
1z
0{
#1940000
0c
#1950000
1@
1c
0h
1l
1n
1u
1v
0z
0}
0~
0!"
#1960000
0c
#1970000
1>
0?
0@
1c
0j
1w
1!#
1!$
#1980000
0c
#1990000
1@
1c
1t
0u
0v
0w
#2000000
0c
#2010000
1?
0@
1c
1h
1j
0k
0l
0n
0t
0!#
0!$
1!%
#2020000
0c
#2030000
1@
1c
0h
0j
1k
1l
1n
1u
1v
1!"
0!%
#2040000
0c
#2050000
1c
1j
1w
0!"
#2060000
0c
#2070000
1c
#2080000
0c
#2090000
0"
1c
0d
0e
0f
0j
0k
0l
0n
0u
0v
0w
0!&
#2100000
0c
#2110000
1"
17
08
09
0;
0<
0=
0>
0?
0@
1C
1D
1E
1G
1K
1M
1N
1O
1P
1R
1S
1^
1c
1d
1e
1f
1j
1k
1l
1n
1u
1v
1w
1!&
#2120000
0c
#2130000
1@
1c
1h
0l
0n
0u
0v
0w
1z
1~
1!%
#2140000
0c
#2150000
1?
0@
1c
0h
0j
1l
1n
0z
0~
1!"
1!#
#2160000
0c
#2170000
1@
1c
1h
1j
1m
1o
1p
1q
1r
1s
1t
1u
1v
1w
1x
1y
1z
1{
1!!
0!#
#2180000
0c
#2190000
1>
0?
0@
1c
0h
1i
0j
0m
0n
0t
0u
0v
0w
0x
0y
0z
0{
1}
0!!
0!"
1!#
0!%
#2200000
0c
#2210000
1@
0C
0D
0E
0G
0K
0M
0N
0O
0P
0S
1V
1W
1X
1Z
1[
1]
1`
1c
1h
0i
1j
0l
0o
0p
0q
0r
0s
1z
0}
1!!
1!"
1!%
#2220000
0c
#2230000
1?
0@
1C
1D
1E
1H
1J
1M
1O
1P
1S
1T
1U
0V
0W
0X
0Z
0[
0]
0^
1c
0h
0j
1l
1n
1u
1v
0z
0!!
0!"
0!%
#2240000
0c
#2250000
1@
1K
0M
1N
1Q
0S
0T
0U
1[
1\
1_
1c
1h
1j
0k
1m
1o
1p
1q
1r
1s
1t
1w
1x
1y
1z
1{
1|
1~
1!!
1!"
0!#
#2260000
0c
#2270000
1=
0>
0?
0@
1G
0H
1I
0K
0N
0O
0P
0Q
0R
1Y
1Z
0\
1^
1b
1c
1k
0l
0m
0n
0o
0p
0q
0r
0s
0t
0u
0v
0w
0x
0y
0{
0|
1!#
#2280000
0c
#2290000
1@
0G
1H
0I
1K
1N
1O
1P
1Q
1R
0Y
0Z
1\
0^
0`
0b
1c
0h
1m
1o
1q
0z
0~
0!!
0!#
#2300000
0c
#2310000
1?
0@
1G
0H
1I
0K
0N
0O
0P
0Q
0R
1Y
1Z
0\
1^
1a
1b
1c
0d
0e
0f
1g
1l
0m
1n
0o
0q
1v
1w
0!"
#2320000
0c
#2330000
1@
0G
1K
1M
0Y
0Z
0[
1`
0a
1c
0g
1!%
#2340000
0c
#2350000
1>
0?
0@
1G
1L
1N
1O
1P
1Q
1R
1S
1T
1U
1V
1W
1X
1Y
1Z
1[
1\
1]
0^
1a
1c
1d
1e
1f
0l
1m
0n
1o
1q
1r
0v
0w
0!%
#2360000
0c
#2370000
1@
0G
1H
0I
0L
0M
0S
0T
0U
0V
0W
0X
0Y
0Z
0\
1^
0a
0b
1c
0f
1g
1l
0m
1n
0o
0q
0r
1v
1w
#2380000
0c
#2390000
1?
0@
1G
0H
1I
0K
0N
0O
0P
0Q
0R
1Y
1Z
0]
0_
1a
1b
1c
1f
0g
0l
1m
0n
1o
1r
1s
0v
0w
#2400000
0c
#2410000
1@
0G
1H
0I
1K
1N
1O
1P
1Q
1R
0Y
0Z
1]
1_
0`
0a
0b
1c
0d
0e
0f
1g
0k
0o
1q
0s
1u
1v
1!%
#2420000
0c
#2430000
1<
0=
0>
0?
0@
1G
0H
1I
0K
0N
0O
0P
0Q
0R
1Y
1Z
0]
0_
1`
1b
1c
0j
1k
1l
0m
1n
0q
0r
1w
1!#
#2440000
0c
#2450000
1@
0G
1K
1M
0Y
0Z
0[
0`
1a
1c
1h
1j
0k
1m
1o
1p
1q
1r
1s
1t
1x
1y
1z
1{
1|
1}
1!!
1!"
0!#
0!%
#2460000
0c
#2470000
1?
0@
1G
1L
1N
1O
1P
1Q
1R
1S
1T
1U
1V
1W
1X
1Y
1Z
1[
1\
1]
0^
1_
0a
1c
1d
1e
1f
0g
0!"
1!$
#2480000
0c
#2490000
1@
0G
1H
0I
0L
0M
0S
0T
0U
0V
0W
0X
0Y
0Z
0\
1`
0b
1c
0d
0e
0f
0h
0j
0l
0m
0n
0o
0p
0q
0r
0t
0u
0v
1~
0!!
1!#
0!$
#2500000
0c
#2510000
1>
0?
0@
1G
0H
1I
0K
0N
0O
0P
0Q
0R
1Y
1Z
0]
1^
0_
0`
1b
1c
0}
1!!
0!#
#2520000
0c
#2530000
1@
0G
1H
0I
1K
1N
1O
1P
1Q
1R
0Y
0Z
1]
0^
1_
0b
1c
1}
#2540000
0c
#2550000
1?
0@
1G
0H
1I
0K
0N
0O
0P
0Q
0R
1Y
1Z
0]
1`
1a
1b
1c
0}
0~
0!!
1!#
#2560000
0c
#2570000
1@
0G
1H
0I
1K
1N
1O
1P
1Q
1R
0Y
0Z
1]
0_
0a
0b
1c
1}
1~
1!!
1!"
#2580000
0c
#2590000
1=
0>
0?
0@
1G
0H
1I
0K
0N
0O
0P
0Q
0R
1Y
1Z
0]
1_
1b
1c
1d
1e
1f
1h
1k
1n
1p
1q
1u
0w
0x
0y
0z
0{
0|
0}
0~
0!"
0!#
#2600000
0c
#2610000
1@
0G
1K
1M
0Y
0Z
0[
1^
1c
0h
1j
1l
0p
0q
0s
1t
0!!
#2620000
0c
#2630000
1?
0@
1G
1L
1N
1O
1P
1Q
1R
1S
1T
1U
1V
1W
1X
1Y
1Z
1[
1\
1]
0^
0_
0`
1c
0j
0t
#2640000
0c
#2650000
1@
0G
1H
0I
0L
0M
0S
0T
0U
0V
0W
0X
0Y
0Z
0\
0]
1^
1_
0b
1c
1t
1v
1!"
1!#
#2660000
0c
#2670000
1>
0?
0@
1G
0H
1I
0K
0N
0O
0P
0Q
0R
1Y
1Z
0^
1b
1c
0t
0u
0v
0!"
0!#
1!%
#2680000
0c
#2690000
1@
0G
1H
0I
1K
1N
1O
1P
1Q
1R
0Y
0Z
1^
0_
1`
0b
1c
1h
1j
0k
0l
0n
1!"
1!$
0!%
#2700000
0c
#2710000
1?
0@
1G
0H
1I
0K
0N
0O
0P
0Q
0R
1Y
1Z
0^
1a
1b
1c
0h
1i
1k
1l
1m
1o
1p
1q
1r
1v
1w
0!"
1!#
0!$
#2720000
0c
#2730000
1@
0G
1K
1M
0Y
0Z
0[
1^
0`
1c
0i
0j
0k
0l
0m
1n
0o
0p
0q
1s
1y
1~
1!"
#2740000
0c
#2750000
1G
1L
1N
1O
1P
1Q
1R
1S
1T
1U
1V
1W
1X
1Y
1Z
1[
1\
1_
1c
1k
1l
0r
0s
0y
1|
0~
0!"
0!#
1!$
1!%
#2760000
0c
#2770000
0G
1H
0I
0L
0M
0S
0T
0U
0V
0W
0X
0Y
0Z
0\
0^
0a
0b
1c
#2780000
0c
#2790000
0"
1G
0H
1I
0K
0N
0O
0P
0Q
0R
1Y
1Z
0_
1a
1b
1c
0d
0e
0f
0k
0l
0n
0v
0w
0|
0!$
0!%
0!&
#2800000
0c
#2810000
1"
16
07
1;
0<
0=
0>
0?
0@
0C
0D
0E
0G
0I
0J
1P
1Q
1R
1S
1T
0Y
0Z
0[
0a
0b
1c
1d
1e
1f
1k
1l
1n
1v
1w
1|
1!$
1!%
1!&
#2820000
0c
#2830000
1@
1c
1j
0k
0n
1p
1q
1s
1t
1u
0v
0|
1!!
0!$
0!%
#2840000
0c
#2850000
1?
0@
1c
1h
0j
1n
1o
0u
0w
1{
1|
1}
1~
#2860000
0c
#2870000
1@
1c
0d
0e
0f
0h
0l
0n
0o
0p
0q
0t
1v
0{
0|
0~
1!"
#2880000
0c
#2890000
1>
0?
0@
1c
1d
1e
1f
1h
1k
1n
1p
1q
0v
0}
0!!
1!#
1!$
1!%
#2900000
0c
#2910000
1@
1c
0h
1i
1t
1u
1v
0!"
0!$
0!%
#2920000
0c
#2930000
1?
0@
1c
0i
1j
0k
1m
0n
0v
1w
#2940000
0c
#2950000
1@
1c
1l
0m
0t
0u
0w
#2960000
0c
#2970000
1=
0>
0?
0@
1c
1k
1n
0p
0q
0s
1v
1w
0!#
#2980000
0c
#2990000
1@
1c
1i
0j
0l
1!#
#3000000
0c
#3010000
1?
0@
1c
1l
0n
1o
1p
1q
1s
0v
1!"
0!#
#3020000
0c
#3030000
1@
1c
0i
1n
0o
0p
0q
0s
0w
1!#
1!%
#3040000
0c
#3050000
1>
0?
0@
1c
1j
0k
0n
1p
1q
1s
1v
0!%
#3060000
0c
#3070000
1@
1c
1h
1k
1m
1n
1o
1r
1t
1u
1w
1x
1y
1z
1{
1|
0!#
1!$
#3080000
0c
#3090000
1?
0@
1c
0h
0k
0m
0n
0o
0r
0v
0x
0y
0z
0{
0|
0!"
1!#
0!$
#3100000
0c
#3110000
1@
1c
1i
0j
1o
1v
0w
#3120000
0c
#3130000
1<
0=
0>
0?
0@
1c
0i
1j
0o
0v
1w
1!!
0!#
#3140000
0c
#3150000
1@
1c
0j
1k
1n
0p
0q
0s
1v
0!!
1!"
1!#
1!$
#3160000
0c
#3170000
1?
0@
1c
1h
0l
1p
1q
1s
0t
0u
0v
0w
#3180000
0c
#3190000
1@
1c
0h
1i
1t
1u
1v
0!"
0!$
#3200000
0c
#3210000
1>
0?
0@
1c
0i
1j
0k
1m
0n
0v
1w
#3220000
0c
#3230000
1@
1c
1l
0m
0t
0u
1v
#3240000
0c
#3250000
1?
0@
1c
1i
0j
1k
0l
1n
0p
0q
1r
0v
0w
#3260000
0c
#3270000
1@
1c
1l
0n
1o
1p
1q
0r
1w
1!"
0!#
#3280000
0c
#3290000
1=
0>
0?
0@
1c
0i
1n
0o
0p
0q
0s
0w
1!#
1!%
#3300000
0c
#3310000
1@
1c
1j
0k
0n
1p
1q
1s
1v
0!%
#3320000
0c
#3330000
1?
0@
1c
1h
1k
1m
1n
1o
1r
1t
1u
1w
1x
1y
1z
1{
1}
1~
1!!
1!%
#3340000
0c
#3350000
1@
1c
0h
0k
0m
0n
0o
0r
0v
0x
0y
0z
0{
0}
0~
0!!
0!"
0!%
#3360000
0c
#3370000
1>
0?
0@
1c
1i
0j
1o
1v
0w
#3380000
0c
#3390000
1@
1c
0i
1j
0o
0v
1w
1!"
#3400000
0c
#3410000
1?
0@
1c
0j
1k
1n
0p
0q
0s
1v
1!$
#3420000
0c
#3430000
1@
1c
1i
0n
1o
1p
1q
1r
1s
0u
1y
1}
1~
0!$
#3440000
0c
#3450000
1c
0o
0q
0t
0v
0w
0y
0}
0~
0!"
0!#
#3460000
0c
#3470000
1c
#3480000
0c
#3490000
0"
1c
0d
0e
0f
0i
0k
0l
0p
0r
0s
0!&
#3500000
0c
#3510000
1"
06
17
18
19
0<
0=
0>
0?
0@
0P
0Q
0S
0T
1X
1Y
1Z
1[
1\
1^
1_
1`
1c
1d
1e
1f
1i
1k
1l
1p
1r
1s
1!&
#3520000
0c
#3530000
1@
1c
0d
0e
0f
0i
1n
0p
0r
0s
1u
1!"
#3540000
0c
#3550000
1?
0@
1c
1h
1j
0k
0l
0n
0u
1!#
1!%
#3560000
0c
#3570000
1@
1c
1d
1e
1f
0h
1k
1m
1o
1q
1r
0!"
0!#
0!%
#3580000
0c
