wb-sdr-read.vcd
$comment
Copyright (C) 1991-2013 Altera Corporation
Your use of Altera Corporation's design tools, logic functions 
and other software and tools, and its AMPP partner logic 
functions, and any output files from any of the foregoing 
(including device programming or simulation files), and any 
associated documentation or information are expressly subject 
to the terms and conditions of the Altera Program License 
Subscription Agreement, Altera MegaCore Function License 
Agreement, or other applicable license agreement, including, 
without limitation, that your use is for the sole purpose of 
programming logic devices manufactured by Altera and sold by 
Altera or its authorized distributors.  Please refer to the 
applicable agreement for further details.
$end

$date 
  01/31/2016 23:01:44 
$end
$version 
 QUARTUS_VCD_EXPORT 1.0 
$end
$timescale
  1 ps
$end
$scope module STORM_TOP_INST $end
$var reg 1 ! WB_ERR_I $end
$var reg 4 " WB_SEL_O[3:0] $end
$var reg 7 # WB_TGC_O[6:0] $end
$var reg 32 $ WB_ADR_O[31:0] $end
$var reg 32 % WB_DATA_O[31:0] $end
$var reg 32 & WB_DATA_I[31:0] $end
$var reg 1 ' WB_WE_O $end
$var reg 1 ( WB_ACK_I $end
$var reg 1 ) WB_CYC_O $end
$var reg 1 * WB_HALT_I $end
$scope module BUS_UNIT_INST $end
$var reg 1 + \ARB_STATE.ASSIGN_D_PAGE  $end
$var reg 1 , \ARB_STATE.DOWNLOAD_D_PAGE  $end
$var reg 1 - \ARB_STATE.DOWNLOAD_I_PAGE  $end
$var reg 1 . \ARB_STATE.END_TRANSFER  $end
$var reg 1 / \ARB_STATE.IDLE  $end
$var reg 1 0 \ARB_STATE.IO_REQUEST  $end
$var reg 1 1 \ARB_STATE.UPLOAD_D_PAGE  $end
$var reg 32 2 DC_DATA_I[31:0] $end
$var reg 32 3 WB_DATA_FF_NXT[31:0] $end
$var reg 32 4 WB_DATA_FF[31:0] $end
$var reg 32 5 DC_ADR_O[31:0] $end
$var reg 32 6 BASE_BUF[31:0] $end
$var reg 32 7 DC_ADR_BUF[31:0] $end
$var reg 1 8 DC_D_SEL_I $end
$upscope $end
$upscope $end
$scope module SYSCON_CLK $end
$var reg 1 9 c0 $end
$upscope $end
$var reg 1 : SDRAM_MEM_STB_I $end
$enddefinitions $end
#0
$dumpvars
X!
bX "
bX #
bX $
bX %
bX &
X'
X(
X)
X*
X+
X,
X-
X.
X/
X0
X1
bX 2
bX 3
bX 4
bX 5
bX 6
bX 7
X8
09
X:
$end
#10000
$comment Sample 0 (Start/Trigger) $end
0!
b1111 "
b11111 #
b1000000000000000000000000 $
b11100001101000001111000000001110 %
b1111111100000000111111110000 &
0'
0(
1)
1*
0+
1,
0-
0.
0/
00
01
b11100001101000001111000000001110 2
b11100001101000001111000000001110 3
b11100001101000001111000000001110 4
b1000000000000000000000000 5
b1000000000000000000000000 6
b1000000000000000000000000 7
08
19
1:
#20000
09
#30000
b1000011001000000100001001100001 &
19
#40000
09
#50000
19
#60000
09
#70000
19
#80000
09
#90000
19
#100000
09
#110000
19
#120000
09
#130000
19
#140000
09
#150000
19
#160000
09
#170000
b11101010000000000000000000010010 &
19
#180000
09
#190000
19
#200000
09
#210000
1(
0*
19
#220000
09
#230000
b1000000000000000000000100 $
b11101010000000000000000001100010 &
19
#240000
09
#250000
b1000000000000000000001000 $
b11101010000000000000000001010101 &
b1000000000000000000000100 5
b1000000000000000000000100 7
19
#260000
09
#270000
b1000000000000000000001100 $
b11101010000000000000000001001000 &
b11100101001011011110000000000100 2
b11100101001011011110000000000100 3
b1000000000000000000001000 5
b1000000000000000000001000 7
19
#280000
09
#290000
b1000000000000000000010000 $
b11100101001011011110000000000100 %
b11101010000000000000000001000111 &
b11100101100111110000000000010100 2
b11100101100111110000000000010100 3
b11100101001011011110000000000100 4
b1000000000000000000001100 5
b1000000000000000000001100 7
19
#300000
09
#310000
b1000000000000000000010100 $
b11100101100111110000000000010100 %
b11100001101000000000000000000000 &
b11101011111111111111111101100110 2
b11101011111111111111111101100110 3
b11100101100111110000000000010100 4
b1000000000000000000010000 5
b1000000000000000000010000 7
19
#320000
09
#330000
b1000000000000000000011000 $
b11101011111111111111111101100110 %
b11100101000111111111111111110000 &
b11100101100111110000000000010000 2
b11100101100111110000000000010000 3
b11101011111111111111111101100110 4
b1000000000000000000010100 5
b1000000000000000000010100 7
19
#340000
09
#350000
b1000000000000000000011100 $
b11100101100111110000000000010000 %
b11101011111111111111111101100100 2
b11101011111111111111111101100100 3
b11100101100111110000000000010000 4
b1000000000000000000011000 5
b1000000000000000000011000 7
19
#360000
09
#370000
b1000000000000000000100000 $
b11101011111111111111111101100100 %
b11101010000000000000000000010010 &
0(
1*
b11100101100111110000000000001100 2
b11100101100111110000000000001100 3
b11101011111111111111111101100100 4
b1000000000000000000011100 5
b1000000000000000000011100 7
19
#380000
09
#390000
b11100100100111011110000000000100 2
b11100100100111011110000000000100 3
19
#400000
09
#410000
b11100101000111111111111111110000 2
b11100101000111111111111111110000 3
19
#420000
09
#430000
19
#440000
09
#450000
19
#460000
09
#470000
19
#480000
09
#490000
19
#500000
09
#510000
b1000000000000000000111000 &
19
#520000
09
#530000
19
#540000
09
#550000
1(
0*
19
#560000
09
#570000
b1000000000000000000100100 $
b11100101000111111111111111110000 %
b1000000000000000000111100 &
b11100101000111111111111111110000 4
b1000000000000000000100000 5
b1000000000000000000100000 7
19
#580000
09
#590000
b1000000000000000000101000 $
b1000000000000000001000000 &
b11101010111111111111111101100001 2
b11101010111111111111111101100001 3
b1000000000000000000100100 5
b1000000000000000000100100 7
19
#600000
09
#610000
b1000000000000000000101100 $
b11101010111111111111111101100001 %
b1000000000000000001001000 &
b10001000110000100 2
b10001000110000100 3
b11101010111111111111111101100001 4
b1000000000000000000101000 5
b1000000000000000000101000 7
19
#620000
09
#630000
b1000000000000000000110000 $
b10001000110000100 %
b10001000111101000 2
b10001000111101000 3
b10001000110000100 4
b1000000000000000000101100 5
b1000000000000000000101100 7
19
#640000
09
#650000
b1000000000000000000110100 $
b10001000111101000 %
b1000000000000000001001100 &
b10001001001001100 2
b10001001001001100 3
b10001000111101000 4
b1000000000000000000110000 5
b1000000000000000000110000 7
19
#660000
09
#670000
b1000000000000000000111000 $
b10001001001001100 %
b11101010111111111111111111111110 &
b11101001001011010100011111110000 2
b11101001001011010100011111110000 3
b10001001001001100 4
b1000000000000000000110100 5
b1000000000000000000110100 7
19
#680000
09
#690000
b1000000000000000000111100 $
b11101001001011010100011111110000 %
b11100011101000000000000000000000 2
b11100011101000000000000000000000 3
b11101001001011010100011111110000 4
b1000000000000000000111000 5
b1000000000000000000111000 7
19
#700000
09
#710000
b1000000000000000001000000 $
b11100011101000000000000000000000 %
b1000000000000000000111000 &
0(
1*
b11100010010011011101000000010100 2
b11100010010011011101000000010100 3
b11100011101000000000000000000000 4
b1000000000000000000111100 5
b1000000000000000000111100 7
19
#720000
09
#730000
b11101011111111111111111001001011 2
b11101011111111111111111001001011 3
19
#740000
09
#750000
b11101010111111111111111111111110 2
b11101010111111111111111111111110 3
19
#760000
09
#770000
19
#780000
09
#790000
19
#800000
09
#810000
19
#820000
09
#830000
19
#840000
09
#850000
b11101010111111111111111111111110 &
19
#860000
09
#870000
19
#880000
09
#890000
1(
0*
19
#900000
09
#910000
b1000000000000000001000100 $
b11101010111111111111111111111110 %
b11101010111111111111111111111110 4
b1000000000000000001000000 5
b1000000000000000001000000 7
19
#920000
09
#930000
b1000000000000000001001000 $
b11100011101000000001000000001101 2
b11100011101000000001000000001101 3
b1000000000000000001000100 5
b1000000000000000001000100 7
19
#940000
09
#950000
b1000000000000000001001100 $
b11100011101000000001000000001101 %
b11100101100111110000001000101000 &
b11100011101000000000000011000011 2
b11100011101000000000000011000011 3
b11100011101000000001000000001101 4
b1000000000000000001001000 5
b1000000000000000001001000 7
19
#960000
09
#970000
b1000000000000000001010000 $
b11100011101000000000000011000011 %
b11101011111111111111111101000010 2
b11101011111111111111111101000010 3
b11100011101000000000000011000011 4
b1000000000000000001001100 5
b1000000000000000001001100 7
19
#980000
09
#990000
b1000000000000000001010100 $
b11101011111111111111111101000010 %
b11100001000011110001000000000000 &
b11100011101000000000000001100011 2
b11100011101000000000000001100011 3
b11101011111111111111111101000010 4
b1000000000000000001010000 5
b1000000000000000001010000 7
19
#1000000
09
#1010000
b1000000000000000001011000 $
b11100011101000000000000001100011 %
b11100011110000010001000001111111 &
b11101011111111111111111010110011 2
b11101011111111111111111010110011 3
b11100011101000000000000001100011 4
b1000000000000000001010100 5
b1000000000000000001010100 7
19
#1020000
09
#1030000
b1000000000000000001011100 $
b11101011111111111111111010110011 %
b11100001001010011111000000000001 &
b11100011101000000000000000000110 2
b11100011101000000000000000000110 3
b11101011111111111111111010110011 4
b1000000000000000001011000 5
b1000000000000000001011000 7
19
#1040000
09
#1050000
b1000000000000000001100000 $
b11100011101000000000000000000110 %
b11101010111111111111111111111110 &
0(
1*
b11101011111111111111111100001000 2
b11101011111111111111111100001000 3
b11100011101000000000000000000110 4
b1000000000000000001011100 5
b1000000000000000001011100 7
19
#1060000
09
#1070000
b11100011101000000001000000000110 2
b11100011101000000001000000000110 3
19
#1080000
09
#1090000
b11100001001010011111000000000001 2
b11100001001010011111000000000001 3
19
#1100000
09
#1110000
19
#1120000
09
#1130000
19
#1140000
09
#1150000
19
#1160000
09
#1170000
19
#1180000
09
#1190000
b11100001001010011111000000000001 &
19
#1200000
09
#1210000
19
#1220000
09
#1230000
1(
0*
19
#1240000
09
#1250000
b1000000000000000001100100 $
b11100001001010011111000000000001 %
b11100001101000001101000000000000 &
b11100001001010011111000000000001 4
b1000000000000000001100000 5
b1000000000000000001100000 7
19
#1260000
09
#1270000
b1000000000000000001101000 $
b11100010010000000000000000000100 &
b11100011110000000000000000001000 2
b11100011110000000000000000001000 3
b1000000000000000001100100 5
b1000000000000000001100100 7
19
#1280000
09
#1290000
b1000000000000000001101100 $
b11100011110000000000000000001000 %
b11100011110000010001000001111111 &
b11101011111111111111111100111011 2
b11101011111111111111111100111011 3
b11100011110000000000000000001000 4
b1000000000000000001101000 5
b1000000000000000001101000 7
19
#1300000
09
#1310000
b1000000000000000001110000 $
b11101011111111111111111100111011 %
b11100011101000000000000000001101 2
b11100011101000000000000000001101 3
b11101011111111111111111100111011 4
b1000000000000000001101100 5
b1000000000000000001101100 7
19
#1320000
09
#1330000
b1000000000000000001110100 $
b11100011101000000000000000001101 %
b11100011100000010001000011010111 &
b11101011111111111111111100000011 2
b11101011111111111111111100000011 3
b11100011101000000000000000001101 4
b1000000000000000001110000 5
b1000000000000000001110000 7
19
#1340000
09
#1350000
b1000000000000000001111000 $
b11101011111111111111111100000011 %
b11100001001010011111000000000001 &
b11100001101000000000100010100000 2
b11100001101000000000100010100000 3
b11101011111111111111111100000011 4
b1000000000000000001110100 5
b1000000000000000001110100 7
19
#1360000
09
#1370000
b1000000000000000001111100 $
b11100001101000000000100010100000 %
b11100011101000000010000000000001 &
b11100001111000000000000000000000 2
b11100001111000000000000000000000 3
b11100001101000000000100010100000 4
b1000000000000000001111000 5
b1000000000000000001111000 7
19
#1380000
09
#1390000
b11100001111000000000000000000000 %
b11100001001010011111000000000001 &
0(
1*
b11100010000000000000000000001111 2
b11100010000000000000000000001111 3
b11100001111000000000000000000000 4
b1000000000000000001111100 5
b1000000000000000001111100 7
19
#1400000
09
#1410000
b11100011101000000010000000000001 &
1(
0*
b11100011010100000000000000000001 2
b11100011010100000000000000000001 3
19
#1420000
09
#1430000
b11100011010100000000000000000001 %
b0 &
0(
0)
0,
1.
b11101010000000000000000000010010 2
b11101010000000000000000000010010 3
b11100011010100000000000000000001 4
b1000000000000000010000000 5
b1000000000000000010000000 7
19
0:
#1440000
09
#1450000
b1000000000000000010000000 $
b1001101000011010000101000100000 %
b11100011101000000010000000000001 &
1)
1*
1,
0.
b1001101000011010000101000100000 2
b1001101000011010000101000100000 3
b1001101000011010000101000100000 4
b1000000000000000010000000 6
19
1:
#1460000
09
#1470000
b11100001001010011111000000000001 &
19
#1480000
09
#1490000
19
#1500000
09
#1510000
19
#1520000
09
#1530000
19
#1540000
09
#1550000
19
#1560000
09
#1570000
19
#1580000
09
#1590000
19
#1600000
09
#1610000
b11100010010000000000000000000100 &
19
#1620000
09
#1630000
19
#1640000
09
#1650000
1(
0*
19
#1660000
09
#1670000
b1000000000000000010000100 $
b11100001000011110001000000000000 &
19
#1680000
09
#1690000
b1000000000000000010001000 $
b11100011110000010001000001111111 &
b1000000000000000010000100 5
b1000000000000000010000100 7
19
#1700000
09
#1710000
b1000000000000000010001100 $
b11100011100000010001000011010001 &
b110100001000000010110100100000 2
b110100001000000010110100100000 3
b1000000000000000010001000 5
b1000000000000000010001000 7
19
#1720000
09
#1730000
b1000000000000000010010000 $
b110100001000000010110100100000 %
b11100001001010011111000000000001 &
b1110000011100100110111101100111 2
b1110000011100100110111101100111 3
b110100001000000010110100100000 4
b1000000000000000010001100 5
b1000000000000000010001100 7
19
#1740000
09
#1750000
b1000000000000000010010100 $
b1110000011100100110111101100111 %
b11100001101000001101000000000000 &
b1110010011000010110110100100000 2
b1110010011000010110110100100000 3
b1110000011100100110111101100111 4
b1000000000000000010010000 5
b1000000000000000010010000 7
19
#1760000
09
#1770000
b1000000000000000010011000 $
b1110010011000010110110100100000 %
b11100010010000000000000000000100 &
b1001001001100100100001100100000 2
b1001001001100100100001100100000 3
b1110010011000010110110100100000 4
b1000000000000000010010100 5
b1000000000000000010010100 7
19
#1780000
09
#1790000
b1000000000000000010011100 $
b1001001001100100100001100100000 %
b11100001000011110001000000000000 &
b1000101010001010101000001010010 2
b1000101010001010101000001010010 3
b1001001001100100100001100100000 4
b1000000000000000010011000 5
b1000000000000000010011000 7
19
#1800000
09
#1810000
b1000000000000000010100000 $
b1000101010001010101000001010010 %
b11100010010000000000000000000100 &
0(
1*
b1001111010011010010000001110110 2
b1001111010011010010000001110110 3
b1000101010001010101000001010010 4
b1000000000000000010011100 5
b1000000000000000010011100 7
19
#1820000
09
#1830000
b1101001011000010010000001010101 2
b1101001011000010010000001010101 3
19
#1840000
09
#1850000
b11100001000011110001000000000000 2
b11100001000011110001000000000000 3
19
#1860000
09
#1870000
19
#1880000
09
#1890000
19
#1900000
09
#1910000
19
#1920000
09
#1930000
19
#1940000
09
#1950000
b11100011110000010001000001111111 &
19
#1960000
09
#1970000
19
#1980000
09
#1990000
1(
0*
19
#2000000
09
#2010000
b1000000000000000010100100 $
b11100001000011110001000000000000 %
b11100011100000010001000011010010 &
b11100001000011110001000000000000 4
b1000000000000000010100000 5
b1000000000000000010100000 7
19
#2020000
09
#2030000
b1000000000000000010101000 $
b11100001001010011111000000000001 &
b1000001010100100101010001011111 2
b1000001010100100101010001011111 3
b1000000000000000010100100 5
b1000000000000000010100100 7
19
#2040000
09
#2050000
b1000000000000000010101100 $
b1000001010100100101010001011111 %
b11100010010000000000000010000000 &
b110000000011010000101000100000 2
b110000000011010000101000100000 3
b1000001010100100101010001011111 4
b1000000000000000010101000 5
b1000000000000000010101000 7
19
#2060000
09
#2070000
b1000000000000000010110000 $
b110000000011010000101000100000 %
b110101001000000010110100100000 2
b110101001000000010110100100000 3
b110000000011010000101000100000 4
b1000000000000000010101100 5
b1000000000000000010101100 7
19
#2080000
09
#2090000
b1000000000000000010110100 $
b110101001000000010110100100000 %
b11100001000011110001000000000000 &
b1110011011010000110111101110111 2
b1110011011010000110111101110111 3
b110101001000000010110100100000 4
b1000000000000000010110000 5
b1000000000000000010110000 7
19
#2100000
09
#2110000
b1000000000000000010111000 $
b1110011011010000110111101110111 %
b11100011110000010001000001111111 &
b100000011000110110111101101110 2
b100000011000110110111101101110 3
b1110011011010000110111101110111 4
b1000000000000000010110100 5
b1000000000000000010110100 7
19
#2120000
09
#2130000
b1000000000000000010111100 $
b100000011000110110111101101110 %
b11100001001010011111000000000001 &
b1110100011001010110111001110100 2
b1110100011001010110111001110100 3
b100000011000110110111101101110 4
b1000000000000000010111000 5
b1000000000000000010111000 7
19
#2140000
09
#2150000
b1000000000000000011000000 $
b1110100011001010110111001110100 %
b11100011110000010001000001111111 &
0(
1*
b100000011011110110011000100000 2
b100000011011110110011000100000 3
b1110100011001010110111001110100 4
b1000000000000000010111100 5
b1000000000000000010111100 7
19
#2160000
09
#2170000
b1001001001100100100001100100000 2
b1001001001100100100001100100000 3
19
#2180000
09
#2190000
b11100001001010011111000000000001 2
b11100001001010011111000000000001 3
19
#2200000
09
#2210000
19
#2220000
09
#2230000
19
#2240000
09
#2250000
19
#2260000
09
#2270000
19
#2280000
09
#2290000
b11100001001010011111000000000001 &
19
#2300000
09
#2310000
19
#2320000
09
#2330000
1(
0*
19
#2340000
09
#2350000
b1000000000000000011000100 $
b11100001001010011111000000000001 %
b11100001101000001101000000000000 &
b11100001001010011111000000000001 4
b1000000000000000011000000 5
b1000000000000000011000000 7
19
#2360000
09
#2370000
b1000000000000000011001000 $
b11100010010000000000000000000100 &
b1000101010001010101000001010010 2
b1000101010001010101000001010010 3
b1000000000000000011000100 5
b1000000000000000011000100 7
19
#2380000
09
#2390000
b1000000000000000011001100 $
b1000101010001010101000001010010 %
b11100011110000010001000001111111 &
b1001111010011010000110100001010 2
b1001111010011010000110100001010 3
b1000101010001010101000001010010 4
b1000000000000000011001000 5
b1000000000000000011001000 7
19
#2400000
09
#2410000
b1000000000000000011010000 $
b1001111010011010000110100001010 %
b0 2
b0 3
b1001111010011010000110100001010 4
b1000000000000000011001100 5
b1000000000000000011001100 7
19
#2420000
09
#2430000
b1000000000000000011010100 $
b0 %
b11100011100000010001000011011111 &
b100000011000010010000000101101 2
b100000011000010010000000101101 3
b0 4
b1000000000000000011010000 5
b1000000000000000011010000 7
19
#2440000
09
#2450000
b1000000000000000011011000 $
b100000011000010010000000101101 %
b11100001001010011111000000000001 &
b100000011000010111010101110100 2
b100000011000010111010101110100 3
b100000011000010010000000101101 4
b1000000000000000011010100 5
b1000000000000000011010100 7
19
#2460000
09
#2470000
b1000000000000000011011100 $
b100000011000010111010101110100 %
b11100011101000000000000000000000 &
b1101111011011010110000101110100 2
b1101111011011010110000101110100 3
b100000011000010111010101110100 4
b1000000000000000011011000 5
b1000000000000000011011000 7
19
#2480000
09
#2490000
b1000000000000000011100000 $
b1101111011011010110000101110100 %
b11100001001010011111000000000001 &
0(
1*
b1101001011000110010000001100010 2
b1101001011000110010000001100010 3
b1101111011011010110000101110100 4
b1000000000000000011011100 5
b1000000000000000011011100 7
19
#2500000
09
#2510000
b1101111011011110111010000100000 2
b1101111011011110111010000100000 3
19
#2520000
09
#2530000
b11100011101000000000000000000000 2
b11100011101000000000000000000000 3
19
#2540000
09
#2550000
19
#2560000
09
#2570000
19
#2580000
09
#2590000
19
#2600000
09
#2610000
19
#2620000
09
#2630000
b11100011101000000000000000000000 &
19
#2640000
09
#2650000
19
#2660000
09
#2670000
1(
0*
19
#2680000
09
#2690000
b1000000000000000011100100 $
b11100011101000000000000000000000 %
b11100001101000000001000000000000 &
b11100011101000000000000000000000 4
b1000000000000000011100000 5
b1000000000000000011100000 7
19
#2700000
09
#2710000
b1000000000000000011101000 $
b11100001101000000010000000000000 &
b1100011011011110110111001100110 2
b1100011011011110110111001100110 3
b1000000000000000011100100 5
b1000000000000000011100100 7
19
#2720000
09
#2730000
b1000000000000000011101100 $
b1100011011011110110111001100110 %
b11100001101000000111000000000000 &
b1101001011001110111010101110010 2
b1101001011001110111010101110010 3
b1100011011011110110111001100110 4
b1000000000000000011101000 5
b1000000000000000011101000 7
19
#2740000
09
#2750000
b1000000000000000011110000 $
b1101001011001110111010101110010 %
b1100001011101000110100101101111 2
b1100001011101000110100101101111 3
b1101001011001110111010101110010 4
b1000000000000000011101100 5
b1000000000000000011101100 7
19
#2760000
09
#2770000
b1000000000000000011110100 $
b1100001011101000110100101101111 %
b11100101100111111010000110001000 &
b1101110000011010000101000100000 2
b1101110000011010000101000100000 3
b1100001011101000110100101101111 4
b1000000000000000011110000 5
b1000000000000000011110000 7
19
#2780000
09
#2790000
b1000000000000000011111000 $
b1101110000011010000101000100000 %
b11100001101000001110000000001111 &
b1101000001000000010110100100000 2
b1101000001000000010110100100000 3
b1101110000011010000101000100000 4
b1000000000000000011110100 5
b1000000000000000011110100 7
19
#2800000
09
#2810000
b1000000000000000011111100 $
b1101000001000000010110100100000 %
b11100000001000110011000000010010 &
b1101000011001010110110001110000 2
b1101000011001010110110001110000 3
b1101000001000000010110100100000 4
b1000000000000000011111000 5
b1000000000000000011111000 7
19
#2820000
09
#2830000
b1101000011001010110110001110000 %
b11100011101000000000000000000000 &
0(
1*
b1101000010100010000001110010 2
b1101000010100010000001110010 3
b1101000011001010110110001110000 4
b1000000000000000011111100 5
b1000000000000000011111100 7
19
#2840000
09
#2850000
b11100000001000110011000000010010 &
1(
0*
b100000001011010010000001110010 2
b100000001011010010000001110010 3
19
#2860000
09
#2870000
b100000001011010010000001110010 %
b0 &
0(
0)
0,
1.
b11100010010000000000000000000100 2
b11100010010000000000000000000100 3
b100000001011010010000001110010 4
b1000000000000000100000000 5
b1000000000000000100000000 7
19
0:
#2880000
09
#2890000
b1000000000000000100000000 $
b1100101011100110111010001100001 %
b11100000001000110011000000010010 &
1)
1*
1,
0.
b1100101011100110111010001100001 2
b1100101011100110111010001100001 3
b1100101011100110111010001100001 4
b1000000000000000100000000 6
19
1:
#2900000
09
#2910000
b11100011101000000000000000000000 &
19
#2920000
09
#2930000
19
#2940000
09
#2950000
19
#2960000
09
#2970000
19
#2980000
09
#2990000
19
#3000000
09
#3010000
19
#3020000
09
#3030000
19
#3040000
09
#3050000
b11101010111111111111111111111110 &
19
#3060000
09
#3070000
19
#3080000
09
#3090000
1(
0*
19
#3100000
09
#3110000
b1000000000000000100000100 $
b11100001101000001101000000001110 &
19
#3120000
09
#3130000
b1000000000000000100001000 $
b11100011101000000100000000010000 &
b1000000000000000100000100 5
b1000000000000000100000100 7
19
#3140000
09
#3150000
b1000000000000000100001100 $
b11101110000011010100111100011101 &
b1110010011101000010000001110011 2
b1110010011101000010000001110011 3
b1000000000000000100001000 5
b1000000000000000100001000 7
19
#3160000
09
#3170000
b1000000000000000100010000 $
b1110010011101000010000001110011 %
b11100011101000000100000000111100 &
b1111001011100110111010001100101 2
b1111001011100110111010001100101 3
b1110010011101000010000001110011 4
b1000000000000000100001100 5
b1000000000000000100001100 7
19
#3180000
09
#3190000
b1000000000000000100010100 $
b1111001011100110111010001100101 %
b11101011000000000000000001010001 &
b1101101000011010000101000001101 2
b1101101000011010000101000001101 3
b1111001011100110111010001100101 4
b1000000000000000100010000 5
b1000000000000000100010000 7
19
#3200000
09
#3210000
b1000000000000000100011000 $
b1101101000011010000101000001101 %
b11100011101000000100000001000100 &
b1010010100110110010101101100 2
b1010010100110110010101101100 3
b1101101000011010000101000001101 4
b1000000000000000100010100 5
b1000000000000000100010100 7
19
#3220000
09
#3230000
b1000000000000000100011100 $
b1010010100110110010101101100 %
b11101011000000000000000001001111 &
b1100101011000110111010000111010 2
b1100101011000110111010000111010 3
b1010010100110110010101101100 4
b1000000000000000100011000 5
b1000000000000000100011000 7
19
#3240000
09
#3250000
b1000000000000000100100000 $
b1100101011000110111010000111010 %
b11101010111111111111111111111110 &
0(
1*
b100000000000000000000000000000 2
b100000000000000000000000000000 3
b1100101011000110111010000111010 4
b1000000000000000100011100 5
b1000000000000000100011100 7
19
#3260000
09
#3270000
b1101000010100000110100001010 2
b1101000010100000110100001010 3
19
#3280000
09
#3290000
b11101011000000000000000001001111 2
b11101011000000000000000001001111 3
19
#3300000
09
#3310000
19
#3320000
09
#3330000
19
#3340000
09
#3350000
19
#3360000
09
#3370000
19
#3380000
09
#3390000
b11100011101000000100000001000001 &
19
#3400000
09
#3410000
19
#3420000
09
#3430000
1(
0*
19
#3440000
09
#3450000
b1000000000000000100100100 $
b11101011000000000000000001001111 %
b11101011000000000000000001001101 &
b11101011000000000000000001001111 4
b1000000000000000100100000 5
b1000000000000000100100000 7
19
#3460000
09
#3470000
b1000000000000000100101000 $
b11100011101000000100000001000010 &
b1101000010100010101100101101 2
b1101000010100010101100101101 3
b1000000000000000100100100 5
b1000000000000000100100100 7
19
#3480000
09
#3490000
b1000000000000000100101100 $
b1101000010100010101100101101 %
b11101010000000000000000000100010 &
b101101001011010010110100101101 2
b101101001011010010110100101101 3
b1101000010100010101100101101 4
b1000000000000000100101000 5
b1000000000000000100101000 7
19
#3500000
09
#3510000
b1000000000000000100110000 $
b101101001011010010110100101101 %
b101101001011010010110100101101 4
b1000000000000000100101100 5
b1000000000000000100101100 7
19
#3520000
09
#3530000
b1000000000000000100110100 $
b11100001101000001101000000001110 &
b1000000000000000100110000 5
b1000000000000000100110000 7
19
#3540000
09
#3550000
b1000000000000000100111000 $
b11100011101000000100000000100000 &
b1000000000000000100110100 5
b1000000000000000100110100 7
19
#3560000
09
#3570000
b1000000000000000100111100 $
b11100011101000000100000000111100 &
b1000000000000000100111000 5
b1000000000000000100111000 7
19
#3580000
09
#3590000
b1000000000000000101000000 $
b11100011101000000100000001000001 &
0(
1*
b1000000000000000100111100 5
b1000000000000000100111100 7
19
#3600000
09
#3610000
19
#3620000
09
#3630000
b11100011101000000100000000111100 2
b11100011101000000100000000111100 3
19
#3640000
09
#3650000
19
#3660000
09
#3670000
19
#3680000
09
#3690000
19
#3700000
09
#3710000
19
#3720000
09
#3730000
b11100011101000000100000000111100 &
19
#3740000
09
#3750000
19
#3760000
09
#3770000
1(
0*
19
#3780000
09
#3790000
b1000000000000000101000100 $
b11100011101000000100000000111100 %
b11101011000000000000000001000101 &
b11100011101000000100000000111100 4
b1000000000000000101000000 5
b1000000000000000101000000 7
19
#3800000
09
#3810000
b1000000000000000101001000 $
b11100011101000000100000001001001 &
b101101001011010010110100101101 2
b101101001011010010110100101101 3
b1000000000000000101000100 5
b1000000000000000101000100 7
19
#3820000
09
#3830000
b1000000000000000101001100 $
b101101001011010010110100101101 %
b11100011101000000100000001000001 &
b101101001011010010110100101101 4
b1000000000000000101001000 5
b1000000000000000101001000 7
19
#3840000
09
#3850000
b1000000000000000101010000 $
b1000000000000000101001100 5
b1000000000000000101001100 7
19
#3860000
09
#3870000
b1000000000000000101010100 $
b11101011000000000000000001000001 &
b1000000000000000101010000 5
b1000000000000000101010000 7
19
#3880000
09
#3890000
b1000000000000000101011000 $
b11100011101000000100000001000010 &
b1000000000000000101010100 5
b1000000000000000101010100 7
19
#3900000
09
#3910000
b1000000000000000101011100 $
b11101010000000000000000000010110 &
b1000000000000000101011000 5
b1000000000000000101011000 7
19
#3920000
09
#3930000
b1000000000000000101100000 $
b11100011101000000100000000111100 &
0(
1*
b1000000000000000101011100 5
b1000000000000000101011100 7
19
#3940000
09
#3950000
19
#3960000
09
#3970000
b11101010000000000000000000010110 2
b11101010000000000000000000010110 3
19
#3980000
09
#3990000
19
#4000000
09
#4010000
19
#4020000
09
#4030000
19
#4040000
09
#4050000
19
#4060000
09
#4070000
b11101010000000000000000000010110 &
19
#4080000
09
#4090000
19
#4100000
09
#4110000
1(
0*
19
#4120000
09
#4130000
b1000000000000000101100100 $
b11101010000000000000000000010110 %
b11100001101000001101000000001110 &
b11101010000000000000000000010110 4
b1000000000000000101100000 5
b1000000000000000101100000 7
19
#4140000
09
#4150000
b1000000000000000101101000 $
b11100011101000000100000001000000 &
b101101001011010010110100101011 2
b101101001011010010110100101011 3
b1000000000000000101100100 5
b1000000000000000101100100 7
19
#4160000
09
#4170000
b1000000000000000101101100 $
b101101001011010010110100101011 %
b11100011101000000100000000111100 &
b1101000010100000000000000000 2
b1101000010100000000000000000 3
b101101001011010010110100101011 4
b1000000000000000101101000 5
b1000000000000000101101000 7
19
#4180000
09
#4190000
b1000000000000000101110000 $
b1101000010100000000000000000 %
b1111100001000000010000000100000 2
b1111100001000000010000000100000 3
b1101000010100000000000000000 4
b1000000000000000101101100 5
b1000000000000000101101100 7
19
#4200000
09
#4210000
b1000000000000000101110100 $
b1111100001000000010000000100000 %
b11101011000000000000000000111001 &
b100000001111000011110000111100 2
b100000001111000011110000111100 3
b1111100001000000010000000100000 4
b1000000000000000101110000 5
b1000000000000000101110000 7
19
#4220000
09
#4230000
b1000000000000000101111000 $
b100000001111000011110000111100 %
b11100011101000000100000001010011 &
b100000010100110101010001001111 2
b100000010100110101010001001111 3
b100000001111000011110000111100 4
b1000000000000000101110100 5
b1000000000000000101110100 7
19
#4240000
09
#4250000
b1000000000000000101111100 $
b100000010100110101010001001111 %
b11100011101000000010000000000001 &
b1010010010011010010000001000011 2
b1010010010011010010000001000011 3
b100000010100110101010001001111 4
b1000000000000000101111000 5
b1000000000000000101111000 7
19
#4260000
09
#4270000
b1010010010011010010000001000011 %
b11101010000000000000000000010110 &
0(
1*
b1101111011100100110010100100000 2
b1101111011100100110010100100000 3
b1010010010011010010000001000011 4
b1000000000000000101111100 5
b1000000000000000101111100 7
19
#4280000
09
#4290000
b11100011101000000010000000000001 &
1(
0*
b1010000011100100110111101100011 2
b1010000011100100110111101100011 3
19
#4300000
09
#4310000
b1010000011100100110111101100011 %
b0 &
0(
0)
0,
1.
b11101010111111111111111111111110 2
b11101010111111111111111111111110 3
b1010000011100100110111101100011 4
b1000000000000000110000000 5
b1000000000000000110000000 7
19
0:
#4320000
09
#4330000
b1000000000000000110000000 $
b11100010000000000000000011111111 %
b11100011101000000010000000000001 &
1)
1*
1,
0.
b11100010000000000000000011111111 2
b11100010000000000000000011111111 3
b11100010000000000000000011111111 4
b1000000000000000110000000 6
19
1:
#4340000
09
#4350000
b11101010000000000000000000010110 &
19
#4360000
09
#4370000
19
#4380000
09
#4390000
19
#4400000
09
#4410000
19
#4420000
09
#4430000
19
#4440000
09
#4450000
19
#4460000
09
#4470000
$comment Sample 223 (End) $end
19
#4480000
09
