wb-sdr-write.vcd
$comment
Copyright (C) 1991-2013 Altera Corporation
Your use of Altera Corporation's design tools, logic functions 
and other software and tools, and its AMPP partner logic 
functions, and any output files from any of the foregoing 
(including device programming or simulation files), and any 
associated documentation or information are expressly subject 
to the terms and conditions of the Altera Program License 
Subscription Agreement, Altera MegaCore Function License 
Agreement, or other applicable license agreement, including, 
without limitation, that your use is for the sole purpose of 
programming logic devices manufactured by Altera and sold by 
Altera or its authorized distributors.  Please refer to the 
applicable agreement for further details.
$end

$date 
  01/31/2016 23:00:48 
$end
$version 
 QUARTUS_VCD_EXPORT 1.0 
$end
$timescale
  1 ps
$end
$scope module STORM_TOP_INST $end
$var reg 1 ! WB_ERR_I $end
$var reg 4 " WB_SEL_O[3:0] $end
$var reg 7 # WB_TGC_O[6:0] $end
$var reg 32 $ WB_ADR_O[31:0] $end
$var reg 32 % WB_DATA_O[31:0] $end
$var reg 32 & WB_DATA_I[31:0] $end
$var reg 1 ' WB_WE_O $end
$var reg 1 ( WB_ACK_I $end
$var reg 1 ) WB_CYC_O $end
$var reg 1 * WB_HALT_I $end
$scope module BUS_UNIT_INST $end
$var reg 1 + \ARB_STATE.ASSIGN_D_PAGE  $end
$var reg 1 , \ARB_STATE.DOWNLOAD_D_PAGE  $end
$var reg 1 - \ARB_STATE.DOWNLOAD_I_PAGE  $end
$var reg 1 . \ARB_STATE.END_TRANSFER  $end
$var reg 1 / \ARB_STATE.IDLE  $end
$var reg 1 0 \ARB_STATE.IO_REQUEST  $end
$var reg 1 1 \ARB_STATE.UPLOAD_D_PAGE  $end
$var reg 32 2 DC_DATA_I[31:0] $end
$var reg 32 3 WB_DATA_FF_NXT[31:0] $end
$var reg 32 4 WB_DATA_FF[31:0] $end
$var reg 32 5 DC_ADR_O[31:0] $end
$var reg 32 6 BASE_BUF[31:0] $end
$var reg 32 7 DC_ADR_BUF[31:0] $end
$var reg 1 8 DC_D_SEL_I $end
$upscope $end
$upscope $end
$scope module SYSCON_CLK $end
$var reg 1 9 c0 $end
$upscope $end
$var reg 1 : SDRAM_MEM_STB_I $end
$enddefinitions $end
#0
$dumpvars
X!
bX "
bX #
bX $
bX %
bX &
X'
X(
X)
X*
X+
X,
X-
X.
X/
X0
X1
bX 2
bX 3
bX 4
bX 5
bX 6
bX 7
X8
09
X:
$end
#10000
$comment Sample -32 (Start) $end
0!
b1111 "
b11111 #
b1000000000000000100101100 $
b11101010000000000000000000100010 %
b11101000101111011000000000010000 &
1'
1(
1)
0*
0+
0,
0-
0.
0/
00
11
b11101010000000000000000000100010 2
b11101010000000000000000000100010 3
b11100011101000000100000001000010 4
b1000000000000000100110000 5
b1000000000000000100000000 6
b1000000000000000100110000 7
08
19
1:
#20000
09
#30000
b1000000000000000100110000 $
b11101010000000000000000000100010 4
b1000000000000000100110100 5
b1000000000000000100110100 7
19
#40000
09
#50000
b1000000000000000100110100 $
b11100001101000001101000000001110 %
b11100011101000000011000011111111 &
b11100001101000001101000000001110 2
b11100001101000001101000000001110 3
b1000000000000000100111000 5
b1000000000000000100111000 7
19
#60000
09
#70000
b1000000000000000100111000 $
b11100011101000000100000000100000 %
b11100001101000000011110000010011 &
b11100011101000000100000000100000 2
b11100011101000000100000000100000 3
b11100001101000001101000000001110 4
b1000000000000000100111100 5
b1000000000000000100111100 7
19
#80000
09
#90000
b1000000000000000100111100 $
b11101110000011010100111100011101 %
b11100001101000000010000110000010 &
0(
1*
b11101110000011010100111100011101 2
b11101110000011010100111100011101 3
b11100011101000000100000000100000 4
b1000000000000000101000000 5
b1000000000000000101000000 7
19
#100000
09
#110000
b11100011101000000100000000111100 %
b11100011101000000100000000111100 2
b11100011101000000100000000111100 3
19
#120000
09
#130000
1(
0*
19
#140000
09
#150000
b1000000000000000101000000 $
b11100001111000000011000000000011 &
b11100011101000000100000000111100 4
b1000000000000000101000100 5
b1000000000000000101000100 7
19
#160000
09
#170000
b1000000000000000101000100 $
b11101011000000000000000001000101 %
b11100000000000100010000000000011 &
b11101011000000000000000001000101 2
b11101011000000000000000001000101 3
b1000000000000000101001000 5
b1000000000000000101001000 7
19
#180000
09
#190000
b1000000000000000101001000 $
b11100011101000000100000001001001 %
b11100001100000100010111000010001 &
b11100011101000000100000001001001 2
b11100011101000000100000001001001 3
b11101011000000000000000001000101 4
b1000000000000000101001100 5
b1000000000000000101001100 7
19
#200000
09
#210000
b1000000000000000101001100 $
b11101011000000000000000001000011 %
b11101000101111011000000000010000 &
0(
1*
b11101011000000000000000001000011 2
b11101011000000000000000001000011 3
b11100011101000000100000001001001 4
b1000000000000000101010000 5
b1000000000000000101010000 7
19
#220000
09
#230000
b11100011101000000100000001000001 %
b11100011101000000100000001000001 2
b11100011101000000100000001000001 3
19
#240000
09
#250000
1(
0*
19
#260000
09
#270000
b1000000000000000101010000 $
b11100011101000000100000001000001 4
b1000000000000000101010100 5
b1000000000000000101010100 7
19
#280000
09
#290000
b1000000000000000101010100 $
b11101011000000000000000001000001 %
b11100011101000000011000011111111 &
b11101011000000000000000001000001 2
b11101011000000000000000001000001 3
b1000000000000000101011000 5
b1000000000000000101011000 7
19
#300000
09
#310000
b1000000000000000101011000 $
b11100011101000000100000001000010 %
b11100001101000000011110000010011 &
b11100011101000000100000001000010 2
b11100011101000000100000001000010 3
b11101011000000000000000001000001 4
b1000000000000000101011100 5
b1000000000000000101011100 7
19
#320000
09
#330000
b1000000000000000101011100 $
b11101011000000000000000000111111 %
b11100001101000000010000110000010 &
0(
1*
b11101011000000000000000000111111 2
b11101011000000000000000000111111 3
b11100011101000000100000001000010 4
b1000000000000000101100000 5
b1000000000000000101100000 7
19
#340000
09
#350000
b11101010000000000000000000010110 %
b11101010000000000000000000010110 2
b11101010000000000000000000010110 3
19
#360000
09
#370000
1(
0*
19
#380000
09
#390000
b1000000000000000101100000 $
b11100001111000000011000000000011 &
b11101010000000000000000000010110 4
b1000000000000000101100100 5
b1000000000000000101100100 7
19
#400000
09
#410000
b1000000000000000101100100 $
b11100001101000001101000000001110 %
b11100000000000100010000000000011 &
b11100001101000001101000000001110 2
b11100001101000001101000000001110 3
b1000000000000000101101000 5
b1000000000000000101101000 7
19
#420000
09
#430000
b1000000000000000101101000 $
b11100011101000000100000001000000 %
b11100001100000100010111000010001 &
b11100011101000000100000001000000 2
b11100011101000000100000001000000 3
b11100001101000001101000000001110 4
b1000000000000000101101100 5
b1000000000000000101101100 7
19
#440000
09
#450000
b1000000000000000101101100 $
b11101110000011010100111100011101 %
b11101000101111011000000000010000 &
0(
1*
b11101110000011010100111100011101 2
b11101110000011010100111100011101 3
b11100011101000000100000001000000 4
b1000000000000000101110000 5
b1000000000000000101110000 7
19
#460000
09
#470000
b11100011101000000100000000111100 %
b11100011101000000100000000111100 2
b11100011101000000100000000111100 3
19
#480000
09
#490000
1(
0*
19
#500000
09
#510000
b1000000000000000101110000 $
b11100011101000000100000000111100 4
b1000000000000000101110100 5
b1000000000000000101110100 7
19
#520000
09
#530000
b1000000000000000101110100 $
b11101011000000000000000000111001 %
b11100011101000000011000011111111 &
b11101011000000000000000000111001 2
b11101011000000000000000000111001 3
b1000000000000000101111000 5
b1000000000000000101111000 7
19
#540000
09
#550000
b1000000000000000101111000 $
b11100011101000000100000001010011 %
b11100001101000000011110000010011 &
b11100011101000000100000001010011 2
b11100011101000000100000001010011 3
b11101011000000000000000000111001 4
b1000000000000000101111100 5
b1000000000000000101111100 7
19
#560000
09
#570000
b1000000000000000101111100 $
b11101011000000000000000000110111 %
b11100001101000000010000110000010 &
0(
1*
b11101011000000000000000000110111 2
b11101011000000000000000000110111 3
b11100011101000000100000001010011 4
19
#580000
09
#590000
19
#600000
09
#610000
b11100011101000000010000000000001 %
1(
0*
b11100011101000000010000000000001 2
b11100011101000000010000000000001 3
19
#620000
09
#630000
b0 &
0)
1.
01
b11100011101000000010000000000001 4
19
0:
#640000
09
#650000
$comment Sample 0 (Trigger) $end
b1000000000000000000000000 $
b11101010000000000000000000010010 %
b11100001101000000010000110000010 &
0(
1)
1*
0.
11
b11101010000000000000000000010010 2
b11101010000000000000000000010010 3
b1000000000100101100000000 4
b1000000000000000000000000 5
b1000000000000000000000000 6
b1000000000000000000000000 7
19
1:
#660000
09
#670000
b11100001111000000011000000000011 &
1(
0*
19
#680000
09
#690000
b11100000000000100010000000000011 &
b11101010000000000000000000010010 4
b1000000000000000000000100 5
b1000000000000000000000100 7
19
#700000
09
#710000
b1000000000000000000000100 $
b11101010000000000000000001100010 %
b11101010000000000000000001100010 2
b11101010000000000000000001100010 3
b1000000000000000000001000 5
b1000000000000000000001000 7
19
#720000
09
#730000
b1000000000000000000001000 $
b11101010000000000000000001010101 %
b11100001100000100010111000010001 &
b11101010000000000000000001010101 2
b11101010000000000000000001010101 3
b11101010000000000000000001100010 4
b1000000000000000000001100 5
b1000000000000000000001100 7
19
#740000
09
#750000
b1000000000000000000001100 $
b11101010000000000000000001001000 %
b11101000101111011000000000010000 &
b11101010000000000000000001001000 2
b11101010000000000000000001001000 3
b11101010000000000000000001010101 4
b1000000000000000000010000 5
b1000000000000000000010000 7
19
#760000
09
#770000
b1000000000000000000010000 $
b11101010000000000000000001000111 %
b11101010000000000000000001000111 2
b11101010000000000000000001000111 3
b11101010000000000000000001001000 4
b1000000000000000000010100 5
b1000000000000000000010100 7
19
#780000
09
#790000
b1000000000000000000010100 $
b11100001101000000000000000000000 %
b11100011101000000011000011111111 &
b11100001101000000000000000000000 2
b11100001101000000000000000000000 3
b11101010000000000000000001000111 4
b1000000000000000000011000 5
b1000000000000000000011000 7
19
#800000
09
#810000
b1000000000000000000011000 $
b11100101000111111111111111110000 %
b11100001101000000011110000010011 &
b11100101000111111111111111110000 2
b11100101000111111111111111110000 3
b11100001101000000000000000000000 4
b1000000000000000000011100 5
b1000000000000000000011100 7
19
#820000
09
#830000
b1000000000000000000011100 $
b11100001101000000010000110000010 &
b11100101000111111111111111110000 4
b1000000000000000000100000 5
b1000000000000000000100000 7
19
#840000
09
#850000
b1000000000000000000100000 $
b1000000000000000000111000 %
b11100001111000000011000000000011 &
b1000000000000000000111000 2
b1000000000000000000111000 3
b1000000000000000000100100 5
b1000000000000000000100100 7
19
#860000
09
#870000
b1000000000000000000100100 $
b1000000000000000000111100 %
b11100000000000100010000000000011 &
b1000000000000000000111100 2
b1000000000000000000111100 3
b1000000000000000000111000 4
b1000000000000000000101000 5
b1000000000000000000101000 7
19
#880000
09
#890000
b1000000000000000000101000 $
b1000000000000000001000000 %
b11100001100000100010111000010001 &
b1000000000000000001000000 2
b1000000000000000001000000 3
b1000000000000000000111100 4
b1000000000000000000101100 5
b1000000000000000000101100 7
19
#900000
09
#910000
b1000000000000000000101100 $
b1000000000000000001000100 %
b11101000101111011000000000010000 &
0(
1*
b1000000000000000001000100 2
b1000000000000000001000100 3
b1000000000000000001000000 4
b1000000000000000000110000 5
b1000000000000000000110000 7
19
#920000
09
#930000
b1000000000000000001001000 %
b1000000000000000001001000 2
b1000000000000000001001000 3
19
#940000
09
#950000
1(
0*
19
#960000
09
#970000
b1000000000000000000110000 $
b1000000000000000001001000 4
b1000000000000000000110100 5
b1000000000000000000110100 7
19
#980000
09
#990000
b1000000000000000000110100 $
b1000000000000000001001100 %
b11100011101000000011000011111111 &
b1000000000000000001001100 2
b1000000000000000001001100 3
b1000000000000000000111000 5
b1000000000000000000111000 7
19
#1000000
09
#1010000
b1000000000000000000111000 $
b11101010111111111111111111111110 %
b11100001101000000011110000010011 &
b11101010111111111111111111111110 2
b11101010111111111111111111111110 3
b1000000000000000001001100 4
b1000000000000000000111100 5
b1000000000000000000111100 7
19
#1020000
09
#1030000
b1000000000000000000111100 $
b11100001101000000010000110000010 &
0(
1*
b11101010111111111111111111111110 4
b1000000000000000001000000 5
b1000000000000000001000000 7
19
#1040000
09
#1050000
19
#1060000
09
#1070000
1(
0*
19
#1080000
09
#1090000
b1000000000000000001000000 $
b11100001111000000011000000000011 &
b1000000000000000001000100 5
b1000000000000000001000100 7
19
#1100000
09
#1110000
b1000000000000000001000100 $
b11100000000000100010000000000011 &
b1000000000000000001001000 5
b1000000000000000001001000 7
19
#1120000
09
#1130000
b1000000000000000001001000 $
b11100001100000100010111000010001 &
b1000000000000000001001100 5
b1000000000000000001001100 7
19
#1140000
09
#1150000
b1000000000000000001001100 $
b11101000101111011000000000010000 &
0(
1*
b1000000000000000001010000 5
b1000000000000000001010000 7
19
#1160000
09
#1170000
b11100101100111110000001000101000 %
b11100101100111110000001000101000 2
b11100101100111110000001000101000 3
19
#1180000
09
#1190000
1(
0*
19
#1200000
09
#1210000
b1000000000000000001010000 $
b11100101100111110000001000101000 4
b1000000000000000001010100 5
b1000000000000000001010100 7
19
#1220000
09
#1230000
b1000000000000000001010100 $
b11100001000011110001000000000000 %
b11100011101000000011000011111111 &
b11100001000011110001000000000000 2
b11100001000011110001000000000000 3
b1000000000000000001011000 5
b1000000000000000001011000 7
19
#1240000
09
#1250000
b1000000000000000001011000 $
b11100011110000010001000001111111 %
b11100001101000000011110000010011 &
b11100011110000010001000001111111 2
b11100011110000010001000001111111 3
b11100001000011110001000000000000 4
b1000000000000000001011100 5
b1000000000000000001011100 7
19
#1260000
09
#1270000
b1000000000000000001011100 $
b11100011100000010001000011011011 %
b11100001101000000010000110000010 &
0(
1*
b11100011100000010001000011011011 2
b11100011100000010001000011011011 3
b11100011110000010001000001111111 4
b1000000000000000001100000 5
b1000000000000000001100000 7
19
#1280000
09
#1290000
b11100001001010011111000000000001 %
b11100001001010011111000000000001 2
b11100001001010011111000000000001 3
19
#1300000
09
#1310000
1(
0*
19
#1320000
09
#1330000
b1000000000000000001100000 $
b11100001111000000011000000000011 &
b11100001001010011111000000000001 4
b1000000000000000001100100 5
b1000000000000000001100100 7
19
#1340000
09
#1350000
b1000000000000000001100100 $
b11100001101000001101000000000000 %
b11100000000000100010000000000011 &
b11100001101000001101000000000000 2
b11100001101000001101000000000000 3
b1000000000000000001101000 5
b1000000000000000001101000 7
19
#1360000
09
#1370000
b1000000000000000001101000 $
b11100010010000000000000000000100 %
b11100001100000100010111000010001 &
b11100010010000000000000000000100 2
b11100010010000000000000000000100 3
b11100001101000001101000000000000 4
b1000000000000000001101100 5
b1000000000000000001101100 7
19
#1380000
09
#1390000
b1000000000000000001101100 $
b11100001000011110001000000000000 %
b11101000101111011000000000010000 &
0(
1*
b11100001000011110001000000000000 2
b11100001000011110001000000000000 3
b11100010010000000000000000000100 4
b1000000000000000001110000 5
b1000000000000000001110000 7
19
#1400000
09
#1410000
b11100011110000010001000001111111 %
b11100011110000010001000001111111 2
b11100011110000010001000001111111 3
19
#1420000
09
#1430000
1(
0*
19
#1440000
09
#1450000
b1000000000000000001110000 $
b11100011110000010001000001111111 4
b1000000000000000001110100 5
b1000000000000000001110100 7
19
#1460000
09
#1470000
b1000000000000000001110100 $
b11100011100000010001000011010111 %
b11100011101000000011000011111111 &
b11100011100000010001000011010111 2
b11100011100000010001000011010111 3
b1000000000000000001111000 5
b1000000000000000001111000 7
19
#1480000
09
#1490000
b1000000000000000001111000 $
b11100001001010011111000000000001 %
b11100001101000000011110000010011 &
b11100001001010011111000000000001 2
b11100001001010011111000000000001 3
b11100011100000010001000011010111 4
b1000000000000000001111100 5
b1000000000000000001111100 7
19
#1500000
09
#1510000
b1000000000000000001111100 $
b11100001101000001101000000000000 %
b11100001101000000010000110000010 &
0(
1*
b11100001101000001101000000000000 2
b11100001101000001101000000000000 3
b11100001001010011111000000000001 4
19
#1520000
09
#1530000
19
#1540000
09
#1550000
b11100011101000000010000000000001 %
1(
0*
b11100011101000000010000000000001 2
b11100011101000000010000000000001 3
19
#1560000
09
#1570000
b0 &
0)
1.
01
b11100011101000000010000000000001 4
19
0:
#1580000
09
#1590000
b1000000000000010000000000 $
b11100011111000000010101000001111 %
b11100011111000001110101000001111 &
0(
1)
1*
0.
11
b11100011111000000010101000001111 2
b11100011111000000010101000001111 3
b11100001101000001111000000001110 4
b1000000000000010000000000 5
b1000000000000010000000000 6
b1000000000000010000000000 7
19
1:
#1600000
09
#1610000
b11100101000100100011111110010111 &
1(
0*
19
#1620000
09
#1630000
b11100101000000100011111110010111 &
b11100011111000000010101000001111 4
b1000000000000010000000100 5
b1000000000000010000000100 7
19
#1640000
09
#1650000
b1000000000000010000000100 $
b11100101000100100011111111100011 %
b11100101000100100011111111100011 2
b11100101000100100011111111100011 3
b1000000000000010000001000 5
b1000000000000010000001000 7
19
#1660000
09
#1670000
b1000000000000010000001000 $
b11100011000100110000000000000001 %
b11100011000100110000000000000001 2
b11100011000100110000000000000001 3
b11100101000100100011111111100011 4
b1000000000000010000001100 5
b1000000000000010000001100 7
19
#1680000
09
#1690000
b1000000000000010000001100 $
b1010111111111111111111111100 %
b11100001101000001111000000001110 &
b1010111111111111111111111100 2
b1010111111111111111111111100 3
b11100011000100110000000000000001 4
b1000000000000010000010000 5
b1000000000000010000010000 7
19
#1700000
09
#1710000
b1000000000000010000010000 $
b11100010000000000011000011111111 %
b11101001001011010100000000110000 &
b11100010000000000011000011111111 2
b11100010000000000011000011111111 3
b1010111111111111111111111100 4
b1000000000000010000010100 5
b1000000000000010000010100 7
19
#1720000
09
#1730000
b1000000000000010000010100 $
b11100101000000100011111111100111 %
b11100010000000010100000011111110 &
b11100101000000100011111111100111 2
b11100101000000100011111111100111 3
b11100010000000000011000011111111 4
b1000000000000010000011000 5
b1000000000000010000011000 7
19
#1740000
09
#1750000
b1000000000000010000011000 $
b11100001101000001111000000001110 %
b11100001101000001111000000001110 2
b11100001101000001111000000001110 3
b11100101000000100011111111100111 4
b1000000000000010000011100 5
b1000000000000010000011100 7
19
#1760000
09
#1770000
b1000000000000010000011100 $
b11100010000000000000000011111111 %
b11100011111000001110101000001111 &
b11100010000000000000000011111111 2
b11100010000000000000000011111111 3
b11100001101000001111000000001110 4
b1000000000000010000100000 5
b1000000000000010000100000 7
19
#1780000
09
#1790000
b1000000000000010000100000 $
b11100011010100000000000000000001 %
b11100101000100100011111110010111 &
b11100011010100000000000000000001 2
b11100011010100000000000000000001 3
b11100010000000000000000011111111 4
b1000000000000010000100100 5
b1000000000000010000100100 7
19
#1800000
09
#1810000
b1000000000000010000100100 $
b11100011100000010010101100000001 %
b11100101000000100011111110010111 &
b11100011100000010010101100000001 2
b11100011100000010010101100000001 3
b11100011010100000000000000000001 4
b1000000000000010000101000 5
b1000000000000010000101000 7
19
#1820000
09
#1830000
b1000000000000010000101000 $
b11111000000011101000001111 %
b11111000000011101000001111 2
b11111000000011101000001111 3
b11100011100000010010101100000001 4
b1000000000000010000101100 5
b1000000000000010000101100 7
19
#1840000
09
#1850000
b1000000000000010000101100 $
b11100011100000010001101100001001 %
b11100001101000001111000000001110 &
0(
1*
b11100011100000010001101100001001 2
b11100011100000010001101100001001 3
b11111000000011101000001111 4
b1000000000000010000110000 5
b1000000000000010000110000 7
19
#1860000
09
#1870000
b10011111000000011101000001111 %
b10011111000000011101000001111 2
b10011111000000011101000001111 3
19
#1880000
09
#1890000
1(
0*
19
#1900000
09
#1910000
b1000000000000010000110000 $
b11101001001011010100000000110000 &
b10011111000000011101000001111 4
b1000000000000010000110100 5
b1000000000000010000110100 7
19
#1920000
09
#1930000
b1000000000000010000110100 $
b101000000110001111111001111 %
b11100010000000010100000011111110 &
b101000000110001111111001111 2
b101000000110001111111001111 3
b1000000000000010000111000 5
b1000000000000010000111000 7
19
#1940000
09
#1950000
b1000000000000010000111000 $
b10101000000110010111111001111 %
b10101000000110010111111001111 2
b10101000000110010111111001111 3
b101000000110001111111001111 4
b1000000000000010000111100 5
b1000000000000010000111100 7
19
#1960000
09
#1970000
b1000000000000010000111100 $
b11100001101000001111000000001110 %
b11100011111000001110101000001111 &
0(
1*
b11100001101000001111000000001110 2
b11100001101000001111000000001110 3
b10101000000110010111111001111 4
b1000000000000010001000000 5
b1000000000000010001000000 7
19
#1980000
09
#1990000
b11100011111000000011101000001111 %
b11100011111000000011101000001111 2
b11100011111000000011101000001111 3
19
#2000000
09
#2010000
1(
0*
19
#2020000
09
#2030000
b1000000000000010001000000 $
b11100101000100100011111110010111 &
b11100011111000000011101000001111 4
b1000000000000010001000100 5
b1000000000000010001000100 7
19
#2040000
09
#2050000
b1000000000000010001000100 $
b11100101000000110000111111001011 %
b11100101000000100011111110010111 &
b11100101000000110000111111001011 2
b11100101000000110000111111001011 3
b1000000000000010001001000 5
b1000000000000010001001000 7
19
#2060000
09
#2070000
b1000000000000010001001000 $
b11100001101000001111000000001110 %
b11100001101000001111000000001110 2
b11100001101000001111000000001110 3
b11100101000000110000111111001011 4
b1000000000000010001001100 5
b1000000000000010001001100 7
19
#2080000
09
#2090000
b1000000000000010001001100 $
b11100011111000000010101000001111 %
b11100001101000001111000000001110 &
0(
1*
b11100011111000000010101000001111 2
b11100011111000000010101000001111 3
b11100001101000001111000000001110 4
b1000000000000010001010000 5
b1000000000000010001010000 7
19
#2100000
09
#2110000
b11100101000100100011111111001111 %
b11100101000100100011111111001111 2
b11100101000100100011111111001111 3
19
#2120000
09
#2130000
1(
0*
19
#2140000
09
#2150000
b1000000000000010001010000 $
b11101001001011010100000000110000 &
b11100101000100100011111111001111 4
b1000000000000010001010100 5
b1000000000000010001010100 7
19
#2160000
09
#2170000
b1000000000000010001010100 $
b11100011000100110000110000000001 %
b11100010000000010100000011111110 &
b11100011000100110000110000000001 2
b11100011000100110000110000000001 3
b1000000000000010001011000 5
b1000000000000010001011000 7
19
#2180000
09
#2190000
b1000000000000010001011000 $
b11010111111111111111111111100 %
b11010111111111111111111111100 2
b11010111111111111111111111100 3
b11100011000100110000110000000001 4
b1000000000000010001011100 5
b1000000000000010001011100 7
19
#2200000
09
#2210000
b1000000000000010001011100 $
b11100101000000100000111110111111 %
b11100011111000001110101000001111 &
0(
1*
b11100101000000100000111110111111 2
b11100101000000100000111110111111 3
b11010111111111111111111111100 4
b1000000000000010001100000 5
b1000000000000010001100000 7
19
#2220000
09
#2230000
b11100101000100100011111111001111 %
b11100101000100100011111111001111 2
b11100101000100100011111111001111 3
19
#2240000
09
#2250000
1(
0*
19
#2260000
09
#2270000
b1000000000000010001100000 $
b11100101000100100011111110010111 &
b11100101000100100011111111001111 4
b1000000000000010001100100 5
b1000000000000010001100100 7
19
#2280000
09
#2290000
b1000000000000010001100100 $
b11100011100000110011110000000001 %
b11100101000000100011111110010111 &
b11100011100000110011110000000001 2
b11100011100000110011110000000001 3
b1000000000000010001101000 5
b1000000000000010001101000 7
19
#2300000
09
#2310000
b1000000000000010001101000 $
b11100101000000100011111111001111 %
b11100101000000100011111111001111 2
b11100101000000100011111111001111 3
b11100011100000110011110000000001 4
b1000000000000010001101100 5
b1000000000000010001101100 7
19
#2320000
09
#2330000
b1000000000000010001101100 $
b11100011111000000010101000001111 %
b11100001101000001111000000001110 &
0(
1*
b11100011111000000010101000001111 2
b11100011111000000010101000001111 3
b11100101000000100011111111001111 4
b1000000000000010001110000 5
b1000000000000010001110000 7
19
#2340000
09
#2350000
b11100101000100100011111111001111 %
b11100101000100100011111111001111 2
b11100101000100100011111111001111 3
19
#2360000
09
#2370000
1(
0*
19
#2380000
09
#2390000
b1000000000000010001110000 $
b11101001001011010100000000110000 &
b11100101000100100011111111001111 4
b1000000000000010001110100 5
b1000000000000010001110100 7
19
#2400000
09
#2410000
b1000000000000010001110100 $
b11100011000100110000110000000001 %
b11100010000000010100000011111110 &
b11100011000100110000110000000001 2
b11100011000100110000110000000001 3
b1000000000000010001111000 5
b1000000000000010001111000 7
19
#2420000
09
#2430000
b1000000000000010001111000 $
b11010111111111111111111111100 %
b11010111111111111111111111100 2
b11010111111111111111111111100 3
b11100011000100110000110000000001 4
b1000000000000010001111100 5
b1000000000000010001111100 7
19
#2440000
09
#2450000
b1000000000000010001111100 $
b11100101000100100000111110111111 %
b11100011111000001110101000001111 &
0(
1*
b11100101000100100000111110111111 2
b11100101000100100000111110111111 3
b11010111111111111111111111100 4
19
#2460000
09
#2470000
19
#2480000
09
#2490000
b11100011111000000001101000001111 %
1(
0*
b11100011111000000001101000001111 2
b11100011111000000001101000001111 3
19
#2500000
09
#2510000
b0 &
0)
1.
01
b11100011101000000010000000000001 2
b11100011101000000010000000000001 3
b11100011111000000001101000001111 4
19
0:
#2520000
09
#2530000
b1000000000000001110000000 $
b11100011111000000010101000001111 %
b11100011111000001110101000001111 &
0(
1)
1*
0.
11
b11100011111000000010101000001111 2
b11100011111000000010101000001111 3
b1000000000100101100000000 4
b1000000000000001110000000 5
b1000000000000001110000000 6
b1000000000000001110000000 7
19
1:
#2540000
09
#2550000
b11100101000100100011111110010111 &
1(
0*
19
#2560000
09
#2570000
b11100101000000100011111110010111 &
b11100011111000000010101000001111 4
b1000000000000001110000100 5
b1000000000000001110000100 7
19
#2580000
09
#2590000
b1000000000000001110000100 $
b11100101000100100011111110001111 %
b11100101000100100011111110001111 2
b11100101000100100011111110001111 3
b1000000000000001110001000 5
b1000000000000001110001000 7
19
#2600000
09
#2610000
b1000000000000001110001000 $
b11100000000000110011000000001110 %
b11100000000000110011000000001110 2
b11100000000000110011000000001110 3
b11100101000100100011111110001111 4
b1000000000000001110001100 5
b1000000000000001110001100 7
19
#2620000
09
#2630000
b1000000000000001110001100 $
b11100001100000110011110000010001 %
b11100001101000001111000000001110 &
b11100001100000110011110000010001 2
b11100001100000110011110000010001 3
b11100000000000110011000000001110 4
b1000000000000001110010000 5
b1000000000000001110010000 7
19
#2640000
09
#2650000
b1000000000000001110010000 $
b11100101000000100011111110001111 %
b11101001001011010100000000110000 &
b11100101000000100011111110001111 2
b11100101000000100011111110001111 3
b11100001100000110011110000010001 4
b1000000000000001110010100 5
b1000000000000001110010100 7
19
#2660000
09
#2670000
b1000000000000001110010100 $
b11101000101111011000000000010000 %
b11100010000000010100000011111110 &
b11101000101111011000000000010000 2
b11101000101111011000000000010000 3
b11100101000000100011111110001111 4
b1000000000000001110011000 5
b1000000000000001110011000 7
19
#2680000
09
#2690000
b1000000000000001110011000 $
b11100010000000000000000011111111 %
b11100010000000000000000011111111 2
b11100010000000000000000011111111 3
b11101000101111011000000000010000 4
b1000000000000001110011100 5
b1000000000000001110011100 7
19
#2700000
09
#2710000
b1000000000000001110011100 $
b11100011010100000000000000000111 %
b11100011111000001110101000001111 &
b11100011010100000000000000000111 2
b11100011010100000000000000000111 3
b11100010000000000000000011111111 4
b1000000000000001110100000 5
b1000000000000001110100000 7
19
#2720000
09
#2730000
b1000000000000001110100000 $
b11100011101000000010000000000000 %
b11100101000100100011111110010111 &
0(
1*
b11100011101000000010000000000000 2
b11100011101000000010000000000000 3
b11100011010100000000000000000111 4
b1000000000000001110100100 5
b1000000000000001110100100 7
19
#2740000
09
#2750000
b10001010000000000000000000001010 %
b10001010000000000000000000001010 2
b10001010000000000000000000001010 3
19
#2760000
09
#2770000
19
#2780000
09
#2790000
1(
0*
19
#2800000
09
#2810000
b1000000000000001110100100 $
b11100101000000100011111110010111 &
b10001010000000000000000000001010 4
b1000000000000001110101000 5
b1000000000000001110101000 7
19
#2820000
09
#2830000
b1000000000000001110101000 $
b11100010010000000011000000000100 %
b11100010010000000011000000000100 2
b11100010010000000011000000000100 3
b1000000000000001110101100 5
b1000000000000001110101100 7
19
#2840000
09
#2850000
b1000000000000001110101100 $
b11100011010100000000000000000011 %
b11100001101000001111000000001110 &
b11100011010100000000000000000011 2
b11100011010100000000000000000011 3
b11100010010000000011000000000100 4
b1000000000000001110110000 5
b1000000000000001110110000 7
19
#2860000
09
#2870000
b1000000000000001110110000 $
b11100010000000110010000011111111 %
b11101001001011010100000000110000 &
b11100010000000110010000011111111 2
b11100010000000110010000011111111 3
b11100011010100000000000000000011 4
b1000000000000001110110100 5
b1000000000000001110110100 7
19
#2880000
09
#2890000
b1000000000000001110110100 $
b10011010000000000000000000000101 %
b11100010000000010100000011111110 &
0(
1*
b10011010000000000000000000000101 2
b10011010000000000000000000000101 3
b11100010000000110010000011111111 4
b1000000000000001110111000 5
b1000000000000001110111000 7
19
#2900000
09
#2910000
b11100011111000000011101000001111 %
b11100011111000000011101000001111 2
b11100011111000000011101000001111 3
19
#2920000
09
#2930000
1(
0*
19
#2940000
09
#2950000
b1000000000000001110111000 $
b11100011111000000011101000001111 4
b1000000000000001110111100 5
b1000000000000001110111100 7
19
#2960000
09
#2970000
b1000000000000001110111100 $
b11100101000100110000111110001011 %
b11100011111000001110101000001111 &
b11100101000100110000111110001011 2
b11100101000100110000111110001011 3
b1000000000000001111000000 5
b1000000000000001111000000 7
19
#2980000
09
#2990000
b1000000000000001111000000 $
b11100001101000000010000110000010 %
b11100101000100100011111110010111 &
b11100001101000000010000110000010 2
b11100001101000000010000110000010 3
b11100101000100110000111110001011 4
b1000000000000001111000100 5
b1000000000000001111000100 7
19
#3000000
09
#3010000
b1000000000000001111000100 $
b11100001101000000000001000110000 %
b11100101000000100011111110010111 &
0(
1*
b11100001101000000000001000110000 2
b11100001101000000000001000110000 3
b11100001101000000010000110000010 4
b1000000000000001111001000 5
b1000000000000001111001000 7
19
#3020000
09
#3030000
b11100010000000000000000011111111 %
b11100010000000000000000011111111 2
b11100010000000000000000011111111 3
19
#3040000
09
#3050000
1(
0*
19
#3060000
09
#3070000
b1000000000000001111001000 $
b11100010000000000000000011111111 4
b1000000000000001111001100 5
b1000000000000001111001100 7
19
#3080000
09
#3090000
b1000000000000001111001100 $
b11100001101000001111000000001110 %
b11100001101000001111000000001110 &
b11100001101000001111000000001110 2
b11100001101000001111000000001110 3
b1000000000000001111010000 5
b1000000000000001111010000 7
19
#3100000
09
