wb_write_3.vcd
$comment
Copyright (C) 1991-2013 Altera Corporation
Your use of Altera Corporation's design tools, logic functions 
and other software and tools, and its AMPP partner logic 
functions, and any output files from any of the foregoing 
(including device programming or simulation files), and any 
associated documentation or information are expressly subject 
to the terms and conditions of the Altera Program License 
Subscription Agreement, Altera MegaCore Function License 
Agreement, or other applicable license agreement, including, 
without limitation, that your use is for the sole purpose of 
programming logic devices manufactured by Altera and sold by 
Altera or its authorized distributors.  Please refer to the 
applicable agreement for further details.
$end

$date 
  02/07/2016 21:55:46 
$end
$version 
 QUARTUS_VCD_EXPORT 1.0 
$end
$timescale
  1 ps
$end
$scope module STORM_TOP_INST $end
$var reg 1 ! WB_CYC_O $end
$var reg 1 " WB_ERR_I $end
$var reg 4 # WB_SEL_O[3:0] $end
$var reg 7 $ WB_TGC_O[6:0] $end
$var reg 32 % WB_ADR_O[31:0] $end
$var reg 32 & WB_DATA_O[31:0] $end
$var reg 32 ' WB_DATA_I[31:0] $end
$var reg 1 ( WB_WE_O $end
$var reg 1 ) WB_ACK_I $end
$var reg 1 * WB_HALT_I $end
$scope module BUS_UNIT_INST $end
$var reg 32 + DC_ADR_O[31:0] $end
$var reg 32 , DC_ADR_BUF[31:0] $end
$var reg 32 - DC_DATA_I[31:0] $end
$var reg 32 . DC_DATA_O[31:0] $end
$var reg 32 / WB_DATA_FF_NXT[31:0] $end
$var reg 32 0 WB_DATA_FF[31:0] $end
$var reg 1 1 \ARB_STATE.ASSIGN_D_PAGE  $end
$var reg 1 2 \ARB_STATE.DOWNLOAD_D_PAGE  $end
$var reg 1 3 \ARB_STATE.DOWNLOAD_I_PAGE  $end
$var reg 1 4 \ARB_STATE.END_TRANSFER  $end
$var reg 1 5 \ARB_STATE.IDLE  $end
$var reg 1 6 \ARB_STATE.IO_REQUEST  $end
$var reg 1 7 \ARB_STATE.UPLOAD_D_PAGE  $end
$var reg 32 8 BASE_BUF[31:0] $end
$var reg 1 9 DC_D_SEL_I $end
$upscope $end
$upscope $end
$scope module SYSCON_CLK $end
$var reg 1 : c0 $end
$upscope $end
$var reg 1 ; SDRAM_MEM_STB_I $end
$enddefinitions $end
#0
$dumpvars
X!
X"
bX #
bX $
bX %
bX &
bX '
X(
X)
X*
bX +
bX ,
bX -
bX .
bX /
bX 0
X1
X2
X3
X4
X5
X6
X7
bX 8
X9
0:
X;
$end
#10000
$comment Sample -32 (Start) $end
1!
0"
b1111 #
b11111 $
b1000000000000001101100000 %
b1101111011100100110110101011111 &
b11100011010100000000000000000011 '
0(
0)
1*
b1000000000000001101011100 +
b1000000000000001101011100 ,
b1110010011000010110110100101110 -
b11100001111000000011000000000011 .
b0 /
b1101111011100100110110101011111 0
01
12
03
04
05
06
07
b1000000000000001100000000 8
19
1:
1;
#20000
0:
#30000
b11100001111000000011000000000011 -
1:
#40000
0:
#50000
1:
#60000
0:
#70000
1:
#80000
0:
#90000
1:
#100000
0:
#110000
1:
#120000
0:
#130000
b11100001111000000011000000000011 '
1:
#140000
0:
#150000
1:
#160000
0:
#170000
1)
0*
b11100001111000000011000000000011 /
1:
#180000
0:
#190000
b1000000000000001101100100 %
b11100001111000000011000000000011 &
b11100000000000100010000000000011 '
b1000000000000001101100000 +
b1000000000000001101100000 ,
b11100001111000000011000000000011 0
1:
#200000
0:
#210000
b1000000000000001101101000 %
b11100001100000100010111000010001 '
b1000000000000001101100100 +
b1000000000000001101100100 ,
b1100010011010010110111000100111 -
b11100000000000100010000000000011 .
b1100010011010010110111000100111 /
1:
#220000
0:
#230000
b1000000000000001101101100 %
b1100010011010010110111000100111 &
b11101000101111011000000000010000 '
b1000000000000001101101000 +
b1000000000000001101101000 ,
b100000011010010110111000100000 -
b11100001100000100010111000010001 .
b100000011010010110111000100000 /
b1100010011010010110111000100111 0
1:
#240000
0:
#250000
b1000000000000001101110000 %
b100000011010010110111000100000 &
b1000000000000001101101100 +
b1000000000000001101101100 ,
b1100010011110010111010001100101 -
b11101000101111011000000000010000 .
b1100010011110010111010001100101 /
b100000011010010110111000100000 0
1:
#260000
0:
#270000
b1000000000000001101110100 %
b1100010011110010111010001100101 &
b11100011101000000011000011111111 '
b1000000000000001101110000 +
b1000000000000001101110000 ,
b101101011100110111010001110010 -
b101101011100110111010001110010 /
b1100010011110010111010001100101 0
1:
#280000
0:
#290000
b1000000000000001101111000 %
b101101011100110111010001110010 &
b11100001101000000011110000010011 '
b1000000000000001101110100 +
b1000000000000001101110100 ,
b1100101011000010110110100100000 -
b11100011101000000011000011111111 .
b1100101011000010110110100100000 /
b101101011100110111010001110010 0
1:
#300000
0:
#310000
b1000000000000001101111100 %
b1100101011000010110110100100000 &
b11100001101000000010000110000010 '
b1000000000000001101111000 +
b1000000000000001101111000 ,
b1101101011011110110010001100101 -
b11100001101000000011110000010011 .
b1101101011011110110010001100101 /
b1100101011000010110110100100000 0
1:
#320000
0:
#330000
b1101101011011110110010001100101 &
b11100001111000000011000000000011 '
0)
1*
b1000000000000001101111100 +
b1000000000000001101111100 ,
b101110001011100010111000000000 -
b11100001101000000010000110000010 .
b0 /
b1101101011011110110010001100101 0
1:
#340000
0:
#350000
b11100001101000000010000110000010 '
1)
0*
b100000010001010101001001010010 -
b100000010001010101001001010010 /
1:
#360000
0:
#370000
0!
b100000010001010101001001010010 &
b0 '
0)
b1000000000000001110000000 +
b1000000000000001110000000 ,
b11100011101000000010000000000001 -
b11100011101000000010000000000001 /
b100000010001010101001001010010 0
02
14
1:
0;
#380000
0:
#390000
b11100011101000000010000000000001 &
b11100000001000110011000000010010 -
b0 .
b0 /
b11100011101000000010000000000001 0
04
15
1:
#400000
0:
#410000
b0 &
b1000000000000001100000000 +
b1000000000000001100000000 ,
b11101010000000000000000000010010 -
b11101010000000000000000000010010 /
b0 0
11
05
1:
#420000
0:
#430000
b11100011101000000010000000000001 &
b1000000000000000000000000 +
b1000000000000000000000000 ,
b11100011101000000010000000000001 -
b11100011101000000010000000000001 /
b11101010000000000000000000010010 0
01
17
b1000000000000000000000000 8
1:
#440000
0:
#450000
1!
b1000000000000000000000000 %
b0 &
b11100001101000000010000110000010 '
1(
1*
b11101010000000000000000000010010 -
b0 /
b11100011101000000010000000000001 0
09
1:
1;
#460000
0:
#470000
b11101010000000000000000000010010 &
b11100001111000000011000000000011 '
1)
0*
b11101010000000000000000000010010 /
1:
#480000
0:
#490000
b11100000000000100010000000000011 '
b1000000000000000000000100 +
b1000000000000000000000100 ,
b11100001111000000011000000000011 .
b11101010000000000000000000010010 0
1:
#500000
0:
#510000
b1000000000000000000000100 %
b11101010000000000000000001100010 &
b1000000000000000000001000 +
b1000000000000000000001000 ,
b11101010000000000000000001100010 -
b11100000000000100010000000000011 .
b11101010000000000000000001100010 /
1:
#520000
0:
#530000
b1000000000000000000001000 %
b11101010000000000000000001010101 &
b11100001100000100010111000010001 '
b1000000000000000000001100 +
b1000000000000000000001100 ,
b11101010000000000000000001010101 -
b11101010000000000000000001010101 /
b11101010000000000000000001100010 0
1:
#540000
0:
#550000
b1000000000000000000001100 %
b11101010000000000000000001001000 &
b11101000101111011000000000010000 '
b1000000000000000000010000 +
b1000000000000000000010000 ,
b11101010000000000000000001001000 -
b11100001100000100010111000010001 .
b11101010000000000000000001001000 /
b11101010000000000000000001010101 0
1:
#560000
0:
#570000
b1000000000000000000010000 %
b11101010000000000000000001000111 &
b1000000000000000000010100 +
b1000000000000000000010100 ,
b11101010000000000000000001000111 -
b11101000101111011000000000010000 .
b11101010000000000000000001000111 /
b11101010000000000000000001001000 0
1:
#580000
0:
#590000
b1000000000000000000010100 %
b11100001101000000000000000000000 &
b11100011101000000011000011111111 '
b1000000000000000000011000 +
b1000000000000000000011000 ,
b11100001101000000000000000000000 -
b11100001101000000000000000000000 /
b11101010000000000000000001000111 0
1:
#600000
0:
#610000
b1000000000000000000011000 %
b11100101000111111111111111110000 &
b11100001101000000011110000010011 '
b1000000000000000000011100 +
b1000000000000000000011100 ,
b11100101000111111111111111110000 -
b11100011101000000011000011111111 .
b11100101000111111111111111110000 /
b11100001101000000000000000000000 0
1:
#620000
0:
#630000
b1000000000000000000011100 %
b11100001101000000010000110000010 '
b1000000000000000000100000 +
b1000000000000000000100000 ,
b11100001101000000011110000010011 .
b11100101000111111111111111110000 0
1:
#640000
0:
#650000
$comment Sample 0 (Trigger) $end
b1000000000000000000100000 %
b1000000000000000000111000 &
b11100001111000000011000000000011 '
b1000000000000000000100100 +
b1000000000000000000100100 ,
b1000000000000000000111000 -
b11100001101000000010000110000010 .
b1000000000000000000111000 /
1:
#660000
0:
#670000
b1000000000000000000100100 %
b1000000000000000000111100 &
b11100000000000100010000000000011 '
b1000000000000000000101000 +
b1000000000000000000101000 ,
b1000000000000000000111100 -
b11100001111000000011000000000011 .
b1000000000000000000111100 /
b1000000000000000000111000 0
1:
#680000
0:
#690000
b1000000000000000000101000 %
b1000000000000000001000000 &
b11100001100000100010111000010001 '
b1000000000000000000101100 +
b1000000000000000000101100 ,
b1000000000000000001000000 -
b11100000000000100010000000000011 .
b1000000000000000001000000 /
b1000000000000000000111100 0
1:
#700000
0:
#710000
b1000000000000000000101100 %
b0 &
b11101000101111011000000000010000 '
0)
1*
b1000000000000000000110000 +
b1000000000000000000110000 ,
b1000000000000000001000100 -
b11100001100000100010111000010001 .
b0 /
b1000000000000000001000000 0
1:
#720000
0:
#730000
b1000000000000000001001000 -
1:
#740000
0:
#750000
b1000000000000000001001000 &
1)
0*
b1000000000000000001001000 /
1:
#760000
0:
#770000
b1000000000000000000110000 %
b1000000000000000000110100 +
b1000000000000000000110100 ,
b11101000101111011000000000010000 .
b1000000000000000001001000 0
1:
#780000
0:
#790000
b1000000000000000000110100 %
b1000000000000000001001100 &
b11100011101000000011000011111111 '
b1000000000000000000111000 +
b1000000000000000000111000 ,
b1000000000000000001001100 -
b1000000000000000001001100 /
1:
#800000
0:
#810000
b1000000000000000000111000 %
b11101010111111111111111111111110 &
b11100001101000000011110000010011 '
b1000000000000000000111100 +
b1000000000000000000111100 ,
b11101010111111111111111111111110 -
b11100011101000000011000011111111 .
b11101010111111111111111111111110 /
b1000000000000000001001100 0
1:
#820000
0:
#830000
b1000000000000000000111100 %
b0 &
b11100001101000000010000110000010 '
0)
1*
b1000000000000000001000000 +
b1000000000000000001000000 ,
b11100001101000000011110000010011 .
b0 /
b11101010111111111111111111111110 0
1:
#840000
0:
#850000
1:
#860000
0:
#870000
b11101010111111111111111111111110 &
1)
0*
b11101010111111111111111111111110 /
1:
#880000
0:
#890000
b1000000000000000001000000 %
b11100001111000000011000000000011 '
b1000000000000000001000100 +
b1000000000000000001000100 ,
b11100001101000000010000110000010 .
1:
#900000
0:
#910000
b1000000000000000001000100 %
b11100000000000100010000000000011 '
b1000000000000000001001000 +
b1000000000000000001001000 ,
b11100001111000000011000000000011 .
1:
#920000
0:
#930000
b1000000000000000001001000 %
b11100001100000100010111000010001 '
b1000000000000000001001100 +
b1000000000000000001001100 ,
b11100000000000100010000000000011 .
1:
#940000
0:
#950000
b1000000000000000001001100 %
b0 &
b11101000101111011000000000010000 '
0)
1*
b1000000000000000001010000 +
b1000000000000000001010000 ,
b11100001100000100010111000010001 .
b0 /
1:
#960000
0:
#970000
b11100101100111110000001000101000 -
1:
#980000
0:
#990000
b11100101100111110000001000101000 &
1)
0*
b11100101100111110000001000101000 /
1:
#1000000
0:
#1010000
b1000000000000000001010000 %
b1000000000000000001010100 +
b1000000000000000001010100 ,
b11101000101111011000000000010000 .
b11100101100111110000001000101000 0
1:
#1020000
0:
#1030000
b1000000000000000001010100 %
b11100001000011110001000000000000 &
b11100011101000000011000011111111 '
b1000000000000000001011000 +
b1000000000000000001011000 ,
b11100001000011110001000000000000 -
b11100001000011110001000000000000 /
1:
#1040000
0:
#1050000
b1000000000000000001011000 %
b11100011110000010001000001111111 &
b11100001101000000011110000010011 '
b1000000000000000001011100 +
b1000000000000000001011100 ,
b11100011110000010001000001111111 -
b11100011101000000011000011111111 .
b11100011110000010001000001111111 /
b11100001000011110001000000000000 0
1:
#1060000
0:
#1070000
b1000000000000000001011100 %
b0 &
b11100001101000000010000110000010 '
0)
1*
b1000000000000000001100000 +
b1000000000000000001100000 ,
b11100011100000010001000011011011 -
b11100001101000000011110000010011 .
b0 /
b11100011110000010001000001111111 0
1:
#1080000
0:
#1090000
b11100001001010011111000000000001 -
1:
#1100000
0:
#1110000
b11100001001010011111000000000001 &
1)
0*
b11100001001010011111000000000001 /
1:
#1120000
0:
#1130000
b1000000000000000001100000 %
b11100001111000000011000000000011 '
b1000000000000000001100100 +
b1000000000000000001100100 ,
b11100001101000000010000110000010 .
b11100001001010011111000000000001 0
1:
#1140000
0:
#1150000
b1000000000000000001100100 %
b11100001101000001101000000000000 &
b11100000000000100010000000000011 '
b1000000000000000001101000 +
b1000000000000000001101000 ,
b11100001101000001101000000000000 -
b11100001111000000011000000000011 .
b11100001101000001101000000000000 /
1:
#1160000
0:
#1170000
b1000000000000000001101000 %
b11100010010000000000000000000100 &
b11100001100000100010111000010001 '
b1000000000000000001101100 +
b1000000000000000001101100 ,
b11100010010000000000000000000100 -
b11100000000000100010000000000011 .
b11100010010000000000000000000100 /
b11100001101000001101000000000000 0
1:
#1180000
0:
#1190000
b1000000000000000001101100 %
b0 &
b11101000101111011000000000010000 '
0)
1*
b1000000000000000001110000 +
b1000000000000000001110000 ,
b11100001000011110001000000000000 -
b11100001100000100010111000010001 .
b0 /
b11100010010000000000000000000100 0
1:
#1200000
0:
#1210000
b11100011110000010001000001111111 -
1:
#1220000
0:
#1230000
b11100011110000010001000001111111 &
1)
0*
b11100011110000010001000001111111 /
1:
#1240000
0:
#1250000
b1000000000000000001110000 %
b1000000000000000001110100 +
b1000000000000000001110100 ,
b11101000101111011000000000010000 .
b11100011110000010001000001111111 0
1:
#1260000
0:
#1270000
b1000000000000000001110100 %
b11100011100000010001000011010111 &
b11100011101000000011000011111111 '
b1000000000000000001111000 +
b1000000000000000001111000 ,
b11100011100000010001000011010111 -
b11100011100000010001000011010111 /
1:
#1280000
0:
#1290000
b1000000000000000001111000 %
b11100001001010011111000000000001 &
b11100001101000000011110000010011 '
b1000000000000000001111100 +
b1000000000000000001111100 ,
b11100001001010011111000000000001 -
b11100011101000000011000011111111 .
b11100001001010011111000000000001 /
b11100011100000010001000011010111 0
1:
#1300000
0:
#1310000
b1000000000000000001111100 %
b0 &
b11100001101000000010000110000010 '
0)
1*
b11100001101000001101000000000000 -
b11100001101000000011110000010011 .
b0 /
b11100001001010011111000000000001 0
1:
#1320000
0:
#1330000
1:
#1340000
0:
#1350000
b11100000001000110011000000010010 &
1)
0*
b11100000001000110011000000010010 -
b11100000001000110011000000010010 /
1:
#1360000
0:
#1370000
0!
b0 '
b11100001101000000010000110000010 .
b11100000001000110011000000010010 0
14
07
1:
0;
#1380000
0:
#1390000
0(
0)
b0 .
b0 /
04
15
1:
#1400000
0:
#1410000
b0 &
b1000000000000001100000000 +
b1000000000000001100000000 ,
b0 0
1:
#1420000
0:
#1430000
b11101010111111111111111111111110 -
1:
#1440000
0:
#1450000
b1000000000000101000000000 +
b1000000000000101000000000 ,
1:
#1460000
0:
#1470000
b11100001001010011111000000000001 -
1:
#1480000
0:
#1490000
b10000111100000000 +
b10000111100000000 ,
b1000000000000000000111000 -
1:
#1500000
0:
#1510000
b10001000010000000 +
b10001000010000000 ,
b1000000000000000001000100 -
1:
#1520000
0:
#1530000
b10000010100000000 +
b10000010100000000 ,
b11101010000000000000000001100010 -
1:
#1540000
0:
#1550000
b10000011110000000 +
b10000011110000000 ,
b11100001000011110001000000000000 -
1:
#1560000
0:
#1570000
b10000100000000000 +
b10000100000000000 ,
b11101010111111111111111111111110 -
1:
#1580000
0:
#1590000
b1000000000000101000000000 +
b1000000000000101000000000 ,
b11101010000000000000000001100010 -
1:
#1600000
0:
#1610000
b0 +
b0 ,
b11101010000000000000000000010010 -
1:
#1620000
0:
#1630000
b110000001100000000000011100011 -
1:
#1640000
0:
#1650000
b1111110000000 +
b1111110000000 ,
b11100001101000001101000000000000 -
1:
#1660000
0:
#1670000
b10000010100000000 +
b10000010100000000 ,
b110000001100000000000011100011 -
1:
#1680000
0:
#1690000
b1111110000000 +
b1111110000000 ,
b11100001101000001101000000000000 -
1:
#1700000
0:
#1710000
b10000011100000000 +
b10000011100000000 ,
b11100000001000110011000000010010 -
1:
#1720000
0:
#1730000
b1000000000000001100000000 +
b1000000000000001100000000 ,
b11100101000000010011111111111111 -
1:
#1740000
0:
#1750000
b11101010111111111111111111111110 -
1:
#1760000
0:
#1770000
b1000000000000101000000000 +
b1000000000000101000000000 ,
b1000000000000101001000000 -
1:
#1780000
0:
#1790000
b1111110000000 +
b1111110000000 ,
b11011110101011011011111011101111 -
1:
#1800000
0:
#1810000
b1000000000000101001000000 -
1:
#1820000
0:
#1830000
1:
#1840000
0:
#1850000
1:
#1860000
0:
#1870000
1:
#1880000
0:
#1890000
1:
#1900000
0:
#1910000
b1000000000000001100000000 -
1:
#1920000
0:
#1930000
b0 -
1:
#1940000
0:
#1950000
b10000111110001000 -
1:
#1960000
0:
#1970000
1:
#1980000
0:
#1990000
1:
#2000000
0:
#2010000
1:
#2020000
0:
#2030000
1:
#2040000
0:
#2050000
1:
#2060000
0:
#2070000
1:
#2080000
0:
#2090000
1:
#2100000
0:
#2110000
b11011110101011011011111011101111 -
1:
#2120000
0:
#2130000
b11101010000000000000000001100010 -
1:
#2140000
0:
#2150000
b0 +
b0 ,
b110000001100000000000011100011 -
1:
#2160000
0:
#2170000
b1111110000000 +
b1111110000000 ,
b11101010000000000000000000010010 -
1:
#2180000
0:
#2190000
b0 +
b0 ,
b11011110101011011011111011101111 -
1:
#2200000
0:
#2210000
b1111110000000 +
b1111110000000 ,
1:
#2220000
0:
#2230000
1:
#2240000
0:
#2250000
1:
#2260000
0:
#2270000
1:
#2280000
0:
#2290000
1:
#2300000
0:
#2310000
1:
#2320000
0:
#2330000
1:
#2340000
0:
#2350000
1:
#2360000
0:
#2370000
1:
#2380000
0:
#2390000
1:
#2400000
0:
#2410000
1:
#2420000
0:
#2430000
1:
#2440000
0:
#2450000
1:
#2460000
0:
#2470000
1:
#2480000
0:
#2490000
1:
#2500000
0:
#2510000
1:
#2520000
0:
#2530000
1:
#2540000
0:
#2550000
b11101010111111111111111111111110 -
1:
#2560000
0:
#2570000
b10000000110000000 +
b10000000110000000 ,
1:
#2580000
0:
#2590000
1:
#2600000
0:
#2610000
b110000001100000000000011100011 -
1:
#2620000
0:
#2630000
b1111110000000 +
b1111110000000 ,
b11100011110000010001000001111111 -
1:
#2640000
0:
#2650000
b10000000 +
b10000000 ,
b1000000000000000000111000 -
1:
#2660000
0:
#2670000
b10000010110000000 +
b10000010110000000 ,
b11101010000000000000000000010010 -
1:
#2680000
0:
#2690000
b0 +
b0 ,
b110000001100000000000011100011 -
1:
#2700000
0:
#2710000
b1111110000000 +
b1111110000000 ,
b11100001101000001101000000000000 -
1:
#2720000
0:
#2730000
b11111111111111110000111110000000 +
b11111111111111110000111110000000 ,
b11100101000111111111111111110000 -
1:
#2740000
0:
#2750000
b11111111111111111111000000000000 +
b11111111111111111111000000000000 ,
b11100011000000000010000000000001 -
b11100011000000000010000000000001 /
05
16
1:
#2760000
0:
#2770000
1!
b1011111 $
b11111111111111110000000000011100 %
b11100011000000000010000000000001 &
b11111111111111110000000000011100 +
b11111111111111110000000000011100 ,
b11100011000000000010000000000001 0
1:
#2780000
0:
#2790000
b1 '
1)
1:
#2800000
0:
#2810000
0)
b1 .
1:
#2820000
0:
#2830000
0!
b0 '
1)
b1000000000100101100000000 -
b1000000000100101100000000 /
14
06
1:
#2840000
0:
#2850000
b11111 $
b1000000000100101100000000 &
0)
b0 .
b0 /
b1000000000100101100000000 0
04
15
1:
#2860000
0:
#2870000
b0 &
b0 +
b0 ,
b0 0
1:
#2880000
0:
#2890000
b11101010000000000000000000010010 -
1:
#2900000
0:
#2910000
1:
#2920000
0:
#2930000
1:
#2940000
0:
#2950000
b11100001101000001101000000000000 -
1:
#2960000
0:
#2970000
b11111111111111111111111110000000 +
b11111111111111111111111110000000 ,
b11100101000111111111111111110000 -
1:
#2980000
0:
#2990000
b11111111111111110000000000000000 +
b11111111111111110000000000000000 ,
b11100001101000001101000000000000 -
1:
#3000000
0:
#3010000
b10000010100000000 +
b10000010100000000 ,
1:
#3020000
0:
#3030000
b11111111111111110000111110000000 +
b11111111111111110000111110000000 ,
b11100101000111111111111111110000 -
1:
#3040000
0:
#3050000
b11111111111111110000000000000000 +
b11111111111111110000000000000000 ,
1:
#3060000
0:
#3070000
b11101010000000000000000000010010 -
1:
#3080000
0:
#3090000
b0 +
b0 ,
b11100011110000010001000001111111 -
1:
#3100000
0:
#3110000
b10000010100000000 +
b10000010100000000 ,
b11100001101000001101000000000000 -
1:
#3120000
0:
#3130000
b11111111111111111111111110000000 +
b11111111111111111111111110000000 ,
1:
#3140000
0:
#3150000
b10000000 +
b10000000 ,
b1000000000000000000111000 -
1:
#3160000
0:
#3170000
b10000010110000000 +
b10000010110000000 ,
b11101010000000000000000000010010 -
1:
#3180000
0:
#3190000
b0 +
b0 ,
b110000001100000000000011100011 -
1:
#3200000
0:
#3210000
b1111110000000 +
b1111110000000 ,
b11100001101000001101000000000000 -
1:
#3220000
0:
#3230000
b10000000 +
b10000000 ,
b10100000001000000000000111101111 -
1:
#3240000
0:
#3250000
b1111110000000 +
b1111110000000 ,
b1000000000000000001001000 -
1:
#3260000
0:
#3270000
b10000010110000000 +
b10000010110000000 ,
b11101010000000000000000000010010 -
1:
#3280000
0:
#3290000
b0 +
b0 ,
b11100001001010011111000000000001 -
1:
#3300000
0:
#3310000
b10000010100000000 +
b10000010100000000 ,
b11011110101011011011111011101111 -
1:
#3320000
0:
#3330000
b1111110000000 +
b1111110000000 ,
1:
#3340000
0:
#3350000
1:
#3360000
0:
#3370000
1:
#3380000
0:
#3390000
b1000000000000000001000000 -
1:
#3400000
0:
#3410000
b10000000110000000 +
b10000000110000000 ,
b11101010111111111111111111111110 -
1:
#3420000
0:
#3430000
b11100001101000001101000000000000 -
1:
#3440000
0:
#3450000
b11111111111111111111111110000000 +
b11111111111111111111111110000000 ,
1:
#3460000
0:
#3470000
b10000000 +
b10000000 ,
b1000000000000000000111000 -
1:
#3480000
0:
#3490000
b10000010110000000 +
b10000010110000000 ,
b11101010000000000000000000010010 -
1:
#3500000
0:
#3510000
b0 +
b0 ,
b110000001100000000000011100011 -
1:
#3520000
0:
#3530000
b1111110000000 +
b1111110000000 ,
b11100001101000001101000000000000 -
1:
#3540000
0:
#3550000
b11111111111111110000111110000000 +
b11111111111111110000111110000000 ,
b11100101000111111111111111110000 -
1:
#3560000
0:
#3570000
b11111111111111110000000000000000 +
b11111111111111110000000000000000 ,
b11111111 -
b11111111 /
05
16
1:
#3580000
0:
#3590000
1!
b1011111 $
b11111111 &
b11111111111111110000000000011100 +
b11111111111111110000000000011100 ,
b11111111 0
1:
#3600000
0:
#3610000
b1 '
1)
1:
#3620000
0:
#3630000
0)
b1 .
1:
#3640000
0:
#3650000
0!
b0 '
1)
b1000000000100101100000000 -
b1000000000100101100000000 /
14
06
1:
#3660000
0:
#3670000
b11111 $
b1000000000100101100000000 &
0)
b0 .
b0 /
b1000000000100101100000000 0
04
15
1:
#3680000
0:
#3690000
b0 &
b0 +
b0 ,
b0 0
1:
#3700000
0:
#3710000
b11101010000000000000000000010010 -
1:
#3720000
0:
#3730000
1:
#3740000
0:
#3750000
1:
#3760000
0:
#3770000
b11100001101000001101000000000000 -
1:
#3780000
0:
#3790000
b11111111111111111111111110000000 +
b11111111111111111111111110000000 ,
b11100101000111111111111111110000 -
1:
#3800000
0:
#3810000
b11111111111111110000000000000000 +
b11111111111111110000000000000000 ,
b11100001101000001101000000000000 -
1:
#3820000
0:
#3830000
b10000010100000000 +
b10000010100000000 ,
1:
#3840000
0:
#3850000
b11111111111111110000111110000000 +
b11111111111111110000111110000000 ,
b11100101000111111111111111110000 -
1:
#3860000
0:
#3870000
b11111111111111110000000000000000 +
b11111111111111110000000000000000 ,
1:
#3880000
0:
#3890000
b11101010000000000000000000010010 -
1:
#3900000
0:
#3910000
b0 +
b0 ,
b11100011110000010001000001111111 -
1:
#3920000
0:
#3930000
b10000010100000000 +
b10000010100000000 ,
b11100001101000001101000000000000 -
1:
#3940000
0:
#3950000
b11111111111111111111111110000000 +
b11111111111111111111111110000000 ,
1:
#3960000
0:
#3970000
b10000000 +
b10000000 ,
b1000000000000000000111000 -
1:
#3980000
0:
#3990000
b10000010110000000 +
b10000010110000000 ,
b11101010000000000000000000010010 -
1:
#4000000
0:
#4010000
b0 +
b0 ,
b110000001100000000000011100011 -
1:
#4020000
0:
#4030000
b1111110000000 +
b1111110000000 ,
b11100001101000001101000000000000 -
1:
#4040000
0:
#4050000
b10000000 +
b10000000 ,
b10100000001000000000000111101111 -
1:
#4060000
0:
#4070000
b1111110000000 +
b1111110000000 ,
b1000000000000000001001000 -
1:
#4080000
0:
#4090000
b10000010110000000 +
b10000010110000000 ,
b11101010000000000000000000010010 -
1:
#4100000
0:
#4110000
b0 +
b0 ,
b11100001001010011111000000000001 -
1:
#4120000
0:
#4130000
b10000010100000000 +
b10000010100000000 ,
b11011110101011011011111011101111 -
1:
#4140000
0:
#4150000
b1111110000000 +
b1111110000000 ,
1:
#4160000
0:
#4170000
1:
#4180000
0:
#4190000
1:
#4200000
0:
#4210000
b1000000000000000001000000 -
1:
#4220000
0:
#4230000
b10000000110000000 +
b10000000110000000 ,
b11101010111111111111111111111110 -
1:
#4240000
0:
#4250000
b11100001101000001101000000000000 -
1:
#4260000
0:
#4270000
b11111111111111111111111110000000 +
b11111111111111111111111110000000 ,
1:
#4280000
0:
#4290000
b10000000 +
b10000000 ,
b1000000000000000000111000 -
1:
#4300000
0:
#4310000
b10000010110000000 +
b10000010110000000 ,
b11101010000000000000000000010010 -
1:
#4320000
0:
#4330000
b0 +
b0 ,
b110000001100000000000011100011 -
1:
#4340000
0:
#4350000
b1111110000000 +
b1111110000000 ,
b11100001101000001101000000000000 -
1:
#4360000
0:
#4370000
b11111111111111110000111110000000 +
b11111111111111110000111110000000 ,
b11100101000111111111111111110000 -
1:
#4380000
0:
#4390000
b11111111111111110000000000000000 +
b11111111111111110000000000000000 ,
b11111111 -
b11111111 /
05
16
1:
#4400000
0:
#4410000
1!
b1011111 $
b11111111 &
b11111111111111110000000000011100 +
b11111111111111110000000000011100 ,
b11111111 0
1:
#4420000
0:
#4430000
b1 '
1)
1:
#4440000
0:
#4450000
0)
b1 .
1:
#4460000
0:
#4470000
0!
b0 '
1)
b1000000000100101100000000 -
b1000000000100101100000000 /
14
06
1:
#4480000
0:
#4490000
b11111 $
b1000000000100101100000000 &
0)
b0 .
b0 /
b1000000000100101100000000 0
04
15
1:
#4500000
0:
#4510000
b0 &
b0 +
b0 ,
b0 0
1:
#4520000
0:
#4530000
b11101010000000000000000000010010 -
1:
#4540000
0:
#4550000
1:
#4560000
0:
#4570000
1:
#4580000
0:
#4590000
b11100001101000001101000000000000 -
1:
#4600000
0:
#4610000
b11111111111111111111111110000000 +
b11111111111111111111111110000000 ,
b11100101000111111111111111110000 -
1:
#4620000
0:
#4630000
b11111111111111110000000000000000 +
b11111111111111110000000000000000 ,
b11100001101000001101000000000000 -
1:
#4640000
0:
#4650000
b10000010100000000 +
b10000010100000000 ,
1:
#4660000
0:
#4670000
b11111111111111110000111110000000 +
b11111111111111110000111110000000 ,
b11100101000111111111111111110000 -
1:
#4680000
0:
#4690000
b11111111111111110000000000000000 +
b11111111111111110000000000000000 ,
1:
#4700000
0:
#4710000
b11101010000000000000000000010010 -
1:
#4720000
0:
#4730000
b0 +
b0 ,
b11100011110000010001000001111111 -
1:
#4740000
0:
#4750000
b10000010100000000 +
b10000010100000000 ,
b11100001101000001101000000000000 -
1:
#4760000
0:
#4770000
b11111111111111111111111110000000 +
b11111111111111111111111110000000 ,
1:
#4780000
0:
#4790000
b10000000 +
b10000000 ,
b1000000000000000000111000 -
1:
#4800000
0:
#4810000
b10000010110000000 +
b10000010110000000 ,
b11101010000000000000000000010010 -
1:
#4820000
0:
#4830000
b0 +
b0 ,
b110000001100000000000011100011 -
1:
#4840000
0:
#4850000
b1111110000000 +
b1111110000000 ,
b11100001101000001101000000000000 -
1:
#4860000
0:
#4870000
b10000000 +
b10000000 ,
b10100000001000000000000111101111 -
1:
#4880000
0:
#4890000
b1111110000000 +
b1111110000000 ,
b1000000000000000001001000 -
1:
#4900000
0:
#4910000
b10000010110000000 +
b10000010110000000 ,
b11101010000000000000000000010010 -
1:
#4920000
0:
#4930000
b0 +
b0 ,
b11100001001010011111000000000001 -
1:
#4940000
0:
#4950000
b10000010100000000 +
b10000010100000000 ,
b11011110101011011011111011101111 -
1:
#4960000
0:
#4970000
b1111110000000 +
b1111110000000 ,
1:
#4980000
0:
#4990000
1:
#5000000
0:
#5010000
1:
#5020000
0:
#5030000
b1000000000000000001000000 -
1:
#5040000
0:
#5050000
b10000000110000000 +
b10000000110000000 ,
b11101010111111111111111111111110 -
1:
#5060000
0:
#5070000
b11100001101000001101000000000000 -
1:
#5080000
0:
#5090000
b11111111111111111111111110000000 +
b11111111111111111111111110000000 ,
1:
#5100000
0:
#5110000
$comment Sample 223 (End) $end
b10000000 +
b10000000 ,
b1000000000000000000111000 -
1:
#5120000
0:
