wb_write_2.vcd
$comment
Copyright (C) 1991-2013 Altera Corporation
Your use of Altera Corporation's design tools, logic functions 
and other software and tools, and its AMPP partner logic 
functions, and any output files from any of the foregoing 
(including device programming or simulation files), and any 
associated documentation or information are expressly subject 
to the terms and conditions of the Altera Program License 
Subscription Agreement, Altera MegaCore Function License 
Agreement, or other applicable license agreement, including, 
without limitation, that your use is for the sole purpose of 
programming logic devices manufactured by Altera and sold by 
Altera or its authorized distributors.  Please refer to the 
applicable agreement for further details.
$end

$date 
  02/06/2016 22:17:54 
$end
$version 
 QUARTUS_VCD_EXPORT 1.0 
$end
$timescale
  1 ps
$end
$scope module STORM_TOP_INST $end
$var reg 1 ! WB_ERR_I $end
$var reg 4 " WB_SEL_O[3:0] $end
$var reg 7 # WB_TGC_O[6:0] $end
$var reg 32 $ WB_ADR_O[31:0] $end
$var reg 32 % WB_DATA_O[31:0] $end
$var reg 32 & WB_DATA_I[31:0] $end
$var reg 1 ' WB_WE_O $end
$var reg 1 ( WB_ACK_I $end
$var reg 1 ) WB_CYC_O $end
$var reg 1 * WB_HALT_I $end
$scope module BUS_UNIT_INST $end
$var reg 32 + DC_ADR_O[31:0] $end
$var reg 32 , WB_DATA_FF_NXT[31:0] $end
$var reg 32 - WB_DATA_FF[31:0] $end
$var reg 1 . \ARB_STATE.ASSIGN_D_PAGE  $end
$var reg 1 / \ARB_STATE.DOWNLOAD_D_PAGE  $end
$var reg 1 0 \ARB_STATE.DOWNLOAD_I_PAGE  $end
$var reg 1 1 \ARB_STATE.END_TRANSFER  $end
$var reg 1 2 \ARB_STATE.IDLE  $end
$var reg 1 3 \ARB_STATE.IO_REQUEST  $end
$var reg 1 4 \ARB_STATE.UPLOAD_D_PAGE  $end
$var reg 32 5 DC_DATA_I[31:0] $end
$var reg 32 6 BASE_BUF[31:0] $end
$var reg 32 7 DC_ADR_BUF[31:0] $end
$var reg 1 8 DC_D_SEL_I $end
$upscope $end
$upscope $end
$scope module SYSCON_CLK $end
$var reg 1 9 c0 $end
$upscope $end
$var reg 1 : SDRAM_MEM_STB_I $end
$enddefinitions $end
#0
$dumpvars
X!
bX "
bX #
bX $
bX %
bX &
X'
X(
X)
X*
bX +
bX ,
bX -
X.
X/
X0
X1
X2
X3
X4
bX 5
bX 6
bX 7
X8
09
X:
$end
#10000
$comment Sample -32 (Start) $end
0!
b1111 "
b11111 #
b1000000000000001011011100 $
b11100101000100010011111111111111 %
b11100001101000000010000110000010 &
1'
1(
1)
0*
b1000000000000001011100000 +
b11100101000100010011111111111111 ,
b11100001101000000010000000010010 -
0.
0/
00
01
02
03
14
b11100101000100010011111111111111 5
b1000000000000001010000000 6
b1000000000000001011100000 7
08
19
1:
#20000
09
#30000
b1000000000000001011100000 $
b11100001111000000011000000000011 &
b1000000000000001011100100 +
b11100101000100010011111111111111 -
b1000000000000001011100100 7
19
#40000
09
#50000
b1000000000000001011100100 $
b11100001111000000010000000000010 %
b11100000000000100010000000000011 &
b1000000000000001011101000 +
b11100001111000000010000000000010 ,
b11100001111000000010000000000010 5
b1000000000000001011101000 7
19
#60000
09
#70000
b1000000000000001011101000 $
b11100000000000110011000000000010 %
b11100001100000100010111000010001 &
b1000000000000001011101100 +
b11100000000000110011000000000010 ,
b11100001111000000010000000000010 -
b11100000000000110011000000000010 5
b1000000000000001011101100 7
19
#80000
09
#90000
b1000000000000001011101100 $
b0 %
b11101000101111011000000000010000 &
0(
1*
b1000000000000001011110000 +
b11100101000000010011111111111111 ,
b11100000000000110011000000000010 -
b11100101000000010011111111111111 5
b1000000000000001011110000 7
19
#100000
09
#110000
b11100001101000001111000000001110 ,
b11100001101000001111000000001110 5
19
#120000
09
#130000
b11100001101000001111000000001110 %
1(
0*
19
#140000
09
#150000
b1000000000000001011110000 $
b1000000000000001011110100 +
b11100001101000001111000000001110 -
b1000000000000001011110100 7
19
#160000
09
#170000
b1000000000000001011110100 $
b11100011111000000001101000001111 %
b11100011101000000011000011111111 &
b1000000000000001011111000 +
b11100011111000000001101000001111 ,
b11100011111000000001101000001111 5
b1000000000000001011111000 7
19
#180000
09
#190000
b1000000000000001011111000 $
b11100101000100010011111111111111 %
b11100001101000000011110000010011 &
b1000000000000001011111100 +
b11100101000100010011111111111111 ,
b11100011111000000001101000001111 -
b11100101000100010011111111111111 5
b1000000000000001011111100 7
19
#200000
09
#210000
b1000000000000001011111100 $
b0 %
b11100001101000000010000110000010 &
0(
1*
b11100010000000000000000011111111 ,
b11100101000100010011111111111111 -
b11100010000000000000000011111111 5
19
#220000
09
#230000
19
#240000
09
#250000
b11100001001010011111000000000001 %
1(
0*
b11100001001010011111000000000001 ,
b11100001001010011111000000000001 5
19
#260000
09
#270000
b0 &
0)
b11100001001010011111000000000001 -
11
04
19
0:
#280000
09
#290000
b0 %
0'
0(
b0 ,
01
12
b11100010000000000000000011111111 5
19
#300000
09
#310000
b1000000000000101000000000 +
b11100010000000000000000011111111 ,
b0 -
1.
02
b1000000000000101000000000 7
19
#320000
09
#330000
b11100010010000000000000000000100 ,
b11100010000000000000000011111111 -
b11100010010000000000000000000100 5
19
#340000
09
#350000
b11100010010000000000000000000100 -
19
#360000
09
#370000
19
#380000
09
#390000
19
#400000
09
#410000
18
19
#420000
09
#430000
b1000000000000000000000000 +
0.
14
b1000000000000000000000000 6
b1000000000000000000000000 7
19
#440000
09
#450000
b1000000000000000000000000 $
b11100001101000000010000110000010 &
1'
1)
1*
b11101010000000000000000000010010 ,
b11101010000000000000000000010010 5
08
19
1:
#460000
09
#470000
b11101010000000000000000000010010 %
b11100001111000000011000000000011 &
1(
0*
19
#480000
09
#490000
b11100000000000100010000000000011 &
b1000000000000000000000100 +
b11101010000000000000000000010010 -
b1000000000000000000000100 7
19
#500000
09
#510000
b1000000000000000000000100 $
b11101010000000000000000001100010 %
b1000000000000000000001000 +
b11101010000000000000000001100010 ,
b11101010000000000000000001100010 5
b1000000000000000000001000 7
19
#520000
09
#530000
b1000000000000000000001000 $
b11101010000000000000000001010101 %
b11100001100000100010111000010001 &
b1000000000000000000001100 +
b11101010000000000000000001010101 ,
b11101010000000000000000001100010 -
b11101010000000000000000001010101 5
b1000000000000000000001100 7
19
#540000
09
#550000
b1000000000000000000001100 $
b11101010000000000000000001001000 %
b11101000101111011000000000010000 &
b1000000000000000000010000 +
b11101010000000000000000001001000 ,
b11101010000000000000000001010101 -
b11101010000000000000000001001000 5
b1000000000000000000010000 7
19
#560000
09
#570000
b1000000000000000000010000 $
b11101010000000000000000001000111 %
b1000000000000000000010100 +
b11101010000000000000000001000111 ,
b11101010000000000000000001001000 -
b11101010000000000000000001000111 5
b1000000000000000000010100 7
19
#580000
09
#590000
b1000000000000000000010100 $
b11100001101000000000000000000000 %
b11100011101000000011000011111111 &
b1000000000000000000011000 +
b11100001101000000000000000000000 ,
b11101010000000000000000001000111 -
b11100001101000000000000000000000 5
b1000000000000000000011000 7
19
#600000
09
#610000
b1000000000000000000011000 $
b11100101000111111111111111110000 %
b11100001101000000011110000010011 &
b1000000000000000000011100 +
b11100101000111111111111111110000 ,
b11100001101000000000000000000000 -
b11100101000111111111111111110000 5
b1000000000000000000011100 7
19
#620000
09
#630000
b1000000000000000000011100 $
b11100001101000000010000110000010 &
b1000000000000000000100000 +
b11100101000111111111111111110000 -
b1000000000000000000100000 7
19
#640000
09
#650000
$comment Sample 0 (Trigger) $end
b1000000000000000000100000 $
b1000000000000000000111000 %
b11100001111000000011000000000011 &
b1000000000000000000100100 +
b1000000000000000000111000 ,
b1000000000000000000111000 5
b1000000000000000000100100 7
19
#660000
09
#670000
b1000000000000000000100100 $
b1000000000000000000111100 %
b11100000000000100010000000000011 &
b1000000000000000000101000 +
b1000000000000000000111100 ,
b1000000000000000000111000 -
b1000000000000000000111100 5
b1000000000000000000101000 7
19
#680000
09
#690000
b1000000000000000000101000 $
b1000000000000000001000000 %
b11100001100000100010111000010001 &
b1000000000000000000101100 +
b1000000000000000001000000 ,
b1000000000000000000111100 -
b1000000000000000001000000 5
b1000000000000000000101100 7
19
#700000
09
#710000
b1000000000000000000101100 $
b0 %
b11101000101111011000000000010000 &
0(
1*
b1000000000000000000110000 +
b1000000000000000001000100 ,
b1000000000000000001000000 -
b1000000000000000001000100 5
b1000000000000000000110000 7
19
#720000
09
#730000
b1000000000000000001001000 ,
b1000000000000000001001000 5
19
#740000
09
#750000
b1000000000000000001001000 %
1(
0*
19
#760000
09
#770000
b1000000000000000000110000 $
b1000000000000000000110100 +
b1000000000000000001001000 -
b1000000000000000000110100 7
19
#780000
09
#790000
b1000000000000000000110100 $
b1000000000000000001001100 %
b11100011101000000011000011111111 &
b1000000000000000000111000 +
b1000000000000000001001100 ,
b1000000000000000001001100 5
b1000000000000000000111000 7
19
#800000
09
#810000
b1000000000000000000111000 $
b11101010111111111111111111111110 %
b11100001101000000011110000010011 &
b1000000000000000000111100 +
b11101010111111111111111111111110 ,
b1000000000000000001001100 -
b11101010111111111111111111111110 5
b1000000000000000000111100 7
19
#820000
09
#830000
b1000000000000000000111100 $
b0 %
b11100001101000000010000110000010 &
0(
1*
b1000000000000000001000000 +
b11101010111111111111111111111110 -
b1000000000000000001000000 7
19
#840000
09
#850000
19
#860000
09
#870000
b11101010111111111111111111111110 %
1(
0*
19
#880000
09
#890000
b1000000000000000001000000 $
b11100001111000000011000000000011 &
b1000000000000000001000100 +
b1000000000000000001000100 7
19
#900000
09
#910000
b1000000000000000001000100 $
b11100000000000100010000000000011 &
b1000000000000000001001000 +
b1000000000000000001001000 7
19
#920000
09
#930000
b1000000000000000001001000 $
b11100001100000100010111000010001 &
b1000000000000000001001100 +
b1000000000000000001001100 7
19
#940000
09
#950000
b1000000000000000001001100 $
b0 %
b11101000101111011000000000010000 &
0(
1*
b1000000000000000001010000 +
b1000000000000000001010000 7
19
#960000
09
#970000
b11100101100111110000001000101000 ,
b11100101100111110000001000101000 5
19
#980000
09
#990000
b11100101100111110000001000101000 %
1(
0*
19
#1000000
09
#1010000
b1000000000000000001010000 $
b1000000000000000001010100 +
b11100101100111110000001000101000 -
b1000000000000000001010100 7
19
#1020000
09
#1030000
b1000000000000000001010100 $
b11100001000011110001000000000000 %
b11100011101000000011000011111111 &
b1000000000000000001011000 +
b11100001000011110001000000000000 ,
b11100001000011110001000000000000 5
b1000000000000000001011000 7
19
#1040000
09
#1050000
b1000000000000000001011000 $
b11100011110000010001000001111111 %
b11100001101000000011110000010011 &
b1000000000000000001011100 +
b11100011110000010001000001111111 ,
b11100001000011110001000000000000 -
b11100011110000010001000001111111 5
b1000000000000000001011100 7
19
#1060000
09
#1070000
b1000000000000000001011100 $
b0 %
b11100001101000000010000110000010 &
0(
1*
b1000000000000000001100000 +
b11100011100000010001000011011011 ,
b11100011110000010001000001111111 -
b11100011100000010001000011011011 5
b1000000000000000001100000 7
19
#1080000
09
#1090000
b11100001001010011111000000000001 ,
b11100001001010011111000000000001 5
19
#1100000
09
#1110000
b11100001001010011111000000000001 %
1(
0*
19
#1120000
09
#1130000
b1000000000000000001100000 $
b11100001111000000011000000000011 &
b1000000000000000001100100 +
b11100001001010011111000000000001 -
b1000000000000000001100100 7
19
#1140000
09
#1150000
b1000000000000000001100100 $
b11100001101000001101000000000000 %
b11100000000000100010000000000011 &
b1000000000000000001101000 +
b11100001101000001101000000000000 ,
b11100001101000001101000000000000 5
b1000000000000000001101000 7
19
#1160000
09
#1170000
b1000000000000000001101000 $
b11100010010000000000000000000100 %
b11100001100000100010111000010001 &
b1000000000000000001101100 +
b11100010010000000000000000000100 ,
b11100001101000001101000000000000 -
b11100010010000000000000000000100 5
b1000000000000000001101100 7
19
#1180000
09
#1190000
b1000000000000000001101100 $
b0 %
b11101000101111011000000000010000 &
0(
1*
b1000000000000000001110000 +
b11100001000011110001000000000000 ,
b11100010010000000000000000000100 -
b11100001000011110001000000000000 5
b1000000000000000001110000 7
19
#1200000
09
#1210000
b11100011110000010001000001111111 ,
b11100011110000010001000001111111 5
19
#1220000
09
#1230000
b11100011110000010001000001111111 %
1(
0*
19
#1240000
09
#1250000
b1000000000000000001110000 $
b1000000000000000001110100 +
b11100011110000010001000001111111 -
b1000000000000000001110100 7
19
#1260000
09
#1270000
b1000000000000000001110100 $
b11100011100000010001000011010111 %
b11100011101000000011000011111111 &
b1000000000000000001111000 +
b11100011100000010001000011010111 ,
b11100011100000010001000011010111 5
b1000000000000000001111000 7
19
#1280000
09
#1290000
b1000000000000000001111000 $
b11100001001010011111000000000001 %
b11100001101000000011110000010011 &
b1000000000000000001111100 +
b11100001001010011111000000000001 ,
b11100011100000010001000011010111 -
b11100001001010011111000000000001 5
b1000000000000000001111100 7
19
#1300000
09
#1310000
b1000000000000000001111100 $
b0 %
b11100001101000000010000110000010 &
0(
1*
b11100001101000001101000000000000 ,
b11100001001010011111000000000001 -
b11100001101000001101000000000000 5
19
#1320000
09
#1330000
19
#1340000
09
#1350000
b11100001001010011111000000000001 %
1(
0*
b11100001001010011111000000000001 ,
b11100001001010011111000000000001 5
19
#1360000
09
#1370000
b0 &
0)
11
04
19
0:
#1380000
09
#1390000
b0 %
0'
0(
b0 ,
01
12
19
#1400000
09
#1410000
b1000000000000101000000000 +
b0 -
b1000000000000101000000000 7
19
#1420000
09
#1430000
19
#1440000
09
#1450000
b11100001101000001110000000001111 5
19
#1460000
09
#1470000
b10000111100000000 +
b11100011110000010001000001111111 5
b10000111100000000 7
19
#1480000
09
#1490000
b10001000010000000 +
b11100001101000001101000000000000 5
b10001000010000000 7
19
#1500000
09
#1510000
b10000010100000000 +
b11100001000011110001000000000000 5
b10000010100000000 7
19
#1520000
09
#1530000
b10000011110000000 +
b11100011100000010001000011011111 5
b10000011110000000 7
19
#1540000
09
#1550000
b10000100000000000 +
b11100001001010011111000000000001 5
b10000100000000000 7
19
#1560000
09
#1570000
b1000000000000101000000000 +
b11100001000011110001000000000000 5
b1000000000000101000000000 7
19
#1580000
09
#1590000
b0 +
b11100010010000000000000000000100 5
b0 7
19
#1600000
09
#1610000
b1000110001101110000000011100011 5
19
#1620000
09
#1630000
b1111110000000 +
b11100001101000000001000000000000 5
b1111110000000 7
19
#1640000
09
#1650000
b10000010100000000 +
b1000110001101110000000011100011 5
b10000010100000000 7
19
#1660000
09
#1670000
b1111110000000 +
b11100001101000000001000000000000 5
b1111110000000 7
19
#1680000
09
#1690000
b10000011100000000 +
b11100000001000110011000000010010 5
b10000011100000000 7
19
#1700000
09
#1710000
b1000000000000001100000000 +
b11100101000000010011111111111111 5
b1000000000000001100000000 7
19
#1720000
09
#1730000
b11100001001010011111000000000001 5
19
#1740000
09
#1750000
b1000000000000101000000000 +
b1000000000000101001000000 5
b1000000000000101000000000 7
19
#1760000
09
#1770000
b1111110000000 +
b11011110101011011011111011101111 5
b1111110000000 7
19
#1780000
09
#1790000
b1000000000000101001000000 5
19
#1800000
09
#1810000
19
#1820000
09
#1830000
19
#1840000
09
#1850000
19
#1860000
09
#1870000
19
#1880000
09
#1890000
b1000000000000001100000000 5
19
#1900000
09
#1910000
b0 5
19
#1920000
09
#1930000
b10000111110001000 5
19
#1940000
09
#1950000
19
#1960000
09
#1970000
19
#1980000
09
#1990000
19
#2000000
09
#2010000
19
#2020000
09
#2030000
19
#2040000
09
#2050000
19
#2060000
09
#2070000
19
#2080000
09
#2090000
b11011110101011011011111011101111 5
19
#2100000
09
#2110000
b11100001000011110001000000000000 5
19
#2120000
09
#2130000
b0 +
b1000110001101110000000011100011 5
b0 7
19
#2140000
09
#2150000
b1111110000000 +
b11100010010000000000000000000100 5
b1111110000000 7
19
#2160000
09
#2170000
b0 +
b11011110101011011011111011101111 5
b0 7
19
#2180000
09
#2190000
b1111110000000 +
b1111110000000 7
19
#2200000
09
#2210000
19
#2220000
09
#2230000
19
#2240000
09
#2250000
19
#2260000
09
#2270000
19
#2280000
09
#2290000
19
#2300000
09
#2310000
19
#2320000
09
#2330000
19
#2340000
09
#2350000
19
#2360000
09
#2370000
19
#2380000
09
#2390000
19
#2400000
09
#2410000
19
#2420000
09
#2430000
19
#2440000
09
#2450000
19
#2460000
09
#2470000
19
#2480000
09
#2490000
19
#2500000
09
#2510000
19
#2520000
09
#2530000
b11100010010000000000000000000100 5
19
#2540000
09
#2550000
b10000000110000000 +
b10000000110000000 7
19
#2560000
09
#2570000
19
#2580000
09
#2590000
b1000110001101110000000011100011 5
19
#2600000
09
#2610000
b1111110000000 +
b11100001001010011111000000000001 5
b1111110000000 7
19
#2620000
09
#2630000
b10000000 +
b11100011110000010001000001111111 5
b10000000 7
19
#2640000
09
#2650000
b10000010110000000 +
b11100010010000000000000000000100 5
b10000010110000000 7
19
#2660000
09
#2670000
b0 +
b1000110001101110000000011100011 5
b0 7
19
#2680000
09
#2690000
b1111110000000 +
b11100001101000001111000000001010 5
b1111110000000 7
19
#2700000
09
#2710000
b11111111111111110000111110000000 +
b11100001000011110001000000000000 5
b11111111111111110000111110000000 7
19
#2720000
09
#2730000
b11111111111111111111000000000000 +
b11100011000000000010000000000001 ,
02
13
b11100011000000000010000000000001 5
b11111111111111111111000000000000 7
19
#2740000
09
#2750000
b1011111 #
b11111111111111110000000000011100 $
1)
b11111111111111110000000000011100 +
b11100011000000000010000000000001 -
b11111111111111110000000000011100 7
19
#2760000
09
#2770000
b11100011000000000010000000000001 %
b1 &
1(
19
#2780000
09
#2790000
b0 %
0(
19
#2800000
09
#2810000
b11100011000000000010000000000001 %
b0 &
1(
0)
b11100011101000000010000000000001 ,
11
03
b11100011101000000010000000000001 5
19
#2820000
09
#2830000
b11111 #
b0 %
0(
b0 ,
b11100011101000000010000000000001 -
01
12
19
#2840000
09
#2850000
b0 +
b0 -
b0 7
19
#2860000
09
#2870000
b11100010010000000000000000000100 5
19
#2880000
09
#2890000
19
#2900000
09
#2910000
19
#2920000
09
#2930000
b11100001101000001111000000001010 5
19
#2940000
09
#2950000
b11111111111111111111111110000000 +
b11100010010000000000000000000100 5
b11111111111111111111111110000000 7
19
#2960000
09
#2970000
b11111111111111110000000000000000 +
b11100001101000001111000000001010 5
b11111111111111110000000000000000 7
19
#2980000
09
#2990000
b10000010100000000 +
b10000010100000000 7
19
#3000000
09
#3010000
b11111111111111110000111110000000 +
b11100001000011110001000000000000 5
b11111111111111110000111110000000 7
19
#3020000
09
#3030000
b11111111111111110000000000000000 +
b11111111111111110000000000000000 7
19
#3040000
09
#3050000
b11100010010000000000000000000100 5
19
#3060000
09
#3070000
b0 +
b11100001101000000111000000000000 5
b0 7
19
#3080000
09
#3090000
b10000010100000000 +
b11100001101000001111000000001010 5
b10000010100000000 7
19
#3100000
09
#3110000
b11111111111111111111111110000000 +
b11111111111111111111111110000000 7
19
#3120000
09
#3130000
b10000000 +
b11100011110000010001000001111111 5
b10000000 7
19
#3140000
09
#3150000
b10000010110000000 +
b11100010010000000000000000000100 5
b10000010110000000 7
19
#3160000
09
#3170000
b0 +
b1000110001101110000000011100011 5
b0 7
19
#3180000
09
#3190000
b1111110000000 +
b11100001101000001111000000001010 5
b1111110000000 7
19
#3200000
09
#3210000
b10000000 +
b10100000001000000000000111101111 5
b10000000 7
19
#3220000
09
#3230000
b1111110000000 +
b11100010010000000000000010000000 5
b1111110000000 7
19
#3240000
09
#3250000
b10000010110000000 +
b11100010010000000000000000000100 5
b10000010110000000 7
19
#3260000
09
#3270000
b0 +
b11100001101000001110000000001111 5
b0 7
19
#3280000
09
#3290000
b10000010100000000 +
b11011110101011011011111011101111 5
b10000010100000000 7
19
#3300000
09
#3310000
b1111110000000 +
b1111110000000 7
19
#3320000
09
#3330000
19
#3340000
09
#3350000
19
#3360000
09
#3370000
b11100001001010011111000000000001 5
19
#3380000
09
#3390000
b10000000110000000 +
b11100010010000000000000000000100 5
b10000000110000000 7
19
#3400000
09
#3410000
b11100001101000001111000000001010 5
19
#3420000
09
#3430000
b11111111111111111111111110000000 +
b11111111111111111111111110000000 7
19
#3440000
09
#3450000
b10000000 +
b11100011110000010001000001111111 5
b10000000 7
19
#3460000
09
#3470000
b10000010110000000 +
b11100010010000000000000000000100 5
b10000010110000000 7
19
#3480000
09
#3490000
b0 +
b1000110001101110000000011100011 5
b0 7
19
#3500000
09
#3510000
b1111110000000 +
b11100001101000001111000000001010 5
b1111110000000 7
19
#3520000
09
#3530000
b11111111111111110000111110000000 +
b11100001000011110001000000000000 5
b11111111111111110000111110000000 7
19
#3540000
09
#3550000
b11111111111111110000000000000000 +
b11111111 ,
02
13
b11111111 5
b11111111111111110000000000000000 7
19
#3560000
09
#3570000
b1011111 #
1)
b11111111111111110000000000011100 +
b11111111 -
b11111111111111110000000000011100 7
19
#3580000
09
#3590000
b11111111 %
b1 &
1(
19
#3600000
09
#3610000
b0 %
0(
19
#3620000
09
#3630000
b11111111 %
b0 &
1(
0)
b11100011101000000010000000000001 ,
11
03
b11100011101000000010000000000001 5
19
#3640000
09
#3650000
b11111 #
b0 %
0(
b0 ,
b11100011101000000010000000000001 -
01
12
19
#3660000
09
#3670000
b0 +
b0 -
b0 7
19
#3680000
09
#3690000
b11100010010000000000000000000100 5
19
#3700000
09
#3710000
19
#3720000
09
#3730000
19
#3740000
09
#3750000
b11100001101000001111000000001010 5
19
#3760000
09
#3770000
b11111111111111111111111110000000 +
b11100010010000000000000000000100 5
b11111111111111111111111110000000 7
19
#3780000
09
#3790000
b11111111111111110000000000000000 +
b11100001101000001111000000001010 5
b11111111111111110000000000000000 7
19
#3800000
09
#3810000
b10000010100000000 +
b10000010100000000 7
19
#3820000
09
#3830000
b11111111111111110000111110000000 +
b11100001000011110001000000000000 5
b11111111111111110000111110000000 7
19
#3840000
09
#3850000
b11111111111111110000000000000000 +
b11111111111111110000000000000000 7
19
#3860000
09
#3870000
b11100010010000000000000000000100 5
19
#3880000
09
#3890000
b0 +
b11100001101000000111000000000000 5
b0 7
19
#3900000
09
#3910000
b10000010100000000 +
b11100001101000001111000000001010 5
b10000010100000000 7
19
#3920000
09
#3930000
b11111111111111111111111110000000 +
b11111111111111111111111110000000 7
19
#3940000
09
#3950000
b10000000 +
b11100011110000010001000001111111 5
b10000000 7
19
#3960000
09
#3970000
b10000010110000000 +
b11100010010000000000000000000100 5
b10000010110000000 7
19
#3980000
09
#3990000
b0 +
b1000110001101110000000011100011 5
b0 7
19
#4000000
09
#4010000
b1111110000000 +
b11100001101000001111000000001010 5
b1111110000000 7
19
#4020000
09
#4030000
b10000000 +
b10100000001000000000000111101111 5
b10000000 7
19
#4040000
09
#4050000
b1111110000000 +
b11100010010000000000000010000000 5
b1111110000000 7
19
#4060000
09
#4070000
b10000010110000000 +
b11100010010000000000000000000100 5
b10000010110000000 7
19
#4080000
09
#4090000
b0 +
b11100001101000001110000000001111 5
b0 7
19
#4100000
09
#4110000
b10000010100000000 +
b11011110101011011011111011101111 5
b10000010100000000 7
19
#4120000
09
#4130000
b1111110000000 +
b1111110000000 7
19
#4140000
09
#4150000
19
#4160000
09
#4170000
19
#4180000
09
#4190000
b11100001001010011111000000000001 5
19
#4200000
09
#4210000
b10000000110000000 +
b11100010010000000000000000000100 5
b10000000110000000 7
19
#4220000
09
#4230000
b11100001101000001111000000001010 5
19
#4240000
09
#4250000
b11111111111111111111111110000000 +
b11111111111111111111111110000000 7
19
#4260000
09
#4270000
b10000000 +
b11100011110000010001000001111111 5
b10000000 7
19
#4280000
09
#4290000
b10000010110000000 +
b11100010010000000000000000000100 5
b10000010110000000 7
19
#4300000
09
#4310000
b0 +
b1000110001101110000000011100011 5
b0 7
19
#4320000
09
#4330000
b1111110000000 +
b11100001101000001111000000001010 5
b1111110000000 7
19
#4340000
09
#4350000
b11111111111111110000111110000000 +
b11100001000011110001000000000000 5
b11111111111111110000111110000000 7
19
#4360000
09
#4370000
b11111111111111110000000000000000 +
b11111111 ,
02
13
b11111111 5
b11111111111111110000000000000000 7
19
#4380000
09
#4390000
b1011111 #
1)
b11111111111111110000000000011100 +
b11111111 -
b11111111111111110000000000011100 7
19
#4400000
09
#4410000
b11111111 %
b1 &
1(
19
#4420000
09
#4430000
b0 %
0(
19
#4440000
09
#4450000
b11111111 %
b0 &
1(
0)
b11100011101000000010000000000001 ,
11
03
b11100011101000000010000000000001 5
19
#4460000
09
#4470000
b11111 #
b0 %
0(
b0 ,
b11100011101000000010000000000001 -
01
12
19
#4480000
09
#4490000
b0 +
b0 -
b0 7
19
#4500000
09
#4510000
b11100010010000000000000000000100 5
19
#4520000
09
#4530000
19
#4540000
09
#4550000
19
#4560000
09
#4570000
b11100001101000001111000000001010 5
19
#4580000
09
#4590000
b11111111111111111111111110000000 +
b11100010010000000000000000000100 5
b11111111111111111111111110000000 7
19
#4600000
09
#4610000
b11111111111111110000000000000000 +
b11100001101000001111000000001010 5
b11111111111111110000000000000000 7
19
#4620000
09
#4630000
b10000010100000000 +
b10000010100000000 7
19
#4640000
09
#4650000
b11111111111111110000111110000000 +
b11100001000011110001000000000000 5
b11111111111111110000111110000000 7
19
#4660000
09
#4670000
b11111111111111110000000000000000 +
b11111111111111110000000000000000 7
19
#4680000
09
#4690000
b11100010010000000000000000000100 5
19
#4700000
09
#4710000
b0 +
b11100001101000000111000000000000 5
b0 7
19
#4720000
09
#4730000
b10000010100000000 +
b11100001101000001111000000001010 5
b10000010100000000 7
19
#4740000
09
#4750000
b11111111111111111111111110000000 +
b11111111111111111111111110000000 7
19
#4760000
09
#4770000
b10000000 +
b11100011110000010001000001111111 5
b10000000 7
19
#4780000
09
#4790000
b10000010110000000 +
b11100010010000000000000000000100 5
b10000010110000000 7
19
#4800000
09
#4810000
b0 +
b1000110001101110000000011100011 5
b0 7
19
#4820000
09
#4830000
b1111110000000 +
b11100001101000001111000000001010 5
b1111110000000 7
19
#4840000
09
#4850000
b10000000 +
b10100000001000000000000111101111 5
b10000000 7
19
#4860000
09
#4870000
b1111110000000 +
b11100010010000000000000010000000 5
b1111110000000 7
19
#4880000
09
#4890000
b10000010110000000 +
b11100010010000000000000000000100 5
b10000010110000000 7
19
#4900000
09
#4910000
b0 +
b11100001101000001110000000001111 5
b0 7
19
#4920000
09
#4930000
b10000010100000000 +
b11011110101011011011111011101111 5
b10000010100000000 7
19
#4940000
09
#4950000
b1111110000000 +
b1111110000000 7
19
#4960000
09
#4970000
19
#4980000
09
#4990000
19
#5000000
09
#5010000
b11100001001010011111000000000001 5
19
#5020000
09
#5030000
b10000000110000000 +
b11100010010000000000000000000100 5
b10000000110000000 7
19
#5040000
09
#5050000
b11100001101000001111000000001010 5
19
#5060000
09
#5070000
b11111111111111111111111110000000 +
b11111111111111111111111110000000 7
19
#5080000
09
#5090000
b10000000 +
b11100011110000010001000001111111 5
b10000000 7
19
#5100000
09
#5110000
$comment Sample 223 (End) $end
b10000010110000000 +
b11100010010000000000000000000100 5
b10000010110000000 7
19
#5120000
09
