wb_write_4.vcd
$comment
Copyright (C) 1991-2013 Altera Corporation
Your use of Altera Corporation's design tools, logic functions 
and other software and tools, and its AMPP partner logic 
functions, and any output files from any of the foregoing 
(including device programming or simulation files), and any 
associated documentation or information are expressly subject 
to the terms and conditions of the Altera Program License 
Subscription Agreement, Altera MegaCore Function License 
Agreement, or other applicable license agreement, including, 
without limitation, that your use is for the sole purpose of 
programming logic devices manufactured by Altera and sold by 
Altera or its authorized distributors.  Please refer to the 
applicable agreement for further details.
$end

$date 
  02/16/2016 23:13:56 
$end
$version 
 QUARTUS_VCD_EXPORT 1.0 
$end
$timescale
  1 ps
$end
$scope module STORM_TOP_INST $end
$var reg 1 ! WB_CYC_O $end
$var reg 32 " WB_ADR_O[31:0] $end
$var reg 32 # WB_DATA_I[31:0] $end
$var reg 32 $ WB_DATA_O[31:0] $end
$var reg 1 % WB_WE_O $end
$var reg 1 & WB_ACK_I $end
$var reg 1 ' WB_HALT_I $end
$scope module BUS_UNIT_INST $end
$var reg 32 ( DC_ADR_O[31:0] $end
$var reg 32 ) DC_ADR_BUF[31:0] $end
$var reg 32 * DC_DATA_I[31:0] $end
$var reg 32 + WB_DATA_FF_NXT[31:0] $end
$var reg 32 , WB_DATA_FF[31:0] $end
$var reg 1 - \ARB_STATE.ASSIGN_D_PAGE  $end
$var reg 1 . \ARB_STATE.UPLOAD_D_PAGE  $end
$var reg 32 / WB_DATA_BUF[31:0] $end
$var reg 32 0 WATCH_DC_ADR_BUF_NXT[31:0] $end
$var reg 32 1 BASE_BUF[31:0] $end
$upscope $end
$upscope $end
$scope module SYSCON_CLK $end
$var reg 1 2 c0 $end
$upscope $end
$var reg 1 3 SDRAM_MEM_STB_I $end
$enddefinitions $end
#0
$dumpvars
X!
bX "
bX #
bX $
X%
X&
X'
bX (
bX )
bX *
bX +
bX ,
X-
X.
bX /
bX 0
bX 1
02
X3
$end
#10000
$comment Sample -16 (Start) $end
1!
b1000000000000001101100000 "
b11100001111000000011000000000011 #
b1101111011100100110110101011111 $
0%
0&
1'
b1000000000000001101011100 (
b1000000000000001101011100 )
b11100101000101000010111110001011 *
b11100101000101000010111110001011 +
b1101111011100100110110101011111 ,
0-
0.
b11100101000101000010111110001011 /
b0 0
b1000000000000001100000000 1
12
13
#20000
02
#30000
12
#40000
02
#50000
1&
0'
12
#60000
02
#70000
b1000000000000001101100100 "
b11100000000000100010000000000011 #
b11100101000101000010111110001011 $
b1000000000000001101100000 (
b1000000000000001101100000 )
b11100101000101000010111110001011 ,
b11100001111000000011000000000011 /
12
#80000
02
#90000
b1000000000000001101101000 "
b11100101000001000010111110001011 #
b1000000000000001101100100 (
b1000000000000001101100100 )
b1100010011010010110111000100111 *
b1100010011010010110111000100111 +
b11100000000000100010000000000011 /
12
#100000
02
#110000
b1000000000000001101101100 "
b1100010011010010110111000100111 $
b1000000000000001101101000 (
b1000000000000001101101000 )
b100000011010010110111000100000 *
b100000011010010110111000100000 +
b1100010011010010110111000100111 ,
b11100101000001000010111110001011 /
12
#120000
02
#130000
b1000000000000001101110000 "
b11101000101111011000000000010000 #
b100000011010010110111000100000 $
b1000000000000001101101100 (
b1000000000000001101101100 )
b1100010011110010111010001100101 *
b1100010011110010111010001100101 +
b100000011010010110111000100000 ,
12
#140000
02
#150000
b1000000000000001101110100 "
b11100011101000000011000011111111 #
b1100010011110010111010001100101 $
b1000000000000001101110000 (
b1000000000000001101110000 )
b101101011100110111010001110010 *
b101101011100110111010001110010 +
b1100010011110010111010001100101 ,
b11101000101111011000000000010000 /
12
#160000
02
#170000
b1000000000000001101111000 "
b11100001111000001110000000000011 #
b101101011100110111010001110010 $
b1000000000000001101110100 (
b1000000000000001101110100 )
b1100101011000010110110100100000 *
b1100101011000010110110100100000 +
b101101011100110111010001110010 ,
b11100011101000000011000011111111 /
12
#180000
02
#190000
b1000000000000001101111100 "
b1100101011000010110110100100000 $
b1000000000000001101111000 (
b1000000000000001101111000 )
b1101101011011110110010001100101 *
b1101101011011110110010001100101 +
b1100101011000010110110100100000 ,
b11100001111000001110000000000011 /
12
#200000
02
#210000
b11100001111000000011000000000011 #
b1101101011011110110010001100101 $
0&
1'
b1000000000000001101111100 (
b1000000000000001101111100 )
b101110001011100010111000000000 *
b101110001011100010111000000000 +
b1101101011011110110010001100101 ,
12
#220000
02
#230000
b11100001111000001110000000000011 #
1&
0'
b100000010001010101001001010010 *
b100000010001010101001001010010 +
12
#240000
02
#250000
0!
b0 #
b100000010001010101001001010010 $
0&
b1000000000000001110000000 (
b1000000000000001110000000 )
b11100000001000110011000000010010 *
b11100000001000110011000000010010 +
b100000010001010101001001010010 ,
12
03
#260000
02
#270000
b11100000001000110011000000010010 $
b0 +
b11100000001000110011000000010010 ,
b0 /
12
#280000
02
#290000
b0 $
b1000000000000001100000000 (
b1000000000000001100000000 )
b11101010000000000000000000010010 *
b11101010000000000000000000010010 +
b0 ,
1-
12
#300000
02
#310000
b11100011101000000010000000000001 $
b1000000000000000000000000 (
b1000000000000000000000000 )
b11100011101000000010000000000001 *
b11100011101000000010000000000001 +
b11101010000000000000000000010010 ,
0-
1.
b1000000000000000000000000 1
12
#320000
02
#330000
$comment Sample 0 (Trigger) $end
1!
b1000000000000000000000000 "
b11100001111000001110000000000011 #
b11101010000000000000000000010010 $
1%
1'
b1000000000000000000000100 (
b1000000000000000000000100 )
b11101010000000000000000000010010 *
b11101010000000000000000000010010 +
b11100011101000000010000000000001 ,
12
13
#340000
02
#350000
b11100001111000000011000000000011 #
b11101010000000000000000001100010 $
1&
0'
b11101010000000000000000001100010 *
b11101010000000000000000001100010 +
12
#360000
02
#370000
b1000000000000000000000100 "
b11100000000000100010000000000011 #
b1000000000000000000001000 (
b1000000000000000000001000 )
b11101010000000000000000001100010 ,
b11100001111000000011000000000011 /
12
#380000
02
#390000
b1000000000000000000001000 "
b11100101000001000010111110001011 #
b11101010000000000000000001010101 $
b1000000000000000000001100 (
b1000000000000000000001100 )
b11101010000000000000000001010101 *
b11101010000000000000000001010101 +
b11100000000000100010000000000011 /
12
#400000
02
#410000
b1000000000000000000001100 "
b11101010000000000000000001001000 $
b1000000000000000000010000 (
b1000000000000000000010000 )
b11101010000000000000000001001000 *
b11101010000000000000000001001000 +
b11101010000000000000000001010101 ,
b11100101000001000010111110001011 /
12
#420000
02
#430000
b1000000000000000000010000 "
b11101000101111011000000000010000 #
b11101010000000000000000001000111 $
b1000000000000000000010100 (
b1000000000000000000010100 )
b11101010000000000000000001000111 *
b11101010000000000000000001000111 +
b11101010000000000000000001001000 ,
12
#440000
02
#450000
b1000000000000000000010100 "
b11100011101000000011000011111111 #
b11100001101000000000000000000000 $
b1000000000000000000011000 (
b1000000000000000000011000 )
b11100001101000000000000000000000 *
b11100001101000000000000000000000 +
b11101010000000000000000001000111 ,
b11101000101111011000000000010000 /
12
#460000
02
#470000
b1000000000000000000011000 "
b11100001111000001110000000000011 #
b11100101000111111111111111110000 $
b1000000000000000000011100 (
b1000000000000000000011100 )
b11100101000111111111111111110000 *
b11100101000111111111111111110000 +
b11100001101000000000000000000000 ,
b11100011101000000011000011111111 /
12
#480000
02
#490000
b1000000000000000000011100 "
b1000000000000000000100000 (
b1000000000000000000100000 )
b11100101000111111111111111110000 ,
b11100001111000001110000000000011 /
12
#500000
02
#510000
b1000000000000000000100000 "
b11100001111000000011000000000011 #
b1000000000000000000111000 $
b1000000000000000000100100 (
b1000000000000000000100100 )
b1000000000000000000111000 *
b1000000000000000000111000 +
12
#520000
02
#530000
b1000000000000000000100100 "
b11100000000000100010000000000011 #
b1000000000000000000111100 $
b1000000000000000000101000 (
b1000000000000000000101000 )
b1000000000000000000111100 *
b1000000000000000000111100 +
b1000000000000000000111000 ,
b11100001111000000011000000000011 /
12
#540000
02
#550000
b1000000000000000000101000 "
b11100101000001000010111110001011 #
b1000000000000000001000000 $
b1000000000000000000101100 (
b1000000000000000000101100 )
b1000000000000000001000000 *
b1000000000000000001000000 +
b1000000000000000000111100 ,
b11100000000000100010000000000011 /
12
#560000
02
#570000
b1000000000000000000101100 "
b1000000000000000001000100 $
b1000000000000000000110000 (
b1000000000000000000110000 )
b1000000000000000001000100 *
b1000000000000000001000100 +
b1000000000000000001000000 ,
b11100101000001000010111110001011 /
12
#580000
02
#590000
b1000000000000000000110000 "
b11101000101111011000000000010000 #
b1000000000000000001001000 $
0&
1'
b1000000000000000000110100 (
b1000000000000000000110100 )
b1000000000000000001001000 *
b1000000000000000001001000 +
b1000000000000000001000100 ,
12
#600000
02
#610000
b1000000000000000001001100 $
b1000000000000000001001100 *
b1000000000000000001001100 +
12
#620000
02
#630000
1&
0'
12
#640000
02
#650000
b1000000000000000000110100 "
b11100011101000000011000011111111 #
b1000000000000000000111000 (
b1000000000000000000111000 )
b1000000000000000001001100 ,
b11101000101111011000000000010000 /
12
#660000
02
#670000
b1000000000000000000111000 "
b11100001111000001110000000000011 #
b11101010111111111111111111111110 $
b1000000000000000000111100 (
b1000000000000000000111100 )
b11101010111111111111111111111110 *
b11101010111111111111111111111110 +
b11100011101000000011000011111111 /
12
#680000
02
#690000
b1000000000000000000111100 "
b1000000000000000001000000 (
b1000000000000000001000000 )
b11101010111111111111111111111110 ,
b11100001111000001110000000000011 /
12
#700000
02
#710000
b1000000000000000001000000 "
b11100001111000000011000000000011 #
0&
1'
b1000000000000000001000100 (
b1000000000000000001000100 )
12
#720000
02
#730000
12
#740000
02
#750000
1&
0'
12
#760000
02
#770000
b1000000000000000001000100 "
b11100000000000100010000000000011 #
b1000000000000000001001000 (
b1000000000000000001001000 )
b11100001111000000011000000000011 /
12
#780000
02
#790000
b1000000000000000001001000 "
b11100101000001000010111110001011 #
b1000000000000000001001100 (
b1000000000000000001001100 )
b11100000000000100010000000000011 /
12
#800000
02
#810000
b1000000000000000001001100 "
b1000000000000000001010000 (
b1000000000000000001010000 )
b11100101000001000010111110001011 /
12
#820000
02
#830000
b1000000000000000001010000 "
b11101000101111011000000000010000 #
b11100101100111110000001000101000 $
0&
1'
b1000000000000000001010100 (
b1000000000000000001010100 )
b11100101100111110000001000101000 *
b11100101100111110000001000101000 +
12
#840000
02
#850000
b11100001000011110001000000000000 $
b11100001000011110001000000000000 *
b11100001000011110001000000000000 +
12
#860000
02
#870000
1&
0'
12
#880000
02
#890000
b1000000000000000001010100 "
b11100011101000000011000011111111 #
b1000000000000000001011000 (
b1000000000000000001011000 )
b11100001000011110001000000000000 ,
b11101000101111011000000000010000 /
12
#900000
02
#910000
b1000000000000000001011000 "
b11100001111000001110000000000011 #
b11100011110000010001000001111111 $
b1000000000000000001011100 (
b1000000000000000001011100 )
b11100011110000010001000001111111 *
b11100011110000010001000001111111 +
b11100011101000000011000011111111 /
12
#920000
02
#930000
b1000000000000000001011100 "
b11100011100000010001000011011011 $
b1000000000000000001100000 (
b1000000000000000001100000 )
b11100011100000010001000011011011 *
b11100011100000010001000011011011 +
b11100011110000010001000001111111 ,
b11100001111000001110000000000011 /
12
#940000
02
#950000
b1000000000000000001100000 "
b11100001111000000011000000000011 #
b11100001001010011111000000000001 $
0&
1'
b1000000000000000001100100 (
b1000000000000000001100100 )
b11100001001010011111000000000001 *
b11100001001010011111000000000001 +
b11100011100000010001000011011011 ,
12
#960000
02
#970000
b11100001101000001101000000000000 $
b11100001101000001101000000000000 *
b11100001101000001101000000000000 +
12
#980000
02
#990000
1&
0'
12
#1000000
02
#1010000
b1000000000000000001100100 "
b11100000000000100010000000000011 #
b1000000000000000001101000 (
b1000000000000000001101000 )
b11100001101000001101000000000000 ,
b11100001111000000011000000000011 /
12
#1020000
02
#1030000
b1000000000000000001101000 "
b11100101000001000010111110001011 #
b11100010010000000000000000000100 $
b1000000000000000001101100 (
b1000000000000000001101100 )
b11100010010000000000000000000100 *
b11100010010000000000000000000100 +
b11100000000000100010000000000011 /
12
#1040000
02
#1050000
b1000000000000000001101100 "
b11100001000011110001000000000000 $
b1000000000000000001110000 (
b1000000000000000001110000 )
b11100001000011110001000000000000 *
b11100001000011110001000000000000 +
b11100010010000000000000000000100 ,
b11100101000001000010111110001011 /
12
#1060000
02
#1070000
b1000000000000000001110000 "
b11101000101111011000000000010000 #
b11100011110000010001000001111111 $
0&
1'
b1000000000000000001110100 (
b1000000000000000001110100 )
b11100011110000010001000001111111 *
b11100011110000010001000001111111 +
b11100001000011110001000000000000 ,
12
#1080000
02
#1090000
b11100011100000010001000011010111 $
b11100011100000010001000011010111 *
b11100011100000010001000011010111 +
12
#1100000
02
#1110000
1&
0'
12
#1120000
02
#1130000
b1000000000000000001110100 "
b11100011101000000011000011111111 #
b1000000000000000001111000 (
b1000000000000000001111000 )
b11100011100000010001000011010111 ,
b11101000101111011000000000010000 /
12
#1140000
02
#1150000
b1000000000000000001111000 "
b11100001111000001110000000000011 #
b11100001001010011111000000000001 $
b1000000000000000001111100 (
b1000000000000000001111100 )
b11100001001010011111000000000001 *
b11100001001010011111000000000001 +
b11100011101000000011000011111111 /
12
#1160000
02
#1170000
b1000000000000000001111100 "
b11100001101000001101000000000000 $
b11100001101000001101000000000000 *
b11100001101000001101000000000000 +
b11100001001010011111000000000001 ,
b11100001111000001110000000000011 /
12
#1180000
02
#1190000
b11100001111000000011000000000011 #
0&
1'
b11100001101000001101000000000000 ,
12
#1200000
02
#1210000
b11100001111000001110000000000011 #
12
#1220000
02
#1230000
b11100000001000110011000000010010 $
1&
0'
b11100000001000110011000000010010 *
b11100000001000110011000000010010 +
12
#1240000
02
#1250000
0!
b0 #
b11100000001000110011000000010010 ,
0.
12
03
#1260000
02
#1270000
0%
0&
b0 +
b0 /
12
#1280000
02
#1290000
b0 $
b1000000000000001100000000 (
b1000000000000001100000000 )
b0 ,
12
#1300000
02
#1310000
b11101010111111111111111111111110 *
12
#1320000
02
#1330000
b1000000000000101000000000 (
b1000000000000101000000000 )
12
#1340000
02
#1350000
b11100001001010011111000000000001 *
12
#1360000
02
#1370000
b10000111100000000 (
b10000111100000000 )
b1000000000000000000111000 *
12
#1380000
02
#1390000
b10001000010000000 (
b10001000010000000 )
b1000000000000000001000100 *
12
#1400000
02
#1410000
b10000010100000000 (
b10000010100000000 )
b11101010000000000000000001100010 *
12
#1420000
02
#1430000
b10000011110000000 (
b10000011110000000 )
b11100001000011110001000000000000 *
12
#1440000
02
#1450000
b10000100000000000 (
b10000100000000000 )
b11101010111111111111111111111110 *
12
#1460000
02
#1470000
b1000000000000101000000000 (
b1000000000000101000000000 )
b11101010000000000000000001100010 *
12
#1480000
02
#1490000
b0 (
b0 )
b11101010000000000000000000010010 *
12
#1500000
02
#1510000
b110000001100000000000011100011 *
12
#1520000
02
#1530000
b1111110000000 (
b1111110000000 )
b11100001101000001101000000000000 *
12
#1540000
02
#1550000
b10000010100000000 (
b10000010100000000 )
b110000001100000000000011100011 *
12
#1560000
02
#1570000
b1111110000000 (
b1111110000000 )
b11100001101000001101000000000000 *
12
#1580000
02
#1590000
b10000011100000000 (
b10000011100000000 )
b11100000001000110011000000010010 *
12
#1600000
02
#1610000
b1000000000000001100000000 (
b1000000000000001100000000 )
b11100101000000010011111111111111 *
12
#1620000
02
#1630000
b11101010111111111111111111111110 *
12
#1640000
02
#1650000
b1000000000000101000000000 (
b1000000000000101000000000 )
b1000000000000101001000000 *
12
#1660000
02
#1670000
b1111110000000 (
b1111110000000 )
b11011110101011011011111011101111 *
12
#1680000
02
#1690000
b1000000000000101001000000 *
12
#1700000
02
#1710000
12
#1720000
02
#1730000
12
#1740000
02
#1750000
12
#1760000
02
#1770000
12
#1780000
02
#1790000
b1000000000000001100000000 *
12
#1800000
02
#1810000
b0 *
12
#1820000
02
#1830000
b10000111110001000 *
12
#1840000
02
#1850000
12
#1860000
02
#1870000
12
#1880000
02
#1890000
12
#1900000
02
#1910000
12
#1920000
02
#1930000
12
#1940000
02
#1950000
12
#1960000
02
#1970000
12
#1980000
02
#1990000
b11011110101011011011111011101111 *
12
#2000000
02
#2010000
b11101010000000000000000001100010 *
12
#2020000
02
#2030000
b0 (
b0 )
b110000001100000000000011100011 *
12
#2040000
02
#2050000
b1111110000000 (
b1111110000000 )
b11101010000000000000000000010010 *
12
#2060000
02
#2070000
b0 (
b0 )
b11011110101011011011111011101111 *
12
#2080000
02
#2090000
b1111110000000 (
b1111110000000 )
12
#2100000
02
#2110000
12
#2120000
02
#2130000
12
#2140000
02
#2150000
12
#2160000
02
#2170000
12
#2180000
02
#2190000
12
#2200000
02
#2210000
12
#2220000
02
#2230000
12
#2240000
02
#2250000
12
#2260000
02
#2270000
12
#2280000
02
#2290000
12
#2300000
02
#2310000
12
#2320000
02
#2330000
12
#2340000
02
#2350000
12
#2360000
02
#2370000
12
#2380000
02
#2390000
12
#2400000
02
#2410000
12
#2420000
02
#2430000
b11101010111111111111111111111110 *
12
#2440000
02
#2450000
b10000000110000000 (
b10000000110000000 )
12
#2460000
02
#2470000
12
#2480000
02
#2490000
b110000001100000000000011100011 *
12
#2500000
02
#2510000
b1111110000000 (
b1111110000000 )
b11100011110000010001000001111111 *
12
#2520000
02
#2530000
b10000000 (
b10000000 )
b1000000000000000000111000 *
12
#2540000
02
#2550000
$comment Sample 111 (End) $end
b10000010110000000 (
b10000010110000000 )
b11101010000000000000000000010010 *
12
#2560000
02
