wbsdrctrl-dc_fifo-wr2.vcd
$comment
Copyright (C) 1991-2013 Altera Corporation
Your use of Altera Corporation's design tools, logic functions 
and other software and tools, and its AMPP partner logic 
functions, and any output files from any of the foregoing 
(including device programming or simulation files), and any 
associated documentation or information are expressly subject 
to the terms and conditions of the Altera Program License 
Subscription Agreement, Altera MegaCore Function License 
Agreement, or other applicable license agreement, including, 
without limitation, that your use is for the sole purpose of 
programming logic devices manufactured by Altera and sold by 
Altera or its authorized distributors.  Please refer to the 
applicable agreement for further details.
$end

$date 
  02/24/2016 23:44:42 
$end
$version 
 QUARTUS_VCD_EXPORT 1.0 
$end
$timescale
  1 ps
$end
$scope module STORM_TOP_INST $end
$var reg 32 ! WB_ADR_O[31:0] $end
$var reg 32 " WB_DATA_I[31:0] $end
$var reg 32 # WB_DATA_O[31:0] $end
$upscope $end
$scope module SDRAM_CTRL_0 $end
$var reg 1 $ sdram_clk $end
$var reg 1 % wb_we_i[0] $end
$scope module sdram_ctrl $end
$var reg 1 & \state.WRITE  $end
$var reg 1 ' \state.REF  $end
$var reg 1 ( \state.READ  $end
$var reg 1 ) \state.PRE  $end
$var reg 1 * \state.IDLE  $end
$var reg 1 + \state.ACTIVATE  $end
$upscope $end
$scope module wb_port_arbiter $end
$scope module wbports[0].wb_port $end
$var reg 1 , \wb_state.IDLE  $end
$var reg 1 - \wb_state.READ  $end
$var reg 1 . \wb_state.REFILL  $end
$var reg 1 / \wb_state.WRITE  $end
$scope module wrfifo $end
$var reg 1 0 rd_en_i $end
$var reg 1 1 rd_rst_i $end
$var reg 1 2 wr_data_i[71] $end
$var reg 1 3 wr_data_i[70] $end
$var reg 1 4 wr_data_i[69] $end
$var reg 1 5 wr_data_i[68] $end
$var reg 1 6 wr_data_i[67] $end
$var reg 1 7 wr_data_i[66] $end
$var reg 1 8 wr_data_i[65] $end
$var reg 1 9 wr_data_i[64] $end
$var reg 1 : wr_data_i[63] $end
$var reg 1 ; wr_data_i[62] $end
$var reg 1 < wr_data_i[61] $end
$var reg 1 = wr_data_i[60] $end
$var reg 1 > wr_data_i[59] $end
$var reg 1 ? wr_data_i[58] $end
$var reg 1 @ wr_data_i[57] $end
$var reg 1 A wr_data_i[56] $end
$var reg 1 B wr_data_i[55] $end
$var reg 1 C wr_data_i[54] $end
$var reg 1 D wr_data_i[53] $end
$var reg 1 E wr_data_i[52] $end
$var reg 1 F wr_data_i[51] $end
$var reg 1 G wr_data_i[50] $end
$var reg 1 H wr_data_i[49] $end
$var reg 1 I wr_data_i[48] $end
$var reg 1 J wr_data_i[47] $end
$var reg 1 K wr_data_i[46] $end
$var reg 1 L wr_data_i[45] $end
$var reg 1 M wr_data_i[44] $end
$var reg 1 N wr_data_i[43] $end
$var reg 1 O wr_data_i[42] $end
$var reg 1 P wr_data_i[41] $end
$var reg 1 Q wr_data_i[40] $end
$var reg 1 R wr_data_i[39] $end
$var reg 1 S wr_data_i[38] $end
$var reg 1 T wr_data_i[37] $end
$var reg 1 U wr_data_i[36] $end
$var reg 1 V wr_data_i[35] $end
$var reg 1 W wr_data_i[34] $end
$var reg 1 X wr_data_i[33] $end
$var reg 1 Y wr_data_i[32] $end
$var reg 1 Z wr_data_i[31] $end
$var reg 1 [ wr_data_i[30] $end
$var reg 1 \ wr_data_i[29] $end
$var reg 1 ] wr_data_i[28] $end
$var reg 1 ^ wr_data_i[27] $end
$var reg 1 _ wr_data_i[26] $end
$var reg 1 ` wr_data_i[25] $end
$var reg 1 a wr_data_i[24] $end
$var reg 1 b wr_data_i[23] $end
$var reg 1 c wr_data_i[22] $end
$var reg 1 d wr_data_i[21] $end
$var reg 1 e wr_data_i[20] $end
$var reg 1 f wr_data_i[19] $end
$var reg 1 g wr_data_i[18] $end
$var reg 1 h wr_data_i[17] $end
$var reg 1 i wr_data_i[16] $end
$var reg 1 j wr_data_i[15] $end
$var reg 1 k wr_data_i[14] $end
$var reg 1 l wr_data_i[13] $end
$var reg 1 m wr_data_i[12] $end
$var reg 1 n wr_data_i[11] $end
$var reg 1 o wr_data_i[10] $end
$var reg 1 p wr_data_i[9] $end
$var reg 1 q wr_data_i[8] $end
$var reg 1 r wr_data_i[7] $end
$var reg 1 s wr_data_i[6] $end
$var reg 1 t wr_data_i[5] $end
$var reg 1 u wr_data_i[4] $end
$var reg 1 v wr_data_i[3] $end
$var reg 1 w wr_data_i[2] $end
$var reg 1 x wr_data_i[1] $end
$var reg 1 y wr_data_i[0] $end
$var reg 1 z wr_rst_i $end
$var reg 1 { wr_en_i $end
$upscope $end
$upscope $end
$upscope $end
$upscope $end
$var reg 1 | CORE_WB_ACK_I $end
$var reg 1 } SDRAM_MEM_STB_I $end
$enddefinitions $end
#0
$dumpvars
bX !
bX "
bX #
0$
X%
X&
X'
X(
X)
X*
X+
X,
X-
X.
X/
X0
X1
X2
X3
X4
X5
X6
X7
X8
X9
X:
X;
X<
X=
X>
X?
X@
XA
XB
XC
XD
XE
XF
XG
XH
XI
XJ
XK
XL
XM
XN
XO
XP
XQ
XR
XS
XT
XU
XV
XW
XX
XY
XZ
X[
X\
X]
X^
X_
X`
Xa
Xb
Xc
Xd
Xe
Xf
Xg
Xh
Xi
Xj
Xk
Xl
Xm
Xn
Xo
Xp
Xq
Xr
Xs
Xt
Xu
Xv
Xw
Xx
Xy
Xz
X{
X|
X}
$end
#5000
$comment Sample -8 (Start) $end
b1000000000000001101111100 !
b0 "
b100000010001010101001001010010 #
1$
0%
0&
0'
0(
0)
1*
0+
1,
0-
0.
0/
00
01
02
03
04
05
06
07
08
09
0:
0;
0<
0=
0>
1?
0@
0A
0B
0C
0D
0E
0F
0G
0H
0I
0J
0K
0L
0M
1N
1O
0P
1Q
1R
1S
1T
1U
0V
0W
1X
0Y
0Z
0[
0\
0]
0^
1_
0`
0a
0b
1c
0d
1e
0f
1g
0h
1i
0j
0k
1l
0m
0n
1o
0p
1q
0r
0s
1t
0u
1v
1w
1x
1y
0z
0{
0|
0}
#10000
0$
#15000
1$
#20000
0$
#25000
b0 #
1$
0X
0_
0c
0e
0g
0i
0l
0o
0q
0t
#30000
0$
#35000
1$
#40000
0$
#45000
1$
#50000
0$
#55000
1$
#60000
0$
#65000
b11100011101000000010000000000001 #
1$
1V
1W
1X
1\
1]
1^
1`
1h
1u
#70000
0$
#75000
1$
#80000
0$
#85000
$comment Sample 0 (Trigger) $end
b1000000000000000000000000 !
b10100001111000001110000000000011 "
b11101010000000000000000000010010 #
1$
1%
0N
0O
0Q
0R
0S
0T
0U
1Z
0]
0^
0`
0h
1q
1t
0u
1}
#90000
0$
#95000
1$
#100000
0$
#105000
b1000000000000000000000100 !
b10100001111000000011000000000011 "
b11101010000000000000000001100010 #
1$
0,
1/
1U
1o
1p
0q
1{
1|
#110000
0$
#115000
1$
#120000
0$
#125000
b10100001100000100010111000010001 "
1$
1,
0/
0{
0|
#130000
0$
#135000
1$
#140000
0$
#145000
b1000000000000000000001000 !
b10100000000000100010000000000011 "
b11101010000000000000000001010101 #
1$
0,
1/
1T
0U
0p
1q
1s
0t
1u
1{
1|
#150000
0$
#155000
1$
10
#160000
0$
#165000
b10100101000001000010111110001011 "
1$
1,
0/
00
0{
0|
#170000
0$
#175000
1$
1&
0*
#180000
0$
#185000
b1000000000000000000001100 !
b10100001100000100010111000010001 "
b11101010000000000000000001001000 #
1$
0,
1/
1U
0q
1r
0s
0u
1{
1|
#190000
0$
#195000
1$
0&
1*
10
#200000
0$
#205000
b11101000101111011000000000010000 "
1$
1,
0/
00
0{
0|
#210000
0$
#215000
1$
1&
0*
#220000
0$
#225000
b1000000000000000000010000 !
b10100101000001000010111110001011 "
b11101010000000000000000001000111 #
1$
0,
1/
1S
0T
0U
0r
1s
1t
1u
1{
1|
#230000
0$
#235000
1$
0&
1*
10
#240000
0$
#245000
b10100011101000000011000011111111 "
1$
1,
0/
00
0{
0|
#250000
0$
#255000
1$
1&
0*
#260000
0$
#265000
b1000000000000000000010100 !
b11101000101111011000000000010000 "
b11100001101000000000000000000000 #
1$
0,
1/
1U
0Z
0\
1]
1^
1`
0o
0s
0t
0u
1{
1|
#270000
0$
#275000
1$
0&
1*
10
#280000
0$
#285000
b10100001101000000011110000010011 "
1$
1,
0/
00
0{
0|
#290000
0$
#295000
1$
1&
0*
#300000
0$
#305000
b1000000000000000000011000 !
b10100011101000000011000011111111 "
b11100101000111111111111111110000 #
1$
0,
1/
1T
0U
1[
0^
0`
1a
1b
1c
1d
1e
1f
1g
1h
1i
1j
1k
1l
1m
1n
1o
1p
1q
1{
1|
#310000
0$
#315000
1$
0&
1*
10
#320000
0$
#325000
b10100001111000001110000000000011 "
1$
1,
0/
00
0{
0|
#330000
0$
#335000
1$
1&
0*
#340000
0$
#345000
b1000000000000000000011100 !
b10100001101000000011110000010011 "
1$
0,
1/
1U
1{
1|
#350000
0$
#355000
1$
0&
1*
10
#360000
0$
#365000
b10100001111000000011000000000011 "
1$
1,
0/
00
0{
0|
#370000
0$
#375000
1$
1&
0*
#380000
0$
#385000
b1000000000000000000100000 !
b10100001111000001110000000000011 "
b1000000000000000000111000 #
1$
0,
1/
1R
0S
0T
0U
0V
0W
0X
0[
0a
0b
0c
0d
0e
0f
0g
0h
0i
0j
0k
0l
0m
0n
0o
1r
1{
1|
#390000
0$
#395000
1$
0&
1*
10
#400000
0$
#405000
b10100000000000100010000000000011 "
1$
1,
0/
00
0{
0|
#410000
0$
#415000
1$
1&
0*
#420000
0$
#425000
b1000000000000000000100100 !
b10100001111000000011000000000011 "
b1000000000000000000111100 #
1$
0,
1/
1U
1s
1{
1|
#430000
0$
#435000
1$
0&
1*
10
#440000
0$
#445000
b10100001100000100010111000010001 "
1$
1,
0/
00
0{
0|
#450000
0$
#455000
1$
1&
0*
#460000
0$
#465000
b1000000000000000000101000 !
b10100000000000100010000000000011 "
b1000000000000000001000000 #
1$
0,
1/
1T
0U
1o
0p
0q
0r
0s
1{
1|
#470000
0$
#475000
1$
0&
1*
10
#480000
0$
#485000
b10100101000001000010111110001011 "
1$
1,
0/
00
0{
0|
#490000
0$
#495000
1$
1&
0*
#500000
0$
#505000
b1000000000000000000101100 !
b10100001100000100010111000010001 "
b1000000000000000001000100 #
1$
0,
1/
1U
1s
1{
1|
#510000
0$
#515000
1$
0&
1*
10
#520000
0$
#525000
b11101000101111011000000000010000 "
1$
1,
0/
00
0{
0|
#530000
0$
#535000
1$
1&
0*
#540000
0$
#545000
b1000000000000000000110000 !
b10100101000001000010111110001011 "
b1000000000000000001001000 #
1$
0,
1/
1S
0T
0U
1r
0s
1{
1|
#550000
0$
#555000
1$
0&
1*
10
#560000
0$
#565000
b10100011101000000011000011111111 "
1$
1,
0/
00
0{
0|
#570000
0$
#575000
1$
1&
0*
#580000
0$
#585000
b1000000000000000000110100 !
b11101000101111011000000000010000 "
b1000000000000000001001100 #
1$
0,
1/
1U
1s
1{
1|
#590000
0$
#595000
1$
0&
1*
10
#600000
0$
#605000
b10100001101000000011110000010011 "
1$
1,
0/
00
0{
0|
#610000
0$
#615000
1$
1&
0*
#620000
0$
#625000
b1000000000000000000111000 !
b10100011101000000011000011111111 "
b11101010111111111111111111111110 #
1$
0,
1/
1T
0U
1V
1W
1X
1Z
1\
0]
1^
1_
1`
1a
1b
1c
1d
1e
1f
1g
1h
1i
1j
1k
1l
1m
1n
1p
1q
1t
1{
1|
#630000
0$
#635000
$comment Sample 55 (End) $end
1$
0&
1*
10
