wbsdrctrl-classic-cycle1.vcd
$comment
Copyright (C) 1991-2013 Altera Corporation
Your use of Altera Corporation's design tools, logic functions 
and other software and tools, and its AMPP partner logic 
functions, and any output files from any of the foregoing 
(including device programming or simulation files), and any 
associated documentation or information are expressly subject 
to the terms and conditions of the Altera Program License 
Subscription Agreement, Altera MegaCore Function License 
Agreement, or other applicable license agreement, including, 
without limitation, that your use is for the sole purpose of 
programming logic devices manufactured by Altera and sold by 
Altera or its authorized distributors.  Please refer to the 
applicable agreement for further details.
$end

$date 
  02/20/2016 21:30:46 
$end
$version 
 QUARTUS_VCD_EXPORT 1.0 
$end
$timescale
  1 ps
$end
$scope module STORM_TOP_INST $end
$var reg 32 ! WB_ADR_O[31:0] $end
$var reg 32 " WB_DATA_I[31:0] $end
$var reg 32 # WB_DATA_O[31:0] $end
$upscope $end
$scope module SDRAM_CTRL_0 $end
$var reg 1 $ wb_we_i[0] $end
$scope module arbiter $end
$scope module wbports[0].wb_port $end
$var reg 1 % sdram_clk $end
$var reg 1 & wb_adr_i[31] $end
$var reg 1 ' wb_adr_i[30] $end
$var reg 1 ( wb_adr_i[29] $end
$var reg 1 ) wb_adr_i[28] $end
$var reg 1 * wb_adr_i[27] $end
$var reg 1 + wb_adr_i[26] $end
$var reg 1 , wb_adr_i[25] $end
$var reg 1 - wb_adr_i[24] $end
$var reg 1 . wb_adr_i[23] $end
$var reg 1 / wb_adr_i[22] $end
$var reg 1 0 wb_adr_i[21] $end
$var reg 1 1 wb_adr_i[20] $end
$var reg 1 2 wb_adr_i[19] $end
$var reg 1 3 wb_adr_i[18] $end
$var reg 1 4 wb_adr_i[17] $end
$var reg 1 5 wb_adr_i[16] $end
$var reg 1 6 wb_adr_i[15] $end
$var reg 1 7 wb_adr_i[14] $end
$var reg 1 8 wb_adr_i[13] $end
$var reg 1 9 wb_adr_i[12] $end
$var reg 1 : wb_adr_i[11] $end
$var reg 1 ; wb_adr_i[10] $end
$var reg 1 < wb_adr_i[9] $end
$var reg 1 = wb_adr_i[8] $end
$var reg 1 > wb_adr_i[7] $end
$var reg 1 ? wb_adr_i[6] $end
$var reg 1 @ wb_adr_i[5] $end
$var reg 1 A wb_adr_i[4] $end
$var reg 1 B wb_adr_i[3] $end
$var reg 1 C wb_adr_i[2] $end
$var reg 1 D wb_adr_i[1] $end
$var reg 1 E wb_adr_i[0] $end
$var reg 1 F wb_dat_i[31] $end
$var reg 1 G wb_dat_i[30] $end
$var reg 1 H wb_dat_i[29] $end
$var reg 1 I wb_dat_i[28] $end
$var reg 1 J wb_dat_i[27] $end
$var reg 1 K wb_dat_i[26] $end
$var reg 1 L wb_dat_i[25] $end
$var reg 1 M wb_dat_i[24] $end
$var reg 1 N wb_dat_i[23] $end
$var reg 1 O wb_dat_i[22] $end
$var reg 1 P wb_dat_i[21] $end
$var reg 1 Q wb_dat_i[20] $end
$var reg 1 R wb_dat_i[19] $end
$var reg 1 S wb_dat_i[18] $end
$var reg 1 T wb_dat_i[17] $end
$var reg 1 U wb_dat_i[16] $end
$var reg 1 V wb_dat_i[15] $end
$var reg 1 W wb_dat_i[14] $end
$var reg 1 X wb_dat_i[13] $end
$var reg 1 Y wb_dat_i[12] $end
$var reg 1 Z wb_dat_i[11] $end
$var reg 1 [ wb_dat_i[10] $end
$var reg 1 \ wb_dat_i[9] $end
$var reg 1 ] wb_dat_i[8] $end
$var reg 1 ^ wb_dat_i[7] $end
$var reg 1 _ wb_dat_i[6] $end
$var reg 1 ` wb_dat_i[5] $end
$var reg 1 a wb_dat_i[4] $end
$var reg 1 b wb_dat_i[3] $end
$var reg 1 c wb_dat_i[2] $end
$var reg 1 d wb_dat_i[1] $end
$var reg 1 e wb_dat_i[0] $end
$var reg 1 f adr_i[31] $end
$var reg 1 g adr_i[30] $end
$var reg 1 h adr_i[29] $end
$var reg 1 i adr_i[28] $end
$var reg 1 j adr_i[27] $end
$var reg 1 k adr_i[26] $end
$var reg 1 l adr_i[25] $end
$var reg 1 m adr_i[24] $end
$var reg 1 n adr_i[23] $end
$var reg 1 o adr_i[22] $end
$var reg 1 p adr_i[21] $end
$var reg 1 q adr_i[20] $end
$var reg 1 r adr_i[19] $end
$var reg 1 s adr_i[18] $end
$var reg 1 t adr_i[17] $end
$var reg 1 u adr_i[16] $end
$var reg 1 v adr_i[15] $end
$var reg 1 w adr_i[14] $end
$var reg 1 x adr_i[13] $end
$var reg 1 y adr_i[12] $end
$var reg 1 z adr_i[11] $end
$var reg 1 { adr_i[10] $end
$var reg 1 | adr_i[9] $end
$var reg 1 } adr_i[8] $end
$var reg 1 ~ adr_i[7] $end
$var reg 1 !! adr_i[6] $end
$var reg 1 !" adr_i[5] $end
$var reg 1 !# adr_i[4] $end
$var reg 1 !$ adr_i[3] $end
$var reg 1 !% adr_i[2] $end
$var reg 1 !& adr_i[1] $end
$var reg 1 !' adr_i[0] $end
$var reg 1 !( adr_o[31] $end
$var reg 1 !) adr_o[30] $end
$var reg 1 !* adr_o[29] $end
$var reg 1 !+ adr_o[28] $end
$var reg 1 !, adr_o[27] $end
$var reg 1 !- adr_o[26] $end
$var reg 1 !. adr_o[25] $end
$var reg 1 !/ adr_o[24] $end
$var reg 1 !0 adr_o[23] $end
$var reg 1 !1 adr_o[22] $end
$var reg 1 !2 adr_o[21] $end
$var reg 1 !3 adr_o[20] $end
$var reg 1 !4 adr_o[19] $end
$var reg 1 !5 adr_o[18] $end
$var reg 1 !6 adr_o[17] $end
$var reg 1 !7 adr_o[16] $end
$var reg 1 !8 adr_o[15] $end
$var reg 1 !9 adr_o[14] $end
$var reg 1 !: adr_o[13] $end
$var reg 1 !; adr_o[12] $end
$var reg 1 !< adr_o[11] $end
$var reg 1 != adr_o[10] $end
$var reg 1 !> adr_o[9] $end
$var reg 1 !? adr_o[8] $end
$var reg 1 !@ adr_o[7] $end
$var reg 1 !A adr_o[6] $end
$var reg 1 !B adr_o[5] $end
$var reg 1 !C adr_o[4] $end
$var reg 1 !D adr_o[3] $end
$var reg 1 !E adr_o[2] $end
$var reg 1 !F adr_o[1] $end
$var reg 1 !G adr_o[0] $end
$var reg 1 !H dat_o[15] $end
$var reg 1 !I dat_o[14] $end
$var reg 1 !J dat_o[13] $end
$var reg 1 !K dat_o[12] $end
$var reg 1 !L dat_o[11] $end
$var reg 1 !M dat_o[10] $end
$var reg 1 !N dat_o[9] $end
$var reg 1 !O dat_o[8] $end
$var reg 1 !P dat_o[7] $end
$var reg 1 !Q dat_o[6] $end
$var reg 1 !R dat_o[5] $end
$var reg 1 !S dat_o[4] $end
$var reg 1 !T dat_o[3] $end
$var reg 1 !U dat_o[2] $end
$var reg 1 !V dat_o[1] $end
$var reg 1 !W dat_o[0] $end
$var reg 1 !X dat_i[15] $end
$var reg 1 !Y dat_i[14] $end
$var reg 1 !Z dat_i[13] $end
$var reg 1 ![ dat_i[12] $end
$var reg 1 !\ dat_i[11] $end
$var reg 1 !] dat_i[10] $end
$var reg 1 !^ dat_i[9] $end
$var reg 1 !_ dat_i[8] $end
$var reg 1 !` dat_i[7] $end
$var reg 1 !a dat_i[6] $end
$var reg 1 !b dat_i[5] $end
$var reg 1 !c dat_i[4] $end
$var reg 1 !d dat_i[3] $end
$var reg 1 !e dat_i[2] $end
$var reg 1 !f dat_i[1] $end
$var reg 1 !g dat_i[0] $end
$upscope $end
$upscope $end
$upscope $end
$var reg 1 !h SDRAM_MEM_STB_I $end
$enddefinitions $end
#0
$dumpvars
bX !
bX "
bX #
X$
0%
X&
X'
X(
X)
X*
X+
X,
X-
X.
X/
X0
X1
X2
X3
X4
X5
X6
X7
X8
X9
X:
X;
X<
X=
X>
X?
X@
XA
XB
XC
XD
XE
XF
XG
XH
XI
XJ
XK
XL
XM
XN
XO
XP
XQ
XR
XS
XT
XU
XV
XW
XX
XY
XZ
X[
X\
X]
X^
X_
X`
Xa
Xb
Xc
Xd
Xe
Xf
Xg
Xh
Xi
Xj
Xk
Xl
Xm
Xn
Xo
Xp
Xq
Xr
Xs
Xt
Xu
Xv
Xw
Xx
Xy
Xz
X{
X|
X}
X~
X!!
X!"
X!#
X!$
X!%
X!&
X!'
X!(
X!)
X!*
X!+
X!,
X!-
X!.
X!/
X!0
X!1
X!2
X!3
X!4
X!5
X!6
X!7
X!8
X!9
X!:
X!;
X!<
X!=
X!>
X!?
X!@
X!A
X!B
X!C
X!D
X!E
X!F
X!G
X!H
X!I
X!J
X!K
X!L
X!M
X!N
X!O
X!P
X!Q
X!R
X!S
X!T
X!U
X!V
X!W
X!X
X!Y
X!Z
X![
X!\
X!]
X!^
X!_
X!`
X!a
X!b
X!c
X!d
X!e
X!f
X!g
X!h
$end
#10000
$comment Sample 0 (Start/Trigger) $end
b1000000000000000000000000 !
b0 "
b11101010000000000000000000010010 #
1$
1%
0&
0'
0(
0)
0*
0+
0,
1-
0.
0/
00
01
02
03
04
05
06
07
08
09
0:
0;
0<
0=
0>
0?
0@
0A
0B
0C
0D
0E
1F
1G
1H
0I
1J
0K
1L
0M
0N
0O
0P
0Q
0R
0S
0T
0U
0V
0W
0X
0Y
0Z
0[
0\
0]
0^
0_
0`
1a
0b
0c
1d
0e
0f
0g
0h
0i
0j
0k
0l
0m
0n
0o
0p
0q
0r
0s
0t
0u
0v
0w
0x
0y
0z
0{
0|
0}
0~
0!!
0!"
0!#
0!$
0!%
0!&
0!'
0!(
0!)
0!*
0!+
0!,
0!-
0!.
0!/
0!0
0!1
0!2
0!3
0!4
0!5
0!6
0!7
0!8
0!9
0!:
0!;
0!<
0!=
0!>
0!?
0!@
0!A
0!B
0!C
0!D
0!E
0!F
0!G
0!H
0!I
0!J
0!K
0!L
0!M
0!N
0!O
0!P
0!Q
0!R
0!S
0!T
0!U
0!V
0!W
0!X
0!Y
0!Z
0![
0!\
0!]
0!^
0!_
0!`
0!a
0!b
0!c
0!d
0!e
0!f
0!g
1!h
#20000
0%
#30000
1%
#40000
0%
#50000
1%
#60000
0%
#70000
1%
#80000
0%
#90000
1%
#100000
0%
#110000
1%
#120000
0%
#130000
1%
0!h
#140000
0%
#150000
b1000000000000000000000100 !
b11101010000000000000000001100010 #
1%
1C
1_
1`
0a
1m
1!&
1!H
1!I
1!J
1!L
1!N
1!h
#160000
0%
#170000
1%
#180000
0%
#190000
1%
#200000
0%
#210000
1%
#220000
0%
#230000
1%
#240000
0%
#250000
1%
#260000
0%
#270000
1%
0!h
#280000
0%
#290000
b1000000000000000000001000 !
b11101010000000000000000001010101 #
1%
1B
0C
0`
1a
1c
0d
1e
1!%
1!h
#300000
0%
#310000
1%
#320000
0%
#330000
1%
#340000
0%
#350000
1%
#360000
0%
#370000
1%
#380000
0%
#390000
1%
#400000
0%
#410000
1%
0!h
#420000
0%
#430000
b1000000000000000000001100 !
b11101010000000000000000001001000 #
1%
1C
0a
1b
0c
0e
1!$
0!%
1!h
#440000
0%
#450000
1%
#460000
0%
#470000
1%
#480000
0%
#490000
1%
#500000
0%
#510000
1%
#520000
0%
#530000
1%
#540000
0%
#550000
1%
0!h
#560000
0%
#570000
b1000000000000000000010000 !
b11101010000000000000000001000111 #
1%
1A
0B
0C
0b
1c
1d
1e
1!%
1!h
#580000
0%
#590000
1%
#600000
0%
#610000
1%
#620000
0%
#630000
1%
#640000
0%
#650000
1%
#660000
0%
#670000
1%
#680000
0%
#690000
1%
0!h
#700000
0%
#710000
b1000000000000000000010100 !
b11100001101000000000000000000000 #
1%
1C
0J
0L
1M
1N
1P
0_
0c
0d
0e
1!#
0!$
0!%
1!h
#720000
0%
#730000
1%
#740000
0%
#750000
1%
#760000
0%
#770000
1%
#780000
0%
#790000
1%
#800000
0%
#810000
1%
#820000
0%
#830000
1%
0!h
#840000
0%
#850000
b1000000000000000000011000 !
b11100101000111111111111111110000 #
1%
1B
0C
1K
0N
0P
1Q
1R
1S
1T
1U
1V
1W
1X
1Y
1Z
1[
1\
1]
1^
1_
1`
1a
1!%
0!L
0!N
1!O
1!P
1!R
1!h
#860000
0%
#870000
1%
#880000
0%
#890000
1%
#900000
0%
#910000
1%
#920000
0%
#930000
1%
#940000
0%
#950000
1%
#960000
0%
#970000
1%
0!h
#980000
0%
#990000
b1000000000000000000011100 !
1%
1C
1!$
0!%
1!M
0!P
0!R
1!S
1!T
1!U
1!V
1!W
1!h
#1000000
0%
#1010000
1%
#1020000
0%
#1030000
1%
#1040000
0%
#1050000
1%
#1060000
0%
#1070000
1%
#1080000
0%
#1090000
1%
#1100000
0%
#1110000
1%
0!h
#1120000
0%
#1130000
b1000000000000000000100000 !
b1000000000000000000111000 #
1%
1@
0A
0B
0C
0F
0G
0H
0K
0Q
0R
0S
0T
0U
0V
0W
0X
0Y
0Z
0[
0\
0]
0^
0_
1b
1!%
1!h
#1140000
0%
#1150000
1%
#1160000
0%
#1170000
1%
#1180000
0%
#1190000
1%
#1200000
0%
#1210000
1%
#1220000
0%
#1230000
1%
#1240000
0%
#1250000
1%
0!h
#1260000
0%
#1270000
b1000000000000000000100100 !
b1000000000000000000111100 #
1%
1C
1c
1!"
0!#
0!$
0!%
0!H
0!I
0!J
0!M
0!S
0!T
0!U
0!V
0!W
1!h
#1280000
0%
#1290000
1%
#1300000
0%
#1310000
1%
#1320000
0%
#1330000
1%
#1340000
0%
#1350000
1%
#1360000
0%
#1370000
1%
#1380000
0%
#1390000
1%
0!h
#1400000
0%
#1410000
b1000000000000000000101000 !
b1000000000000000001000000 #
1%
1B
0C
1_
0`
0a
0b
0c
1!%
1!h
#1420000
0%
#1430000
1%
#1440000
0%
#1450000
1%
#1460000
0%
#1470000
1%
#1480000
0%
#1490000
1%
#1500000
0%
#1510000
1%
#1520000
0%
#1530000
1%
0!h
#1540000
0%
#1550000
b1000000000000000000101100 !
b1000000000000000001000100 #
1%
1C
1c
1!$
0!%
1!h
#1560000
0%
#1570000
1%
#1580000
0%
#1590000
1%
#1600000
0%
#1610000
1%
#1620000
0%
#1630000
1%
#1640000
0%
#1650000
1%
#1660000
0%
#1670000
1%
0!h
#1680000
0%
#1690000
b1000000000000000000110000 !
b1000000000000000001001000 #
1%
1A
0B
0C
1b
0c
1!%
1!h
#1700000
0%
#1710000
1%
#1720000
0%
#1730000
1%
#1740000
0%
#1750000
1%
#1760000
0%
#1770000
1%
#1780000
0%
#1790000
1%
#1800000
0%
#1810000
1%
0!h
#1820000
0%
#1830000
b1000000000000000000110100 !
b1000000000000000001001100 #
1%
1C
1c
1!#
0!$
0!%
1!h
#1840000
0%
#1850000
1%
#1860000
0%
#1870000
1%
#1880000
0%
#1890000
1%
#1900000
0%
#1910000
1%
#1920000
0%
#1930000
1%
#1940000
0%
#1950000
1%
0!h
#1960000
0%
#1970000
b1000000000000000000111000 !
b11101010111111111111111111111110 #
1%
1B
0C
1F
1G
1H
1J
1L
0M
1N
1O
1P
1Q
1R
1S
1T
1U
1V
1W
1X
1Y
1Z
1[
1\
1]
1^
1`
1a
1d
1!%
1!h
#1980000
0%
#1990000
1%
#2000000
0%
#2010000
1%
#2020000
0%
#2030000
1%
#2040000
0%
#2050000
1%
#2060000
0%
#2070000
1%
#2080000
0%
#2090000
1%
0!h
#2100000
0%
#2110000
b1000000000000000000111100 !
1%
1C
1!$
0!%
1!H
1!I
1!J
1!L
1!N
0!O
1!P
1!Q
1!R
1!S
1!T
1!U
1!V
1!W
1!h
#2120000
0%
#2130000
1%
#2140000
0%
#2150000
1%
#2160000
0%
#2170000
1%
#2180000
0%
#2190000
1%
#2200000
0%
#2210000
1%
#2220000
0%
#2230000
$comment Sample 111 (End) $end
1%
0!h
