wbsdrctrl-burst-cycle-adr1000000.vcd
$comment
Copyright (C) 1991-2013 Altera Corporation
Your use of Altera Corporation's design tools, logic functions 
and other software and tools, and its AMPP partner logic 
functions, and any output files from any of the foregoing 
(including device programming or simulation files), and any 
associated documentation or information are expressly subject 
to the terms and conditions of the Altera Program License 
Subscription Agreement, Altera MegaCore Function License 
Agreement, or other applicable license agreement, including, 
without limitation, that your use is for the sole purpose of 
programming logic devices manufactured by Altera and sold by 
Altera or its authorized distributors.  Please refer to the 
applicable agreement for further details.
$end

$date 
  02/21/2016 23:24:49 
$end
$version 
 QUARTUS_VCD_EXPORT 1.0 
$end
$timescale
  1 ps
$end
$scope module STORM_TOP_INST $end
$var reg 32 ! WB_ADR_O[31:0] $end
$var reg 32 " WB_DATA_I[31:0] $end
$var reg 32 # WB_DATA_O[31:0] $end
$upscope $end
$scope module SDRAM_CTRL_0 $end
$var reg 1 $ wb_we_i[0] $end
$scope module arbiter $end
$var reg 1 % port_sel[0] $end
$scope module wbports[0].wb_port $end
$var reg 1 & sdram_clk $end
$var reg 1 ' wb_adr_i[31] $end
$var reg 1 ( wb_adr_i[30] $end
$var reg 1 ) wb_adr_i[29] $end
$var reg 1 * wb_adr_i[28] $end
$var reg 1 + wb_adr_i[27] $end
$var reg 1 , wb_adr_i[26] $end
$var reg 1 - wb_adr_i[25] $end
$var reg 1 . wb_adr_i[24] $end
$var reg 1 / wb_adr_i[23] $end
$var reg 1 0 wb_adr_i[22] $end
$var reg 1 1 wb_adr_i[21] $end
$var reg 1 2 wb_adr_i[20] $end
$var reg 1 3 wb_adr_i[19] $end
$var reg 1 4 wb_adr_i[18] $end
$var reg 1 5 wb_adr_i[17] $end
$var reg 1 6 wb_adr_i[16] $end
$var reg 1 7 wb_adr_i[15] $end
$var reg 1 8 wb_adr_i[14] $end
$var reg 1 9 wb_adr_i[13] $end
$var reg 1 : wb_adr_i[12] $end
$var reg 1 ; wb_adr_i[11] $end
$var reg 1 < wb_adr_i[10] $end
$var reg 1 = wb_adr_i[9] $end
$var reg 1 > wb_adr_i[8] $end
$var reg 1 ? wb_adr_i[7] $end
$var reg 1 @ wb_adr_i[6] $end
$var reg 1 A wb_adr_i[5] $end
$var reg 1 B wb_adr_i[4] $end
$var reg 1 C wb_adr_i[3] $end
$var reg 1 D wb_adr_i[2] $end
$var reg 1 E wb_adr_i[1] $end
$var reg 1 F wb_adr_i[0] $end
$var reg 1 G wb_dat_i[31] $end
$var reg 1 H wb_dat_i[30] $end
$var reg 1 I wb_dat_i[29] $end
$var reg 1 J wb_dat_i[28] $end
$var reg 1 K wb_dat_i[27] $end
$var reg 1 L wb_dat_i[26] $end
$var reg 1 M wb_dat_i[25] $end
$var reg 1 N wb_dat_i[24] $end
$var reg 1 O wb_dat_i[23] $end
$var reg 1 P wb_dat_i[22] $end
$var reg 1 Q wb_dat_i[21] $end
$var reg 1 R wb_dat_i[20] $end
$var reg 1 S wb_dat_i[19] $end
$var reg 1 T wb_dat_i[18] $end
$var reg 1 U wb_dat_i[17] $end
$var reg 1 V wb_dat_i[16] $end
$var reg 1 W wb_dat_i[15] $end
$var reg 1 X wb_dat_i[14] $end
$var reg 1 Y wb_dat_i[13] $end
$var reg 1 Z wb_dat_i[12] $end
$var reg 1 [ wb_dat_i[11] $end
$var reg 1 \ wb_dat_i[10] $end
$var reg 1 ] wb_dat_i[9] $end
$var reg 1 ^ wb_dat_i[8] $end
$var reg 1 _ wb_dat_i[7] $end
$var reg 1 ` wb_dat_i[6] $end
$var reg 1 a wb_dat_i[5] $end
$var reg 1 b wb_dat_i[4] $end
$var reg 1 c wb_dat_i[3] $end
$var reg 1 d wb_dat_i[2] $end
$var reg 1 e wb_dat_i[1] $end
$var reg 1 f wb_dat_i[0] $end
$var reg 1 g adr_o[31] $end
$var reg 1 h adr_o[30] $end
$var reg 1 i adr_o[29] $end
$var reg 1 j adr_o[28] $end
$var reg 1 k adr_o[27] $end
$var reg 1 l adr_o[26] $end
$var reg 1 m adr_o[25] $end
$var reg 1 n adr_o[24] $end
$var reg 1 o adr_o[23] $end
$var reg 1 p adr_o[22] $end
$var reg 1 q adr_o[21] $end
$var reg 1 r adr_o[20] $end
$var reg 1 s adr_o[19] $end
$var reg 1 t adr_o[18] $end
$var reg 1 u adr_o[17] $end
$var reg 1 v adr_o[16] $end
$var reg 1 w adr_o[15] $end
$var reg 1 x adr_o[14] $end
$var reg 1 y adr_o[13] $end
$var reg 1 z adr_o[12] $end
$var reg 1 { adr_o[11] $end
$var reg 1 | adr_o[10] $end
$var reg 1 } adr_o[9] $end
$var reg 1 ~ adr_o[8] $end
$var reg 1 !! adr_o[7] $end
$var reg 1 !" adr_o[6] $end
$var reg 1 !# adr_o[5] $end
$var reg 1 !$ adr_o[4] $end
$var reg 1 !% adr_o[3] $end
$var reg 1 !& adr_o[2] $end
$var reg 1 !' adr_o[1] $end
$var reg 1 !( adr_o[0] $end
$var reg 1 !) dat_o[15] $end
$var reg 1 !* dat_o[14] $end
$var reg 1 !+ dat_o[13] $end
$var reg 1 !, dat_o[12] $end
$var reg 1 !- dat_o[11] $end
$var reg 1 !. dat_o[10] $end
$var reg 1 !/ dat_o[9] $end
$var reg 1 !0 dat_o[8] $end
$var reg 1 !1 dat_o[7] $end
$var reg 1 !2 dat_o[6] $end
$var reg 1 !3 dat_o[5] $end
$var reg 1 !4 dat_o[4] $end
$var reg 1 !5 dat_o[3] $end
$var reg 1 !6 dat_o[2] $end
$var reg 1 !7 dat_o[1] $end
$var reg 1 !8 dat_o[0] $end
$var reg 1 !9 adr_i[31] $end
$var reg 1 !: adr_i[30] $end
$var reg 1 !; adr_i[29] $end
$var reg 1 !< adr_i[28] $end
$var reg 1 != adr_i[27] $end
$var reg 1 !> adr_i[26] $end
$var reg 1 !? adr_i[25] $end
$var reg 1 !@ adr_i[24] $end
$var reg 1 !A adr_i[23] $end
$var reg 1 !B adr_i[22] $end
$var reg 1 !C adr_i[21] $end
$var reg 1 !D adr_i[20] $end
$var reg 1 !E adr_i[19] $end
$var reg 1 !F adr_i[18] $end
$var reg 1 !G adr_i[17] $end
$var reg 1 !H adr_i[16] $end
$var reg 1 !I adr_i[15] $end
$var reg 1 !J adr_i[14] $end
$var reg 1 !K adr_i[13] $end
$var reg 1 !L adr_i[12] $end
$var reg 1 !M adr_i[11] $end
$var reg 1 !N adr_i[10] $end
$var reg 1 !O adr_i[9] $end
$var reg 1 !P adr_i[8] $end
$var reg 1 !Q adr_i[7] $end
$var reg 1 !R adr_i[6] $end
$var reg 1 !S adr_i[5] $end
$var reg 1 !T adr_i[4] $end
$var reg 1 !U adr_i[3] $end
$var reg 1 !V adr_i[2] $end
$var reg 1 !W adr_i[1] $end
$var reg 1 !X adr_i[0] $end
$var reg 1 !Y dat_i[15] $end
$var reg 1 !Z dat_i[14] $end
$var reg 1 ![ dat_i[13] $end
$var reg 1 !\ dat_i[12] $end
$var reg 1 !] dat_i[11] $end
$var reg 1 !^ dat_i[10] $end
$var reg 1 !_ dat_i[9] $end
$var reg 1 !` dat_i[8] $end
$var reg 1 !a dat_i[7] $end
$var reg 1 !b dat_i[6] $end
$var reg 1 !c dat_i[5] $end
$var reg 1 !d dat_i[4] $end
$var reg 1 !e dat_i[3] $end
$var reg 1 !f dat_i[2] $end
$var reg 1 !g dat_i[1] $end
$var reg 1 !h dat_i[0] $end
$var reg 1 !i \sdram_state.IDLE  $end
$var reg 1 !j \sdram_state.READ  $end
$var reg 1 !k \sdram_state.WRITE  $end
$var reg 1 !l ack_i $end
$var reg 1 !m wrfifo_wrreq $end
$var reg 1 !n wrfifo_rdreq $end
$var reg 1 !o bufhit $end
$var reg 1 !p \wb_state.IDLE  $end
$var reg 1 !q \wb_state.READ  $end
$var reg 1 !r \wb_state.REFILL  $end
$var reg 1 !s \wb_state.WRITE  $end
$scope module wrfifo $end
$var reg 1 !t empty_o $end
$var reg 1 !u full_o $end
$upscope $end
$upscope $end
$upscope $end
$scope module sdram_ctrl $end
$var reg 1 !v \state.WRITE  $end
$var reg 1 !w \state.REF  $end
$var reg 1 !x \state.READ  $end
$var reg 1 !y \state.PRE  $end
$var reg 1 !z \state.IDLE  $end
$var reg 1 !{ \state.ACTIVATE  $end
$upscope $end
$upscope $end
$var reg 1 !| CORE_WB_ACK_I $end
$var reg 1 !} SDRAM_MEM_STB_I $end
$enddefinitions $end
#0
$dumpvars
bX !
bX "
bX #
X$
X%
0&
X'
X(
X)
X*
X+
X,
X-
X.
X/
X0
X1
X2
X3
X4
X5
X6
X7
X8
X9
X:
X;
X<
X=
X>
X?
X@
XA
XB
XC
XD
XE
XF
XG
XH
XI
XJ
XK
XL
XM
XN
XO
XP
XQ
XR
XS
XT
XU
XV
XW
XX
XY
XZ
X[
X\
X]
X^
X_
X`
Xa
Xb
Xc
Xd
Xe
Xf
Xg
Xh
Xi
Xj
Xk
Xl
Xm
Xn
Xo
Xp
Xq
Xr
Xs
Xt
Xu
Xv
Xw
Xx
Xy
Xz
X{
X|
X}
X~
X!!
X!"
X!#
X!$
X!%
X!&
X!'
X!(
X!)
X!*
X!+
X!,
X!-
X!.
X!/
X!0
X!1
X!2
X!3
X!4
X!5
X!6
X!7
X!8
X!9
X!:
X!;
X!<
X!=
X!>
X!?
X!@
X!A
X!B
X!C
X!D
X!E
X!F
X!G
X!H
X!I
X!J
X!K
X!L
X!M
X!N
X!O
X!P
X!Q
X!R
X!S
X!T
X!U
X!V
X!W
X!X
X!Y
X!Z
X![
X!\
X!]
X!^
X!_
X!`
X!a
X!b
X!c
X!d
X!e
X!f
X!g
X!h
X!i
X!j
X!k
X!l
X!m
X!n
X!o
X!p
X!q
X!r
X!s
X!t
X!u
X!v
X!w
X!x
X!y
X!z
X!{
X!|
X!}
$end
#10000
$comment Sample -8 (Start) $end
b1000000000000001101111100 !
b0 "
b100000010001010101001001010010 #
0$
1%
1&
0'
0(
0)
0*
0+
0,
0-
1.
0/
00
01
02
03
04
05
06
07
08
09
0:
0;
0<
1=
1>
0?
1@
1A
1B
1C
1D
0E
0F
0G
0H
1I
0J
0K
0L
0M
0N
0O
1P
0Q
0R
0S
1T
0U
1V
0W
1X
0Y
1Z
0[
0\
1]
0^
0_
1`
0a
1b
0c
0d
1e
0f
0g
0h
0i
0j
0k
0l
0m
1n
0o
0p
0q
0r
0s
0t
0u
0v
0w
0x
0y
0z
0{
0|
1}
1~
0!!
1!"
1!#
1!$
0!%
0!&
0!'
0!(
0!)
0!*
0!+
0!,
0!-
0!.
0!/
0!0
0!1
0!2
0!3
0!4
0!5
0!6
0!7
0!8
0!9
0!:
0!;
0!<
0!=
0!>
0!?
1!@
0!A
0!B
0!C
0!D
0!E
0!F
0!G
0!H
0!I
0!J
0!K
0!L
0!M
0!N
1!O
1!P
0!Q
1!R
1!S
1!T
1!U
1!V
1!W
0!X
1!Y
1!Z
1![
0!\
0!]
0!^
0!_
0!`
0!a
0!b
0!c
0!d
0!e
0!f
1!g
1!h
1!i
0!j
0!k
0!l
0!m
0!n
1!o
1!p
0!q
0!r
0!s
1!t
0!u
0!v
0!w
0!x
0!y
1!z
0!{
0!|
0!}
#20000
0&
#30000
1&
#40000
0&
#50000
b0 #
1&
0I
0P
0T
0V
0X
0Z
0]
0`
0b
0e
#60000
0&
#70000
1&
#80000
0&
#90000
1&
#100000
0&
#110000
1&
#120000
0&
#130000
b11100011101000000010000000000001 #
1&
1G
1H
1I
1M
1N
1O
1Q
1Y
1f
#140000
0&
#150000
1&
#160000
0&
#170000
$comment Sample 0 (Trigger) $end
b1000000000000000000000000 !
b11100001111000001110000000000011 "
b11101010000000000000000000010010 #
1$
1&
0=
0>
0@
0A
0B
0C
0D
1K
0N
0O
0Q
0Y
1b
1e
0f
0!o
1!}
#180000
0&
#190000
1&
#200000
0&
#210000
b1000000000000000000000100 !
b11100001111000000011000000000011 "
b11101010000000000000000001100010 #
1&
1D
1`
1a
0b
1!m
0!p
1!s
1!|
#220000
0&
#230000
1&
#240000
0&
#250000
b11100001100000100010111000010001 "
1&
#260000
0&
#270000
1&
#280000
0&
#290000
b1000000000000000000001000 !
b11101010000000000000000001010101 #
1&
1C
0D
0a
1b
1d
0e
1f
#300000
0&
#310000
1&
1!n
0!t
#320000
0&
#330000
b1000000000000000000001100 !
b11100101000001000010111110001011 "
b11101010000000000000000001001000 #
1&
1D
0b
1c
0d
0f
0}
0~
0!"
0!#
0!$
1!&
1!)
1!*
1!+
1!-
1!/
0!i
1!k
0!n
1!t
#340000
0&
#350000
1&
1!'
0!)
0!*
0!+
0!-
0!/
1!2
1!3
1!7
0!O
0!P
0!R
0!S
0!T
0!U
0!W
1!l
0!t
1!v
0!z
#360000
0&
#370000
b1000000000000000000010000 !
b11101000101111011000000000010000 "
b11101010000000000000000001000111 #
1&
1B
0C
0D
0c
1d
1e
1f
1}
1~
1!"
1!#
1!$
0!&
0!'
1!)
1!*
1!+
1!-
1!/
0!2
0!3
0!7
1!W
1!i
0!k
1!n
#380000
0&
#390000
1&
0}
0~
0!"
0!#
0!$
1!&
0!i
1!k
0!l
0!n
0!v
1!z
#400000
0&
#410000
b1000000000000000000010100 !
b11100011101000000011000011111111 "
b11100001101000000000000000000000 #
1&
1D
0K
0M
1N
1O
1Q
0`
0d
0e
0f
1!'
0!)
0!*
0!+
0!-
0!/
1!2
1!3
1!7
0!W
1!l
1!v
0!z
#420000
0&
#430000
1&
1}
1~
1!"
1!#
1!$
0!&
0!'
1!)
1!*
1!+
1!-
1!/
0!2
0!3
0!7
1!W
1!i
0!k
1!n
#440000
0&
#450000
b1000000000000000000011000 !
b11100001101000000011110000010011 "
b11100101000111111111111111110000 #
1&
1C
0D
1L
0O
0Q
1R
1S
1T
1U
1V
1W
1X
1Y
1Z
1[
1\
1]
1^
1_
1`
1a
1b
0}
0~
0!"
0!#
0!$
1!%
0!i
1!k
0!l
0!n
0!v
1!z
#460000
0&
#470000
1&
1!'
0!)
0!*
0!+
0!-
0!/
1!2
1!4
1!6
1!8
1!U
0!V
0!W
1!l
1!v
0!z
#480000
0&
#490000
b1000000000000000000011100 !
b11100001111000001110000000000011 "
1&
1D
1}
1~
1!"
1!#
1!$
0!%
0!'
1!)
1!*
1!+
1!-
1!/
0!2
0!4
0!6
0!8
1!W
1!i
0!k
1!n
#500000
0&
#510000
1&
0}
0~
0!"
0!#
0!$
1!%
1!&
0!i
1!k
0!l
0!n
0!v
1!z
#520000
0&
#530000
b1000000000000000000100000 !
b11100001111000000011000000000011 "
b1000000000000000000111000 #
1&
1A
0B
0C
0D
0G
0H
0I
0L
0R
0S
0T
0U
0V
0W
0X
0Y
0Z
0[
0\
0]
0^
0_
0`
1c
1!'
0!)
0!*
0!+
0!-
0!/
1!2
1!5
1!V
0!W
1!l
1!v
0!z
#540000
0&
#550000
1&
1}
1~
1!"
1!#
1!$
0!%
0!&
0!'
1!)
1!*
1!+
1!-
1!/
0!2
0!5
1!W
1!i
0!k
1!n
#560000
0&
#570000
b1000000000000000000100100 !
b11100000000000100010000000000011 "
b1000000000000000000111100 #
1&
1D
1d
0}
0~
0!"
0!#
0!i
1!k
0!l
0!n
0!v
1!z
#580000
0&
#590000
1&
1!'
0!)
0!*
0!+
0!-
0!/
1!2
1!6
1!7
1!8
1!T
0!U
0!V
0!W
1!l
1!v
0!z
#600000
0&
#610000
b1000000000000000000101000 !
b11100001100000100010111000010001 "
b1000000000000000001000000 #
1&
1C
0D
1`
0a
0b
0c
0d
1}
1~
1!"
1!#
0!'
1!)
1!*
1!+
1!-
1!/
0!2
0!6
0!7
0!8
1!W
1!i
0!k
1!n
#620000
0&
#630000
1&
0}
0~
0!"
0!#
1!&
0!-
0!/
1!0
1!1
1!3
0!i
1!k
0!l
0!n
0!v
1!z
#640000
0&
#650000
b1000000000000000000101100 !
b11100101000001000010111110001011 "
b1000000000000000001000100 #
1&
1D
1d
1!'
0!)
0!*
0!+
0!0
0!1
0!3
1!V
0!W
1!l
1!u
1!v
0!z
#660000
0&
#670000
1&
1}
1~
1!"
1!#
0!&
0!'
1!)
1!*
1!+
1!0
1!1
1!3
1!W
1!i
0!k
1!n
#680000
0&
#690000
b1000000000000000000110000 !
b11101000101111011000000000010000 "
b1000000000000000001001000 #
1&
1B
0C
0D
1c
0d
0}
0~
0!"
0!#
1!%
1!.
0!1
0!3
1!4
1!5
1!6
1!7
1!8
0!i
1!k
0!l
0!m
0!n
0!v
1!z
0!|
#700000
0&
#710000
1&
1!'
1!,
1!-
1!/
1!1
1!2
1!3
0!5
0!6
0!7
0!8
1!U
0!V
0!W
1!l
1!v
0!z
#720000
0&
#730000
b1000000000000000000110100 !
b1000000000000000001001100 #
1&
1D
1d
1}
1~
1!"
1!#
0!%
0!'
0!,
0!-
0!/
0!1
0!2
0!3
1!5
1!6
1!7
1!8
1!W
1!i
0!k
1!n
0!u
#740000
0&
#750000
1&
0}
0~
0!"
0!#
1!%
1!&
0!i
1!k
0!l
0!n
0!v
1!z
#760000
0&
#770000
b11100011101000000011000011111111 "
1&
1!'
1!,
1!-
1!/
1!1
1!2
1!3
0!5
0!6
0!7
0!8
1!V
0!W
1!l
1!m
1!v
0!z
1!|
#780000
0&
#790000
1&
1}
1~
1!"
1!#
0!%
0!&
0!'
0!,
0!-
0!/
0!1
0!2
0!3
1!5
1!6
1!7
1!8
1!W
1!i
0!k
1!n
#800000
0&
#810000
b11100001101000000011110000010011 "
1&
0}
0~
0!"
0!$
0!)
0!*
0!+
0!.
0!4
0!5
0!6
0!7
0!8
0!i
1!k
0!l
0!n
0!v
1!z
#820000
0&
#830000
1&
1!'
0!0
1!3
1!4
1!5
1!S
0!T
0!U
0!V
0!W
1!l
1!v
0!z
#840000
0&
#850000
b1000000000000000000111000 !
b11101010111111111111111111111110 #
1&
1C
0D
1G
1H
1I
1K
1M
0N
1O
1P
1Q
1R
1S
1T
1U
1V
1W
1X
1Y
1Z
1[
1\
1]
1^
1_
1a
1b
1e
1}
1~
1!"
1!$
0!'
1!0
0!3
0!4
0!5
1!W
1!i
0!k
1!n
#860000
0&
#870000
1&
0}
0~
0!"
0!$
1!&
0!i
1!k
0!l
0!n
0!v
1!z
#880000
0&
#890000
b1000000000000000000111100 !
b11100001111000001110000000000011 "
1&
1D
1!'
0!0
1!3
1!4
1!5
1!6
1!V
0!W
1!l
1!u
1!v
0!z
#900000
0&
#910000
1&
1}
1~
1!"
1!$
0!&
0!'
1!0
0!3
0!4
0!5
0!6
1!W
1!i
0!k
1!n
#920000
0&
#930000
b1000000000000000001000000 !
b11100001111000000011000000000011 "
1&
1@
0A
0B
0C
0D
0}
0~
0!"
0!$
1!%
0!i
1!k
0!l
0!m
0!n
0!v
1!z
0!|
#940000
0&
#950000
1&
1!'
0!0
1!2
1!U
0!V
0!W
1!l
1!v
0!z
#960000
0&
#970000
b1000000000000000001000100 !
1&
1D
1}
1~
1!"
1!$
0!%
0!'
1!0
0!2
1!W
1!i
0!k
1!n
0!u
#980000
0&
#990000
1&
0}
0~
0!"
0!$
1!%
1!&
0!i
1!k
0!l
0!n
0!v
1!z
#1000000
0&
#1010000
b11100000000000100010000000000011 "
1&
1!'
0!0
1!2
1!6
1!V
0!W
1!l
1!m
1!v
0!z
1!|
#1020000
0&
#1030000
1&
1}
1~
1!"
1!$
0!%
0!&
0!'
1!0
0!2
0!6
1!W
1!i
0!k
1!n
#1040000
0&
#1050000
b11100001100000100010111000010001 "
1&
0}
0~
0!"
1!&
0!i
1!k
0!l
0!n
0!v
1!z
#1060000
0&
#1070000
1&
1!'
0!0
1!2
1!5
1!6
1!T
0!U
0!W
1!l
1!v
0!z
#1080000
0&
#1090000
b1000000000000000001001000 !
1&
1C
0D
1}
1~
1!"
0!&
0!'
1!0
0!2
0!5
0!6
1!W
1!i
0!k
1!n
#1100000
0&
#1110000
1&
0}
0~
0!"
1!&
0!i
1!k
0!l
0!n
0!v
1!z
#1120000
0&
#1130000
b1000000000000000001001100 !
b11100101000001000010111110001011 "
1&
1D
1!'
0!0
1!2
1!5
1!6
0!W
1!l
1!u
1!v
0!z
#1140000
0&
#1150000
1&
1}
1~
1!"
0!&
0!'
1!0
0!2
0!5
0!6
1!W
1!i
0!k
1!n
#1160000
0&
#1170000
b1000000000000000001010000 !
b11101000101111011000000000010000 "
b11100101100111110000001000101000 #
1&
1B
0C
0D
0K
1L
0M
1N
0P
0Q
0W
0X
0Y
0Z
0[
0\
0^
0_
0`
0b
0d
0e
0}
0~
0!"
1!%
1!)
1!*
1!+
1!-
1!/
0!0
1!1
1!2
1!3
1!4
1!5
1!6
1!7
1!8
0!i
1!k
0!l
0!m
0!n
0!v
1!z
0!|
#1180000
0&
#1190000
1&
1!'
1!,
1!.
1!0
0!8
1!U
0!V
0!W
1!l
1!v
0!z
#1200000
0&
#1210000
b1000000000000000001010100 !
b11100001000011110001000000000000 #
1&
1D
0L
0O
0R
1Z
0]
0a
0c
1}
1~
1!"
0!%
0!'
0!,
0!.
0!0
1!8
1!W
1!i
0!k
1!n
0!u
#1220000
0&
#1230000
1&
0}
0~
0!"
1!%
1!&
0!i
1!k
0!l
0!n
0!v
1!z
#1240000
0&
#1250000
b11100011101000000011000011111111 "
1&
1!'
1!,
1!.
1!0
0!8
1!V
0!W
1!l
1!m
1!v
0!z
1!|
#1260000
0&
#1270000
$comment Sample 55 (End) $end
1&
1}
1~
1!"
0!%
0!&
0!'
0!,
0!.
0!0
1!8
1!W
1!i
0!k
1!n
